00:00:00.749842 VirtualBox GUI VM Selector Window 7.0.10 r158379 linux.amd64 (Aug 11 2023 12:19:51) release log
00:00:00.749845 Log opened 2023-10-19T02:08:10.198458000Z
00:00:00.749846 Build Type: release
00:00:00.749850 OS Product: Linux
00:00:00.749852 OS Release: 6.1.57-1-lts
00:00:00.749854 OS Version: #1 SMP PREEMPT_DYNAMIC Wed, 11 Oct 2023 05:10:50 +0000
00:00:00.749887 DMI Product Name: Inspiron 3668
00:00:00.749902 DMI Product Version: 
00:00:00.749909 Firmware type: UEFI
00:00:00.750163 Secure Boot: Disabled
00:00:00.750218 Host RAM: 15905MB (15.5GB) total, 13513MB (13.1GB) available
00:00:00.750222 Executable: /usr/lib/virtualbox/VirtualBox
00:00:00.750223 Process ID: 672598
00:00:00.750223 Package type: LINUX_64BITS_GENERIC (OSE)
00:00:00.750250 Qt version: 5.15.11
00:00:00.751627 GUI: UIMediumEnumerator: Initial medium-enumeration finished!
00:00:00.797091 GUI: UIMediumEnumerator: Medium-enumeration started...
00:00:01.760954 GUI: UIDesktopWidgetWatchdog::sltHandleHostScreenAvailableGeometryCalculated: Screen 1 work area is actually resized to: 2879x539 x 100x100
00:00:01.794349 GUI: UIDesktopWidgetWatchdog::sltHandleHostScreenAvailableGeometryCalculated: Screen 0 work area is actually resized to: 2879x539 x 100x100
00:00:01.800154 GUI: UIMediumEnumerator: Medium-enumeration finished!
00:00:05.138407 GUI: UIMediumEnumerator: Medium-enumeration finished!
00:00:05.618144 GUI: UIMediumEnumerator: Medium-enumeration finished!
00:00:09.084992 GUI: UIMediumEnumerator: Medium-enumeration finished!
00:00:17.474937 GUI: UIMediumEnumerator: Medium-enumeration finished!
00:00:21.462631 GUI: UIMediumEnumerator: Medium-enumeration finished!
01:01:56.488659 GUI: UIMediumEnumerator: Medium-enumeration finished!
01:01:56.488686 Log rotated - Log started 2023-10-19T02:08:10.198458000Z
