00:00:02.408387 VirtualBox GUI VM Selector Window 7.0.10 r158379 linux.amd64 (Aug 11 2023 12:19:51) release log
00:00:02.408390 Log opened 2023-10-18T17:22:03.845418000Z
00:00:02.408391 Build Type: release
00:00:02.408394 OS Product: Linux
00:00:02.408396 OS Release: 6.1.57-1-lts
00:00:02.408398 OS Version: #1 SMP PREEMPT_DYNAMIC Wed, 11 Oct 2023 05:10:50 +0000
00:00:02.408437 DMI Product Name: Inspiron 3668
00:00:02.408453 DMI Product Version: 
00:00:02.408460 Firmware type: UEFI
00:00:02.408681 Secure Boot: Disabled
00:00:02.408735 Host RAM: 15905MB (15.5GB) total, 14629MB (14.2GB) available
00:00:02.408740 Executable: /usr/lib/virtualbox/VirtualBox
00:00:02.408740 Process ID: 606700
00:00:02.408741 Package type: LINUX_64BITS_GENERIC (OSE)
00:00:02.408775 Qt version: 5.15.11
00:00:02.451948 GUI: UIMediumEnumerator: Initial medium-enumeration finished!
00:00:02.559567 GUI: UIMediumEnumerator: Medium-enumeration started...
00:00:05.109071 GUI: UIDesktopWidgetWatchdog::sltHandleHostScreenAvailableGeometryCalculated: Screen 0 work area is actually resized to: 956x536 x 100x100
00:00:05.110980 GUI: UIMediumEnumerator: Medium-enumeration finished!
00:00:05.317132 GUI: UIInvisibleWindow::sltFallback: Move event haven't came. Screen: 1, work area: 956x536 x 100x100
00:00:05.317147 GUI: UIDesktopWidgetWatchdog::sltHandleHostScreenAvailableGeometryCalculated: Screen 1 work area is actually resized to: 956x536 x 100x100
00:00:31.516169 QDBus error. No screen saver service found among registered DBus services.GUI: UIMediumEnumerator: Medium-enumeration finished!
00:12:23.504394 GUI: UIMediumEnumerator: Medium-enumeration finished!
00:15:56.197736 GUI: UIMediumEnumerator: Medium with key={{fe8bb0d3-925c-47ff-800c-2472da73c31f}} created
00:15:57.042962 GUI: UIMediumEnumerator: Medium-enumeration finished!
00:16:33.256118 GUI: UIMediumEnumerator: Medium-enumeration finished!
00:16:37.716784 GUI: UIMediumEnumerator: Medium-enumeration finished!
00:16:38.184104 GUI: UIMediumEnumerator: Medium-enumeration finished!
00:16:54.509099 GUI: UIMediumEnumerator: Medium-enumeration finished!
00:28:14.583758 GUI: UIMediumEnumerator: Medium-enumeration finished!
01:00:57.249799 GUI: UIMediumEnumerator: Medium-enumeration finished!
01:00:57.249837 Log rotated - Log started 2023-10-18T17:22:03.845418000Z
