00:00:02.427488 VirtualBox GUI VM Selector Window 7.0.10 r158379 linux.amd64 (Aug 11 2023 12:19:51) release log
00:00:02.427491 Log opened 2023-10-13T03:49:11.507018000Z
00:00:02.427492 Build Type: release
00:00:02.427495 OS Product: Linux
00:00:02.427497 OS Release: 6.1.55-1-lts
00:00:02.427499 OS Version: #1 SMP PREEMPT_DYNAMIC Sat, 23 Sep 2023 16:57:15 +0000
00:00:02.427533 DMI Product Name: Inspiron 3668
00:00:02.427548 DMI Product Version: 
00:00:02.427554 Firmware type: UEFI
00:00:02.427804 Secure Boot: Disabled
00:00:02.427857 Host RAM: 15905MB (15.5GB) total, 13053MB (12.7GB) available
00:00:02.427861 Executable: /usr/lib/virtualbox/VirtualBox
00:00:02.427862 Process ID: 474407
00:00:02.427863 Package type: LINUX_64BITS_GENERIC (OSE)
00:00:02.427892 Qt version: 5.15.10
00:00:02.468536 GUI: UIMediumEnumerator: Initial medium-enumeration finished!
00:00:02.572687 GUI: UIMediumEnumerator: Medium-enumeration started...
00:00:04.747014 GUI: UIDesktopWidgetWatchdog::sltHandleHostScreenAvailableGeometryCalculated: Screen 0 work area is actually resized to: 0x30 x 1920x1050
00:00:04.756087 GUI: UIDesktopWidgetWatchdog::sltHandleHostScreenAvailableGeometryCalculated: Screen 1 work area is actually resized to: 1920x0 x 1920x1080
00:00:04.786280 GUI: UIMediumEnumerator: Medium-enumeration finished!
00:00:18.953702 GUI: UIMediumEnumerator: Medium-enumeration finished!
00:00:19.794625 GUI: UIMediumEnumerator: Medium-enumeration finished!
00:00:20.680817 GUI: UIMediumEnumerator: Medium-enumeration finished!
00:00:23.056697 GUI: UIMediumEnumerator: Medium-enumeration finished!
00:00:24.369023 GUI: UIMediumEnumerator: Medium-enumeration finished!
00:01:36.258585 GUI: UICommon: Handling aboutToQuit request..
00:01:37.255792 GUI: UICommon: aboutToQuit request handled!
