02:33:05.813602 Log continuation - Log started 2023-10-18T17:22:03.845418000Z
02:33:06.532811 GUI: UIMediumEnumerator: Medium-enumeration finished!
02:37:30.614379 GUI: UIMediumEnumerator: Medium-enumeration finished!
02:37:30.682060 GUI: UIMediumEnumerator: Medium-enumeration finished!
02:37:31.391985 GUI: UIMediumEnumerator: Medium-enumeration finished!
02:37:31.749797 GUI: UIMediumEnumerator: Medium-enumeration finished!
02:37:32.458282 GUI: UIMediumEnumerator: Medium-enumeration finished!
02:37:32.810601 GUI: UIMediumEnumerator: Medium-enumeration finished!
02:37:33.739466 GUI: UIMediumEnumerator: Medium-enumeration finished!
02:37:34.495015 GUI: UIMediumEnumerator: Medium-enumeration finished!
02:37:35.427688 GUI: UIMediumEnumerator: Medium-enumeration finished!
02:37:35.476498 GUI: UIMediumEnumerator: Medium-enumeration finished!
02:37:59.063196 GUI: UIMediumEnumerator: Medium-enumeration finished!
02:38:11.699791 GUI: UIMediumEnumerator: Medium-enumeration finished!
02:38:12.058492 GUI: UIMediumEnumerator: Medium-enumeration finished!
02:38:12.512690 GUI: UIMediumEnumerator: Medium-enumeration finished!
02:38:12.528546 GUI: UIMediumEnumerator: Medium-enumeration finished!
02:50:57.256673 GUI: UIMediumEnumerator: Medium-enumeration finished!
02:50:58.337617 GUI: UIMediumEnumerator: Medium-enumeration finished!
03:09:22.168779 GUI: UIMediumEnumerator: Medium-enumeration finished!
03:09:22.168807 Log rotated - Log started 2023-10-18T17:22:03.845418000Z
