04:14:57.724776 Log continuation - Log started 2023-10-18T17:22:03.845418000Z
04:14:58.267941 GUI: UIMediumEnumerator: Medium-enumeration finished!
04:15:00.976439 GUI: UIMediumEnumerator: Medium-enumeration finished!
04:25:21.543699 GUI: UIMediumEnumerator: Medium-enumeration finished!
04:25:47.888657 GUI: UIMediumEnumerator: Medium-enumeration finished!
04:39:06.739784 GUI: UIMediumEnumerator: Medium-enumeration finished!
04:40:32.247189 GUI: UIMediumEnumerator: Medium-enumeration finished!
04:46:26.517419 GUI: UIMediumEnumerator: Medium-enumeration finished!
04:48:26.623361 GUI: UIMediumEnumerator: Medium-enumeration finished!
04:48:54.741339 GUI: UIMediumEnumerator: Medium-enumeration finished!
04:55:43.741943 GUI: UIMediumEnumerator: Medium-enumeration finished!
04:57:19.070287 GUI: UIMediumEnumerator: Medium-enumeration finished!
04:57:55.645548 GUI: UIMediumEnumerator: Medium-enumeration finished!
05:17:57.210016 GUI: UIMediumEnumerator: Medium-enumeration finished!
05:17:57.210044 Log rotated - Log started 2023-10-18T17:22:03.845418000Z
