00:00:11.804873 VirtualBox GUI VM Selector Window 7.0.10 r158379 linux.amd64 (Aug 11 2023 12:19:51) release log
00:00:11.804877 Log opened 2023-10-06T22:44:13.841008000Z
00:00:11.804879 Build Type: release
00:00:11.804884 OS Product: Linux
00:00:11.804887 OS Release: 6.1.55-1-lts
00:00:11.804890 OS Version: #1 SMP PREEMPT_DYNAMIC Sat, 23 Sep 2023 16:57:15 +0000
00:00:11.804953 DMI Product Name: Inspiron 3668
00:00:11.804978 DMI Product Version: 
00:00:11.804989 Firmware type: UEFI
00:00:11.805269 Secure Boot: Disabled
00:00:11.805357 Host RAM: 15905MB (15.5GB) total, 14568MB (14.2GB) available
00:00:11.805363 Executable: /usr/lib/virtualbox/VirtualBox
00:00:11.805364 Process ID: 88085
00:00:11.805365 Package type: LINUX_64BITS_GENERIC (OSE)
00:00:11.805414 Qt version: 5.15.10
00:00:11.841846 GUI: UIMediumEnumerator: Initial medium-enumeration finished!
00:00:11.936655 GUI: UIMediumEnumerator: Medium-enumeration started...
00:00:22.092331 GUI: UIInvisibleWindow::sltFallback: Move event haven't came. Screen: 0, work area: 1920x0 x 1920x1080
00:00:22.092374 GUI: UIDesktopWidgetWatchdog::sltHandleHostScreenAvailableGeometryCalculated: Screen 0 work area is actually resized to: 1920x0 x 1920x1080
00:00:22.092461 GUI: UIInvisibleWindow::sltFallback: Move event haven't came. Screen: 1, work area: 0x0 x 1920x1080
00:00:22.092478 GUI: UIDesktopWidgetWatchdog::sltHandleHostScreenAvailableGeometryCalculated: Screen 1 work area is actually resized to: 0x0 x 1920x1080
00:00:22.213284 GUI: UIMediumEnumerator: Medium-enumeration finished!
00:02:24.055768 GUI: UIMediumEnumerator: Medium with key={{ad7bab70-4e7e-47c2-9dcd-2ce2d6e08bf9}} created
00:02:31.062952 GUI: UIMediumEnumerator: Medium-enumeration finished!
00:02:52.997900 GUI: UIMediumEnumerator: Medium-enumeration finished!
00:02:54.409524 GUI: UIMediumEnumerator: Medium-enumeration finished!
00:03:07.659064 GUI: UIMediumEnumerator: Medium-enumeration finished!
00:03:44.152764 GUI: UIMediumEnumerator: Medium-enumeration finished!
00:03:51.185389 GUI: UIMediumEnumerator: Medium-enumeration finished!
00:04:04.775676 GUI: UIMediumEnumerator: Medium-enumeration finished!
00:04:08.967119 GUI: UIMediumEnumerator: Medium-enumeration finished!
00:41:15.519026 GUI: UIDesktopWidgetWatchdog::sltHandleHostScreenAvailableGeometryCalculated: Screen 0 work area is actually resized to: 2879x539 x 100x100
00:41:16.493568 GUI: UIDesktopWidgetWatchdog::sltHandleHostScreenAvailableGeometryCalculated: Screen 0 work area is actually resized to: 2879x539 x 100x100
00:41:16.499653 GUI: UIDesktopWidgetWatchdog::sltHandleHostScreenAvailableGeometryCalculated: Screen 1 work area is actually resized to: 2876x536 x 100x100
00:51:09.926442 GUI: UIMediumEnumerator: Medium-enumeration finished!
00:52:45.352901 GUI: UICommon: Handling aboutToQuit request..
00:52:46.198767 GUI: UICommon: aboutToQuit request handled!
