01:00:57.304324 Log continuation - Log started 2023-10-18T17:22:03.845418000Z
01:48:17.892799 GUI: UIMediumEnumerator: Medium-enumeration finished!
01:48:18.676120 GUI: UIMediumEnumerator: Medium-enumeration finished!
02:33:05.813206 GUI: UIMediumEnumerator: Medium-enumeration finished!
02:33:05.813233 Log rotated - Log started 2023-10-18T17:22:03.845418000Z
