05:17:57.228881 Log continuation - Log started 2023-10-18T17:22:03.845418000Z
05:59:32.180156 GUI: UICommon: Handling aboutToQuit request..
05:59:33.075803 GUI: UICommon: aboutToQuit request handled!
