03:09:22.169341 Log continuation - Log started 2023-10-18T17:22:03.845418000Z
03:09:22.234165 GUI: UIMediumEnumerator: Medium-enumeration finished!
03:10:34.499043 GUI: UIMediumEnumerator: Medium-enumeration finished!
03:10:36.845286 GUI: UIMediumEnumerator: Medium-enumeration finished!
03:10:36.862898 GUI: UIMediumEnumerator: Medium-enumeration finished!
03:36:30.789499 GUI: UIMediumEnumerator: Medium-enumeration finished!
03:41:40.404275 GUI: UIMediumEnumerator: Medium-enumeration finished!
04:14:57.702627 GUI: UIMediumEnumerator: Medium-enumeration finished!
04:14:57.715452 Log rotated - Log started 2023-10-18T17:22:03.845418000Z
