00:00:00.137912 main     VirtualBox XPCOM Server 7.0.8 r156879 linux.amd64 (Apr 18 2023 21:49:14) release log
00:00:00.137917 main     Log opened 2023-07-04T17:45:47.934657000Z
00:00:00.137919 main     Build Type: release
00:00:00.137924 main     OS Product: Linux
00:00:00.137927 main     OS Release: 6.1.37-1-lts
00:00:00.137930 main     OS Version: #1 SMP PREEMPT_DYNAMIC Sat, 01 Jul 2023 17:31:09 +0000
00:00:00.137973 main     DMI Product Name: Inspiron 3668
00:00:00.137995 main     DMI Product Version: 
00:00:00.138005 main     Firmware type: UEFI
00:00:00.138471 main     Secure Boot: Disabled
00:00:00.138561 main     Host RAM: 15906MB (15.5GB) total, 15300MB (14.9GB) available
00:00:00.138568 main     Executable: /usr/lib/virtualbox/VBoxSVC
00:00:00.138569 main     Process ID: 3319
00:00:00.138570 main     Package type: LINUX_64BITS_GENERIC (OSE)
00:00:00.142003 main     IPC socket path: /tmp/.vbox-marcus-ipc/ipcd
00:00:00.289745 nspr-2   VirtualBox: object creation starts
00:00:00.313531 nspr-2   Home directory: '/home/marcus/.config/VirtualBox'
00:00:00.357510 nspr-2   Loading settings file "/home/marcus/.config/VirtualBox/VirtualBox.xml" with version "1.12-linux"
00:00:00.420553 nspr-2   Successfully initialised host USB using sysfs
00:00:00.473538 nspr-2   NetIfAdpCtlOut: VBoxNetAdpCtl: Error while retrieving link speed for wlp3s0: VBoxNetAdpCtl: ioctl failed: Operation not supported
00:00:00.474337 nspr-2   HostDnsMonitor: initializing
00:00:00.474492 nspr-2   NAT: resolv.conf: nameserver 185.228.168.168
00:00:00.474501 nspr-2   HostDnsMonitor: updating information
00:00:00.474507 nspr-2   HostDnsMonitor: old information
00:00:00.474509 nspr-2     no server entries
00:00:00.474510 nspr-2     no domain set
00:00:00.474512 nspr-2     no search string entries
00:00:00.474513 nspr-2   HostDnsMonitor: new information
00:00:00.474515 nspr-2     server 1: 185.228.168.168
00:00:00.474517 nspr-2     no domain set
00:00:00.474518 nspr-2     no search string entries
00:00:00.528130 nspr-2   VD: VDInit finished with VINF_SUCCESS
00:00:00.618420 nspr-2   ERROR [COM]: aRC=NS_ERROR_FAILURE (0x80004005) aIID={aac6c7cb-a371-4c58-ab51-0616896b2f2c} aComponent={SystemPropertiesWrap} aText={Cannot determine default Guest Additions ISO location. Most likely they are not available}, preserve=false aResultDetail=0
00:00:00.684561 nspr-2   Loading settings file "/home/marcus/VirtualBox VMs/HACKME/HACKME.vbox" with version "1.19-linux"
00:00:00.746672 nspr-2   Loading settings file "/home/marcus/i/InstallationMedia/kali-linux-2023.1-virtualbox-amd64/kali-linux-2023.1-virtualbox-amd64.vbox" with version "1.19-linux"
00:00:00.767633 nspr-2   Loading settings file "/home/marcus/VirtualBox VMs/win7-pro_64-bit/win7-pro_64-bit.vbox" with version "1.19-linux"
00:00:00.816317 nspr-2   Loading settings file "/home/marcus/VirtualBox VMs/test_install_script/test_install_script.vbox" with version "1.19-linux"
00:00:00.817566 nspr-2   VirtualBox: object created
00:00:03.021415 nspr-6   ERROR [COM]: aRC=VBOX_E_INVALID_VM_STATE (0x80bb0002) aIID={300763af-5d6b-46e6-aa96-273eac15538a} aComponent={MachineWrap} aText={The machine is not mutable (state is PoweredOff)}, preserve=false aResultDetail=0
00:00:03.244996 nspr-3   Saving settings file "/home/marcus/.config/VirtualBox/VirtualBox.xml" with version "1.12-linux"
00:00:03.431729 nspr-3   Finished saving settings file "/home/marcus/.config/VirtualBox/VirtualBox.xml"
00:00:13.969691 main     VirtualBox: object deletion starts
00:00:13.969950 main     ERROR [COM]: aRC=VBOX_E_OBJECT_IN_USE (0x80bb000c) aIID={ad47ad09-787b-44ab-b343-a082a3f2dfb1} aComponent={MediumWrap} aText={Medium '/home/marcus/VirtualBox VMs/HACKME/mrRobot-disk1.vdi' cannot be closed because it is still attached to 1 virtual machines}, preserve=false aResultDetail=0
00:00:13.970175 main     ERROR [COM]: aRC=VBOX_E_OBJECT_IN_USE (0x80bb000c) aIID={ad47ad09-787b-44ab-b343-a082a3f2dfb1} aComponent={MediumWrap} aText={Medium '/home/marcus/i/InstallationMedia/kali-linux-2023.1-virtualbox-amd64/kali-linux-2023.1-virtualbox-amd64.vdi' cannot be closed because it is still attached to 1 virtual machines}, preserve=false aResultDetail=0
00:00:13.970371 main     ERROR [COM]: aRC=VBOX_E_OBJECT_IN_USE (0x80bb000c) aIID={ad47ad09-787b-44ab-b343-a082a3f2dfb1} aComponent={MediumWrap} aText={Medium '/home/marcus/VirtualBox VMs/win7-pro_64-bit/win7-pro_64-bit.vdi' cannot be closed because it is still attached to 1 virtual machines}, preserve=false aResultDetail=0
00:00:13.970528 main     ERROR [COM]: aRC=VBOX_E_OBJECT_IN_USE (0x80bb000c) aIID={ad47ad09-787b-44ab-b343-a082a3f2dfb1} aComponent={MediumWrap} aText={Medium '/home/marcus/VirtualBox VMs/test_install_script/test_install_script.vdi' cannot be closed because it is still attached to 1 virtual machines}, preserve=false aResultDetail=0
00:00:13.971266 main     HostDnsMonitor: shutting down ...
00:00:13.971699 main     HostDnsMonitor: shut down
00:00:13.992204 Watcher  ERROR [COM]: aRC=E_ACCESSDENIED (0x80070005) aIID={7682d5eb-f00e-44f1-8ca2-99d08b1cd607} aComponent={VirtualBoxWrap} aText={The object is not ready}, preserve=false aResultDetail=0
00:00:13.992428 main     VirtualBox: object deleted
