00:00:00.096560 main     VirtualBox XPCOM Server 7.0.10 r158379 linux.amd64 (Aug 11 2023 12:19:51) release log
00:00:00.096564 main     Log opened 2023-10-18T17:22:02.972153000Z
00:00:00.096565 main     Build Type: release
00:00:00.096568 main     OS Product: Linux
00:00:00.096570 main     OS Release: 6.1.57-1-lts
00:00:00.096572 main     OS Version: #1 SMP PREEMPT_DYNAMIC Wed, 11 Oct 2023 05:10:50 +0000
00:00:00.096613 main     DMI Product Name: Inspiron 3668
00:00:00.096628 main     DMI Product Version: 
00:00:00.096636 main     Firmware type: UEFI
00:00:00.096889 main     Secure Boot: Disabled
00:00:00.096961 main     Host RAM: 15905MB (15.5GB) total, 14637MB (14.2GB) available
00:00:00.096966 main     Executable: /usr/lib/virtualbox/VBoxSVC
00:00:00.096967 main     Process ID: 606734
00:00:00.096967 main     Package type: LINUX_64BITS_GENERIC (OSE)
00:00:00.100406 main     IPC socket path: /tmp/.vbox-marcus-ipc/ipcd
00:00:00.246936 nspr-2   VirtualBox: object creation starts
00:00:00.259502 nspr-2   Home directory: '/home/marcus/.config/VirtualBox'
00:00:00.276493 nspr-2   Loading settings file "/home/marcus/.config/VirtualBox/VirtualBox.xml" with version "1.12-linux"
00:00:00.333935 nspr-2   Successfully initialised host USB using sysfs
00:00:00.414629 nspr-2   NetIfAdpCtlOut: VBoxNetAdpCtl: Error while retrieving link speed for wlp3s0: VBoxNetAdpCtl: ioctl failed: Operation not supported
00:00:00.416731 nspr-2   HostDnsMonitor: initializing
00:00:00.417156 nspr-2   NAT: resolv.conf: nameserver 185.228.168.10
00:00:00.417180 nspr-2   HostDnsMonitor: updating information
00:00:00.417201 nspr-2   HostDnsMonitor: old information
00:00:00.417205 nspr-2     no server entries
00:00:00.417210 nspr-2     no domain set
00:00:00.417214 nspr-2     no search string entries
00:00:00.417219 nspr-2   HostDnsMonitor: new information
00:00:00.417223 nspr-2     server 1: 185.228.168.10
00:00:00.417229 nspr-2     no domain set
00:00:00.417233 nspr-2     no search string entries
00:00:00.453255 nspr-2   VD: VDInit finished with VINF_SUCCESS
00:00:00.573130 nspr-2   ERROR [COM]: aRC=NS_ERROR_FAILURE (0x80004005) aIID={aac6c7cb-a371-4c58-ab51-0616896b2f2c} aComponent={SystemPropertiesWrap} aText={Cannot determine default Guest Additions ISO location. Most likely they are not available}, preserve=false aResultDetail=0
00:00:00.625566 nspr-2   Loading settings file "/home/marcus/VirtualBox VMs/HACKME/HACKME.vbox" with version "1.19-linux"
00:00:00.680170 nspr-2   Loading settings file "/home/marcus/i/InstallationMedia/kali-linux-2023.1-virtualbox-amd64/kali-linux-2023.1-virtualbox-amd64.vbox" with version "1.19-linux"
00:00:00.693121 nspr-2   Loading settings file "/home/marcus/VirtualBox VMs/win7-pro_64-bit/win7-pro_64-bit.vbox" with version "1.19-linux"
00:00:00.724770 nspr-2   Loading settings file "/home/marcus/VirtualBox VMs/test_install_script/test_install_script.vbox" with version "1.19-linux"
00:00:00.738325 nspr-2   Loading settings file "/home/marcus/VirtualBox VMs/Android/Android.vbox" with version "1.19-linux"
00:00:00.754868 nspr-2   Loading settings file "/home/marcus/VirtualBox VMs/Windows 11/Windows 11.vbox" with version "1.19-linux"
00:00:00.772662 nspr-2   VirtualBox: object created
00:00:03.695769 nspr-4   ERROR [COM]: aRC=VBOX_E_INVALID_VM_STATE (0x80bb0002) aIID={300763af-5d6b-46e6-aa96-273eac15538a} aComponent={MachineWrap} aText={The machine is not mutable (state is PoweredOff)}, preserve=false aResultDetail=0
00:00:03.981671 nspr-3   Saving settings file "/home/marcus/.config/VirtualBox/VirtualBox.xml" with version "1.12-linux"
00:00:04.165362 nspr-3   Finished saving settings file "/home/marcus/.config/VirtualBox/VirtualBox.xml"
00:00:30.559413 nspr-6   Saving settings file "/home/marcus/.config/VirtualBox/VirtualBox.xml" with version "1.12-linux"
00:00:30.687849 nspr-6   Finished saving settings file "/home/marcus/.config/VirtualBox/VirtualBox.xml"
00:00:32.974117 nspr-6   Saving settings file "/home/marcus/.config/VirtualBox/VirtualBox.xml" with version "1.12-linux"
00:00:33.104340 nspr-6   Finished saving settings file "/home/marcus/.config/VirtualBox/VirtualBox.xml"
00:00:39.006513 nspr-6   Saving settings file "/home/marcus/.config/VirtualBox/VirtualBox.xml" with version "1.12-linux"
00:00:39.120341 nspr-6   Finished saving settings file "/home/marcus/.config/VirtualBox/VirtualBox.xml"
00:00:51.927926 nspr-2   Saving settings file "/home/marcus/.config/VirtualBox/VirtualBox.xml" with version "1.12-linux"
00:00:52.037757 nspr-2   Finished saving settings file "/home/marcus/.config/VirtualBox/VirtualBox.xml"
00:00:52.407932 nspr-3   ERROR [COM]: aRC=VBOX_E_INVALID_VM_STATE (0x80bb0002) aIID={300763af-5d6b-46e6-aa96-273eac15538a} aComponent={MachineWrap} aText={The machine is not mutable (state is PoweredOff)}, preserve=false aResultDetail=0
00:00:55.055913 nspr-6   Launched VM: 67146784 pid: 606863 (0x9428f) frontend: GUI/Qt name: Windows 11
00:00:55.083078 nspr-5   ERROR [COM]: aRC=VBOX_E_INVALID_VM_STATE (0x80bb0002) aIID={300763af-5d6b-46e6-aa96-273eac15538a} aComponent={MachineWrap} aText={The machine is not mutable (state is PoweredOff)}, preserve=false aResultDetail=0
00:00:55.381616 nspr-8   ERROR [COM]: aRC=VBOX_E_INVALID_VM_STATE (0x80bb0002) aIID={300763af-5d6b-46e6-aa96-273eac15538a} aComponent={MachineWrap} aText={The machine is not mutable (state is PoweredOff)}, preserve=false aResultDetail=0
00:00:55.826922 nspr-8   ERROR [COM]: aRC=VBOX_E_OBJECT_NOT_FOUND (0x80bb0001) aIID={70401eef-c8e9-466b-9660-45cb3e9979e4} aComponent={ExtPackManagerWrap} aText={No extension pack by the name 'Oracle VM VirtualBox Extension Pack' was found}, preserve=false aResultDetail=0
00:00:55.927964 nspr-7   ERROR [COM]: aRC=VBOX_E_IPRT_ERROR (0x80bb0005) aIID={300763af-5d6b-46e6-aa96-273eac15538a} aComponent={SessionMachine} aText={Saved screenshot data is not available (VERR_NOT_SUPPORTED)}, preserve=false aResultDetail=-37
00:00:56.000913 nspr-7   NetIfAdpCtlOut: VBoxNetAdpCtl: Error while retrieving link speed for wlp3s0: VBoxNetAdpCtl: ioctl failed: Operation not supported
00:00:56.177397 nspr-6   ERROR [COM]: aRC=VBOX_E_INVALID_VM_STATE (0x80bb0002) aIID={300763af-5d6b-46e6-aa96-273eac15538a} aComponent={MachineWrap} aText={The machine is not mutable (state is Starting)}, preserve=false aResultDetail=0
00:00:56.309503 nspr-6   Saving settings file "/home/marcus/.config/VirtualBox/VirtualBox.xml" with version "1.12-linux"
00:00:56.568852 nspr-6   Finished saving settings file "/home/marcus/.config/VirtualBox/VirtualBox.xml"
00:00:57.651720 nspr-7   ERROR [COM]: aRC=VBOX_E_OBJECT_NOT_FOUND (0x80bb0001) aIID={ad47ad09-787b-44ab-b343-a082a3f2dfb1} aComponent={MediumWrap} aText={Property 'CRYPT/KeyId' does not exist}, preserve=false aResultDetail=0
00:00:57.654084 nspr-7   ERROR [COM]: aRC=VBOX_E_OBJECT_NOT_FOUND (0x80bb0001) aIID={ad47ad09-787b-44ab-b343-a082a3f2dfb1} aComponent={MediumWrap} aText={Property 'CRYPT/KeyId' does not exist}, preserve=false aResultDetail=0
00:00:57.756228 nspr-2   ERROR [COM]: aRC=VBOX_E_INVALID_VM_STATE (0x80bb0002) aIID={300763af-5d6b-46e6-aa96-273eac15538a} aComponent={MachineWrap} aText={The machine is not mutable (state is Running)}, preserve=false aResultDetail=0
00:01:26.360523 nspr-5   Saving settings file "/home/marcus/.config/VirtualBox/VirtualBox.xml" with version "1.12-linux"
00:01:26.791105 nspr-5   Finished saving settings file "/home/marcus/.config/VirtualBox/VirtualBox.xml"
00:01:35.991124 nspr-5   ERROR [COM]: aRC=VBOX_E_INVALID_VM_STATE (0x80bb0002) aIID={300763af-5d6b-46e6-aa96-273eac15538a} aComponent={SessionMachine} aText={The machine is not mutable (state is Running)}, preserve=false aResultDetail=0
00:01:36.451471 nspr-4   Saving settings file "/home/marcus/.config/VirtualBox/VirtualBox.xml" with version "1.12-linux"
00:01:36.881826 nspr-4   Finished saving settings file "/home/marcus/.config/VirtualBox/VirtualBox.xml"
00:01:37.395212 nspr-7   NetIfAdpCtlOut: VBoxNetAdpCtl: Error while retrieving link speed for wlp3s0: VBoxNetAdpCtl: ioctl failed: Operation not supported
00:01:37.524790 nspr-3   NetIfAdpCtlOut: VBoxNetAdpCtl: Error while retrieving link speed for wlp3s0: VBoxNetAdpCtl: ioctl failed: Operation not supported
00:01:45.793482 nspr-2   Saving settings file "/home/marcus/.config/VirtualBox/VirtualBox.xml" with version "1.12-linux"
00:01:46.814307 nspr-2   Finished saving settings file "/home/marcus/.config/VirtualBox/VirtualBox.xml"
00:02:53.607183 nspr-4   ERROR [COM]: aRC=VBOX_E_INVALID_VM_STATE (0x80bb0002) aIID={300763af-5d6b-46e6-aa96-273eac15538a} aComponent={SessionMachine} aText={The machine is not mutable (state is Running)}, preserve=false aResultDetail=0
00:02:53.627683 nspr-4   NetIfAdpCtlOut: VBoxNetAdpCtl: Error while retrieving link speed for wlp3s0: VBoxNetAdpCtl: ioctl failed: Operation not supported
00:02:53.642023 nspr-2   NetIfAdpCtlOut: VBoxNetAdpCtl: Error while retrieving link speed for wlp3s0: VBoxNetAdpCtl: ioctl failed: Operation not supported
00:02:54.051206 nspr-8   Saving settings file "/home/marcus/.config/VirtualBox/VirtualBox.xml" with version "1.12-linux"
00:02:54.326672 nspr-8   Finished saving settings file "/home/marcus/.config/VirtualBox/VirtualBox.xml"
00:07:15.738562 nspr-8   ERROR [COM]: aRC=VBOX_E_INVALID_VM_STATE (0x80bb0002) aIID={300763af-5d6b-46e6-aa96-273eac15538a} aComponent={MachineWrap} aText={The machine is not mutable (state is Paused)}, preserve=false aResultDetail=0
00:07:17.928337 nspr-8   ERROR [COM]: aRC=VBOX_E_INVALID_VM_STATE (0x80bb0002) aIID={300763af-5d6b-46e6-aa96-273eac15538a} aComponent={MachineWrap} aText={The machine is not mutable (state is Stopping)}, preserve=false aResultDetail=0
00:07:18.390606 nspr-8   Saving settings file "/home/marcus/VirtualBox VMs/Windows 11/Windows 11.vbox" with version "1.19-linux"
00:07:18.842674 nspr-8   Finished saving settings file "/home/marcus/VirtualBox VMs/Windows 11/Windows 11.vbox"
00:07:18.918012 nspr-7   ERROR [COM]: aRC=VBOX_E_INVALID_VM_STATE (0x80bb0002) aIID={300763af-5d6b-46e6-aa96-273eac15538a} aComponent={MachineWrap} aText={The machine is not mutable (state is PoweredOff)}, preserve=false aResultDetail=0
00:07:20.159996 nspr-2   ERROR [COM]: aRC=VBOX_E_INVALID_VM_STATE (0x80bb0002) aIID={300763af-5d6b-46e6-aa96-273eac15538a} aComponent={MachineWrap} aText={The machine is not mutable (state is PoweredOff)}, preserve=false aResultDetail=0
00:09:42.476001 nspr-3   Saving settings file "/home/marcus/.config/VirtualBox/VirtualBox.xml" with version "1.12-linux"
00:09:42.671287 nspr-3   Finished saving settings file "/home/marcus/.config/VirtualBox/VirtualBox.xml"
00:11:06.801197 nspr-6   Saving settings file "/home/marcus/.config/VirtualBox/VirtualBox.xml" with version "1.12-linux"
00:11:06.888624 nspr-6   Finished saving settings file "/home/marcus/.config/VirtualBox/VirtualBox.xml"
00:11:59.417565 nspr-4   ERROR [COM]: aRC=VBOX_E_INVALID_VM_STATE (0x80bb0002) aIID={300763af-5d6b-46e6-aa96-273eac15538a} aComponent={MachineWrap} aText={The machine is not mutable (state is PoweredOff)}, preserve=false aResultDetail=0
00:11:59.518639 nspr-4   Saving settings file "/home/marcus/VirtualBox VMs/Windows 11/Windows 11.vbox" with version "1.19-linux"
00:11:59.833944 nspr-4   Finished saving settings file "/home/marcus/VirtualBox VMs/Windows 11/Windows 11.vbox"
00:12:00.109292 nspr-2   ERROR [COM]: aRC=VBOX_E_INVALID_VM_STATE (0x80bb0002) aIID={300763af-5d6b-46e6-aa96-273eac15538a} aComponent={MachineWrap} aText={The machine is not mutable (state is PoweredOff)}, preserve=false aResultDetail=0
00:12:00.167557 nspr-3   ERROR [COM]: aRC=VBOX_E_INVALID_VM_STATE (0x80bb0002) aIID={300763af-5d6b-46e6-aa96-273eac15538a} aComponent={MachineWrap} aText={The machine is not mutable (state is PoweredOff)}, preserve=false aResultDetail=0
00:12:00.255200 nspr-9   Saving settings file "/home/marcus/.config/VirtualBox/VirtualBox.xml" with version "1.12-linux"
00:12:00.350551 nspr-9   Finished saving settings file "/home/marcus/.config/VirtualBox/VirtualBox.xml"
00:12:09.747609 nspr-6   NvramStore: Loading 'TpmEmuTpms/permall' from archive
00:12:09.747625 nspr-6   NvramStore: Loading 'efi/nvram' from archive
00:12:09.803727 nspr-8   NetIfAdpCtlOut: VBoxNetAdpCtl: Error while retrieving link speed for wlp3s0: VBoxNetAdpCtl: ioctl failed: Operation not supported
00:12:09.822007 nspr-6   NetIfAdpCtlOut: VBoxNetAdpCtl: Error while retrieving link speed for wlp3s0: VBoxNetAdpCtl: ioctl failed: Operation not supported
00:12:09.980023 nspr-7   ERROR [COM]: aRC=VBOX_E_INVALID_VM_STATE (0x80bb0002) aIID={300763af-5d6b-46e6-aa96-273eac15538a} aComponent={MachineWrap} aText={The machine is not mutable (state is PoweredOff)}, preserve=false aResultDetail=0
00:12:10.181784 nspr-9   Saving settings file "/home/marcus/.config/VirtualBox/VirtualBox.xml" with version "1.12-linux"
00:12:10.316316 nspr-9   Finished saving settings file "/home/marcus/.config/VirtualBox/VirtualBox.xml"
00:12:21.763215 nspr-2   Saving settings file "/home/marcus/VirtualBox VMs/Windows 11/Windows 11.vbox" with version "1.19-linux"
00:12:21.950502 nspr-2   Finished saving settings file "/home/marcus/VirtualBox VMs/Windows 11/Windows 11.vbox"
00:12:22.081410 nspr-9   ERROR [COM]: aRC=VBOX_E_INVALID_VM_STATE (0x80bb0002) aIID={300763af-5d6b-46e6-aa96-273eac15538a} aComponent={MachineWrap} aText={The machine is not mutable (state is PoweredOff)}, preserve=false aResultDetail=0
00:12:22.352611 nspr-9   Saving settings file "/home/marcus/.config/VirtualBox/VirtualBox.xml" with version "1.12-linux"
00:12:22.441999 nspr-9   Finished saving settings file "/home/marcus/.config/VirtualBox/VirtualBox.xml"
00:12:24.252538 nspr-8   Launched VM: 4227884032 pid: 608334 (0x9484e) frontend: GUI/Qt name: Windows 11
00:12:24.293403 nspr-4   ERROR [COM]: aRC=VBOX_E_INVALID_VM_STATE (0x80bb0002) aIID={300763af-5d6b-46e6-aa96-273eac15538a} aComponent={MachineWrap} aText={The machine is not mutable (state is PoweredOff)}, preserve=false aResultDetail=0
00:12:27.221305 nspr-5   ERROR [COM]: aRC=VBOX_E_INVALID_VM_STATE (0x80bb0002) aIID={300763af-5d6b-46e6-aa96-273eac15538a} aComponent={MachineWrap} aText={The machine is not mutable (state is PoweredOff)}, preserve=false aResultDetail=0
00:12:27.963731 nspr-6   ERROR [COM]: aRC=VBOX_E_OBJECT_NOT_FOUND (0x80bb0001) aIID={70401eef-c8e9-466b-9660-45cb3e9979e4} aComponent={ExtPackManagerWrap} aText={No extension pack by the name 'Oracle VM VirtualBox Extension Pack' was found}, preserve=false aResultDetail=0
00:12:28.350609 nspr-9   ERROR [COM]: aRC=VBOX_E_IPRT_ERROR (0x80bb0005) aIID={300763af-5d6b-46e6-aa96-273eac15538a} aComponent={SessionMachine} aText={Saved screenshot data is not available (VERR_NOT_SUPPORTED)}, preserve=false aResultDetail=-37
00:12:28.439407 nspr-5   NetIfAdpCtlOut: VBoxNetAdpCtl: Error while retrieving link speed for wlp3s0: VBoxNetAdpCtl: ioctl failed: Operation not supported
00:12:28.732343 nspr-7   ERROR [COM]: aRC=VBOX_E_INVALID_VM_STATE (0x80bb0002) aIID={300763af-5d6b-46e6-aa96-273eac15538a} aComponent={MachineWrap} aText={The machine is not mutable (state is Starting)}, preserve=false aResultDetail=0
00:12:28.776243 nspr-2   Saving settings file "/home/marcus/.config/VirtualBox/VirtualBox.xml" with version "1.12-linux"
00:12:29.272898 nspr-2   Finished saving settings file "/home/marcus/.config/VirtualBox/VirtualBox.xml"
00:12:30.300325 nspr-4   ERROR [COM]: aRC=VBOX_E_OBJECT_NOT_FOUND (0x80bb0001) aIID={ad47ad09-787b-44ab-b343-a082a3f2dfb1} aComponent={MediumWrap} aText={Property 'CRYPT/KeyId' does not exist}, preserve=false aResultDetail=0
00:12:30.301735 nspr-9   ERROR [COM]: aRC=VBOX_E_OBJECT_NOT_FOUND (0x80bb0001) aIID={ad47ad09-787b-44ab-b343-a082a3f2dfb1} aComponent={MediumWrap} aText={Property 'CRYPT/KeyId' does not exist}, preserve=false aResultDetail=0
00:12:30.347235 nspr-7   ERROR [COM]: aRC=VBOX_E_INVALID_VM_STATE (0x80bb0002) aIID={300763af-5d6b-46e6-aa96-273eac15538a} aComponent={MachineWrap} aText={The machine is not mutable (state is Running)}, preserve=false aResultDetail=0
00:13:35.413977 nspr-6   ERROR [COM]: aRC=VBOX_E_INVALID_VM_STATE (0x80bb0002) aIID={300763af-5d6b-46e6-aa96-273eac15538a} aComponent={MachineWrap} aText={The machine is not mutable (state is Paused)}, preserve=false aResultDetail=0
00:13:36.705697 nspr-5   ERROR [COM]: aRC=VBOX_E_INVALID_VM_STATE (0x80bb0002) aIID={300763af-5d6b-46e6-aa96-273eac15538a} aComponent={MachineWrap} aText={The machine is not mutable (state is Stopping)}, preserve=false aResultDetail=0
00:13:36.847991 nspr-8   Saving settings file "/home/marcus/VirtualBox VMs/Windows 11/Windows 11.vbox" with version "1.19-linux"
00:13:37.083488 nspr-8   Finished saving settings file "/home/marcus/VirtualBox VMs/Windows 11/Windows 11.vbox"
00:13:37.122861 nspr-8   ERROR [COM]: aRC=VBOX_E_INVALID_VM_STATE (0x80bb0002) aIID={300763af-5d6b-46e6-aa96-273eac15538a} aComponent={MachineWrap} aText={The machine is not mutable (state is PoweredOff)}, preserve=false aResultDetail=0
00:13:38.425240 nspr-6   ERROR [COM]: aRC=VBOX_E_INVALID_VM_STATE (0x80bb0002) aIID={300763af-5d6b-46e6-aa96-273eac15538a} aComponent={MachineWrap} aText={The machine is not mutable (state is PoweredOff)}, preserve=false aResultDetail=0
00:13:38.694486 nspr-9   Saving settings file "/home/marcus/.config/VirtualBox/VirtualBox.xml" with version "1.12-linux"
00:13:38.816679 nspr-9   Finished saving settings file "/home/marcus/.config/VirtualBox/VirtualBox.xml"
00:13:40.699542 nspr-2   NvramStore: Loading 'TpmEmuTpms/permall' from archive
00:13:40.699560 nspr-2   NvramStore: Loading 'efi/nvram' from archive
00:13:40.907520 nspr-9   ERROR [COM]: aRC=VBOX_E_INVALID_VM_STATE (0x80bb0002) aIID={300763af-5d6b-46e6-aa96-273eac15538a} aComponent={MachineWrap} aText={The machine is not mutable (state is PoweredOff)}, preserve=false aResultDetail=0
00:13:41.157017 nspr-3   Saving settings file "/home/marcus/.config/VirtualBox/VirtualBox.xml" with version "1.12-linux"
00:13:41.354869 nspr-8   NetIfAdpCtlOut: VBoxNetAdpCtl: Error while retrieving link speed for wlp3s0: VBoxNetAdpCtl: ioctl failed: Operation not supported
00:13:41.358050 nspr-3   Finished saving settings file "/home/marcus/.config/VirtualBox/VirtualBox.xml"
00:13:41.383485 nspr-4   NetIfAdpCtlOut: VBoxNetAdpCtl: Error while retrieving link speed for wlp3s0: VBoxNetAdpCtl: ioctl failed: Operation not supported
00:13:41.453186 nspr-9   ERROR [COM]: aRC=VBOX_E_INVALID_VM_STATE (0x80bb0002) aIID={300763af-5d6b-46e6-aa96-273eac15538a} aComponent={MachineWrap} aText={The machine is not mutable (state is PoweredOff)}, preserve=false aResultDetail=0
00:13:53.078440 nspr-7   Saving settings file "/home/marcus/.config/VirtualBox/VirtualBox.xml" with version "1.12-linux"
00:13:53.207042 nspr-7   Finished saving settings file "/home/marcus/.config/VirtualBox/VirtualBox.xml"
00:13:54.594388 nspr-3   Saving settings file "/home/marcus/.config/VirtualBox/VirtualBox.xml" with version "1.12-linux"
00:13:54.715265 nspr-3   Finished saving settings file "/home/marcus/.config/VirtualBox/VirtualBox.xml"
00:13:54.744085 nspr-3   NvramStore: Loading 'TpmEmuTpms/permall' from archive
00:13:54.744113 nspr-3   NvramStore: Loading 'efi/nvram' from archive
00:13:54.780067 nspr-8   NetIfAdpCtlOut: VBoxNetAdpCtl: Error while retrieving link speed for wlp3s0: VBoxNetAdpCtl: ioctl failed: Operation not supported
00:13:54.796072 nspr-5   NetIfAdpCtlOut: VBoxNetAdpCtl: Error while retrieving link speed for wlp3s0: VBoxNetAdpCtl: ioctl failed: Operation not supported
00:13:54.865405 nspr-4   ERROR [COM]: aRC=VBOX_E_INVALID_VM_STATE (0x80bb0002) aIID={300763af-5d6b-46e6-aa96-273eac15538a} aComponent={MachineWrap} aText={The machine is not mutable (state is PoweredOff)}, preserve=false aResultDetail=0
00:13:55.111141 nspr-6   NvramStore: Loading 'TpmEmuTpms/permall' from archive
00:13:55.111180 nspr-6   NvramStore: Loading 'efi/nvram' from archive
00:13:55.143466 nspr-6   NetIfAdpCtlOut: VBoxNetAdpCtl: Error while retrieving link speed for wlp3s0: VBoxNetAdpCtl: ioctl failed: Operation not supported
00:13:55.159287 nspr-8   NetIfAdpCtlOut: VBoxNetAdpCtl: Error while retrieving link speed for wlp3s0: VBoxNetAdpCtl: ioctl failed: Operation not supported
00:13:55.220552 nspr-9   ERROR [COM]: aRC=VBOX_E_INVALID_VM_STATE (0x80bb0002) aIID={300763af-5d6b-46e6-aa96-273eac15538a} aComponent={MachineWrap} aText={The machine is not mutable (state is PoweredOff)}, preserve=false aResultDetail=0
00:14:00.194894 nspr-2   Saving settings file "/home/marcus/.config/VirtualBox/VirtualBox.xml" with version "1.12-linux"
00:14:00.323031 nspr-2   Finished saving settings file "/home/marcus/.config/VirtualBox/VirtualBox.xml"
00:14:00.335572 nspr-4   Saving settings file "/home/marcus/.config/VirtualBox/VirtualBox.xml" with version "1.12-linux"
00:14:00.439654 nspr-4   Finished saving settings file "/home/marcus/.config/VirtualBox/VirtualBox.xml"
00:14:21.461824 nspr-7   Saving settings file "/home/marcus/.config/VirtualBox/VirtualBox.xml" with version "1.12-linux"
00:14:21.604394 nspr-7   Finished saving settings file "/home/marcus/.config/VirtualBox/VirtualBox.xml"
00:14:42.015786 nspr-6   Saving settings file "/home/marcus/.config/VirtualBox/VirtualBox.xml" with version "1.12-linux"
00:14:42.219323 nspr-6   Finished saving settings file "/home/marcus/.config/VirtualBox/VirtualBox.xml"
00:14:42.618713 nspr-7   ERROR [COM]: aRC=VBOX_E_INVALID_VM_STATE (0x80bb0002) aIID={300763af-5d6b-46e6-aa96-273eac15538a} aComponent={MachineWrap} aText={The machine is not mutable (state is PoweredOff)}, preserve=false aResultDetail=0
00:14:57.749535 nspr-4   Saving settings file "/home/marcus/.config/VirtualBox/VirtualBox.xml" with version "1.12-linux"
00:14:57.876146 nspr-4   Finished saving settings file "/home/marcus/.config/VirtualBox/VirtualBox.xml"
00:14:57.876254 nspr-4   Saving settings file "/home/marcus/.config/VirtualBox/VirtualBox.xml" with version "1.12-linux"
00:14:57.984562 nspr-4   Finished saving settings file "/home/marcus/.config/VirtualBox/VirtualBox.xml"
00:14:57.992891 DeleteVM Saving settings file "/home/marcus/.config/VirtualBox/VirtualBox.xml" with version "1.12-linux"
00:14:58.242850 DeleteVM Finished saving settings file "/home/marcus/.config/VirtualBox/VirtualBox.xml"
00:14:58.245548 nspr-5   Saving settings file "/home/marcus/.config/VirtualBox/VirtualBox.xml" with version "1.12-linux"
00:15:00.851009 nspr-5   Finished saving settings file "/home/marcus/.config/VirtualBox/VirtualBox.xml"
00:15:00.880957 nspr-7   ERROR [COM]: aRC=VBOX_E_OBJECT_NOT_FOUND (0x80bb0001) aIID={7682d5eb-f00e-44f1-8ca2-99d08b1cd607} aComponent={VirtualBoxWrap} aText={Could not find a registered machine with UUID {9d808952-a954-4c11-a317-b86ea3099574}}, preserve=false aResultDetail=0
00:15:00.919644 nspr-3   ERROR [COM]: aRC=VBOX_E_OBJECT_NOT_FOUND (0x80bb0001) aIID={7682d5eb-f00e-44f1-8ca2-99d08b1cd607} aComponent={VirtualBoxWrap} aText={Could not find a registered machine with UUID {9d808952-a954-4c11-a317-b86ea3099574}}, preserve=false aResultDetail=0
00:15:00.964129 nspr-4   ERROR [COM]: aRC=VBOX_E_INVALID_VM_STATE (0x80bb0002) aIID={300763af-5d6b-46e6-aa96-273eac15538a} aComponent={MachineWrap} aText={The machine is not mutable (state is PoweredOff)}, preserve=false aResultDetail=0
00:15:05.846603 nspr-5   ERROR [COM]: aRC=NS_ERROR_FAILURE (0x80004005) aIID={aac6c7cb-a371-4c58-ab51-0616896b2f2c} aComponent={SystemPropertiesWrap} aText={Cannot determine default Guest Additions ISO location. Most likely they are not available}, preserve=false aResultDetail=0
00:15:18.046345 nspr-3   Unattended: sources/idwbinfo.txt: Unknown: BuildBranch=ni_release
00:15:54.567058 createBase Saving settings file "/home/marcus/.config/VirtualBox/VirtualBox.xml" with version "1.12-linux"
00:15:54.747916 createBase Finished saving settings file "/home/marcus/.config/VirtualBox/VirtualBox.xml"
00:15:54.819398 nspr-6   Saving settings file "/home/marcus/VirtualBox VMs/WIN11/WIN11.vbox" with version "1.19-linux"
00:15:54.939586 nspr-6   Finished saving settings file "/home/marcus/VirtualBox VMs/WIN11/WIN11.vbox"
00:15:54.939755 nspr-6   Saving settings file "/home/marcus/.config/VirtualBox/VirtualBox.xml" with version "1.12-linux"
00:15:55.056284 nspr-6   Finished saving settings file "/home/marcus/.config/VirtualBox/VirtualBox.xml"
00:15:55.062257 nspr-4   Saving settings file "/home/marcus/.config/VirtualBox/VirtualBox.xml" with version "1.12-linux"
00:15:55.181277 nspr-4   Finished saving settings file "/home/marcus/.config/VirtualBox/VirtualBox.xml"
00:15:55.227979 nspr-3   Saving settings file "/home/marcus/VirtualBox VMs/WIN11/WIN11.vbox" with version "1.19-linux"
00:15:55.364514 nspr-3   Finished saving settings file "/home/marcus/VirtualBox VMs/WIN11/WIN11.vbox"
00:15:55.425817 nspr-9   Saving settings file "/home/marcus/.config/VirtualBox/VirtualBox.xml" with version "1.12-linux"
00:15:55.556222 nspr-9   Finished saving settings file "/home/marcus/.config/VirtualBox/VirtualBox.xml"
00:15:55.624869 nspr-9   ERROR [COM]: aRC=VBOX_E_INVALID_VM_STATE (0x80bb0002) aIID={300763af-5d6b-46e6-aa96-273eac15538a} aComponent={MachineWrap} aText={The machine is not mutable (state is PoweredOff)}, preserve=false aResultDetail=0
00:15:57.393874 nspr-5   NetIfAdpCtlOut: VBoxNetAdpCtl: Error while retrieving link speed for wlp3s0: VBoxNetAdpCtl: ioctl failed: Operation not supported
00:15:57.408275 nspr-2   NetIfAdpCtlOut: VBoxNetAdpCtl: Error while retrieving link speed for wlp3s0: VBoxNetAdpCtl: ioctl failed: Operation not supported
00:15:57.624683 nspr-3   ERROR [COM]: aRC=VBOX_E_INVALID_VM_STATE (0x80bb0002) aIID={300763af-5d6b-46e6-aa96-273eac15538a} aComponent={MachineWrap} aText={The machine is not mutable (state is PoweredOff)}, preserve=false aResultDetail=0
00:15:57.809643 nspr-4   Saving settings file "/home/marcus/.config/VirtualBox/VirtualBox.xml" with version "1.12-linux"
00:15:57.930998 nspr-4   Finished saving settings file "/home/marcus/.config/VirtualBox/VirtualBox.xml"
00:16:31.583261 nspr-2   Saving settings file "/home/marcus/VirtualBox VMs/WIN11/WIN11.vbox" with version "1.19-linux"
00:16:31.736246 nspr-2   Finished saving settings file "/home/marcus/VirtualBox VMs/WIN11/WIN11.vbox"
00:16:31.833760 nspr-4   ERROR [COM]: aRC=VBOX_E_INVALID_VM_STATE (0x80bb0002) aIID={300763af-5d6b-46e6-aa96-273eac15538a} aComponent={MachineWrap} aText={The machine is not mutable (state is PoweredOff)}, preserve=false aResultDetail=0
00:16:32.088862 nspr-4   Saving settings file "/home/marcus/.config/VirtualBox/VirtualBox.xml" with version "1.12-linux"
00:16:32.219557 nspr-4   Finished saving settings file "/home/marcus/.config/VirtualBox/VirtualBox.xml"
00:16:33.379976 nspr-2   Launched VM: 536892016 pid: 608849 (0x94a51) frontend: GUI/Qt name: WIN11
00:16:33.422583 nspr-5   ERROR [COM]: aRC=VBOX_E_INVALID_VM_STATE (0x80bb0002) aIID={300763af-5d6b-46e6-aa96-273eac15538a} aComponent={MachineWrap} aText={The machine is not mutable (state is PoweredOff)}, preserve=false aResultDetail=0
00:16:34.685350 nspr-3   ERROR [COM]: aRC=VBOX_E_INVALID_VM_STATE (0x80bb0002) aIID={300763af-5d6b-46e6-aa96-273eac15538a} aComponent={MachineWrap} aText={The machine is not mutable (state is PoweredOff)}, preserve=false aResultDetail=0
00:16:35.280591 nspr-2   ERROR [COM]: aRC=VBOX_E_OBJECT_NOT_FOUND (0x80bb0001) aIID={70401eef-c8e9-466b-9660-45cb3e9979e4} aComponent={ExtPackManagerWrap} aText={No extension pack by the name 'Oracle VM VirtualBox Extension Pack' was found}, preserve=false aResultDetail=0
00:16:35.399584 nspr-2   ERROR [COM]: aRC=VBOX_E_IPRT_ERROR (0x80bb0005) aIID={300763af-5d6b-46e6-aa96-273eac15538a} aComponent={SessionMachine} aText={Saved screenshot data is not available (VERR_NOT_SUPPORTED)}, preserve=false aResultDetail=-37
00:16:35.523726 nspr-3   NetIfAdpCtlOut: VBoxNetAdpCtl: Error while retrieving link speed for wlp3s0: VBoxNetAdpCtl: ioctl failed: Operation not supported
00:16:35.676360 nspr-5   ERROR [COM]: aRC=VBOX_E_INVALID_VM_STATE (0x80bb0002) aIID={300763af-5d6b-46e6-aa96-273eac15538a} aComponent={MachineWrap} aText={The machine is not mutable (state is Starting)}, preserve=false aResultDetail=0
00:16:35.756625 nspr-9   Saving settings file "/home/marcus/VirtualBox VMs/WIN11/WIN11.vbox" with version "1.19-linux"
00:16:36.025571 nspr-9   Finished saving settings file "/home/marcus/VirtualBox VMs/WIN11/WIN11.vbox"
00:16:36.025834 nspr-7   Saving settings file "/home/marcus/.config/VirtualBox/VirtualBox.xml" with version "1.12-linux"
00:16:36.250601 nspr-7   Finished saving settings file "/home/marcus/.config/VirtualBox/VirtualBox.xml"
00:16:36.299249 nspr-5   ERROR [COM]: aRC=VBOX_E_INVALID_VM_STATE (0x80bb0002) aIID={300763af-5d6b-46e6-aa96-273eac15538a} aComponent={MachineWrap} aText={The machine is not mutable (state is Starting)}, preserve=false aResultDetail=0
00:16:36.383592 nspr-3   ERROR [COM]: aRC=VBOX_E_OBJECT_NOT_FOUND (0x80bb0001) aIID={ad47ad09-787b-44ab-b343-a082a3f2dfb1} aComponent={MediumWrap} aText={Property 'CRYPT/KeyId' does not exist}, preserve=false aResultDetail=0
00:16:36.385149 nspr-5   ERROR [COM]: aRC=VBOX_E_OBJECT_NOT_FOUND (0x80bb0001) aIID={ad47ad09-787b-44ab-b343-a082a3f2dfb1} aComponent={MediumWrap} aText={Property 'CRYPT/KeyId' does not exist}, preserve=false aResultDetail=0
00:16:36.439280 nspr-4   ERROR [COM]: aRC=VBOX_E_INVALID_VM_STATE (0x80bb0002) aIID={300763af-5d6b-46e6-aa96-273eac15538a} aComponent={MachineWrap} aText={The machine is not mutable (state is Running)}, preserve=false aResultDetail=0
00:16:36.600817 nspr-4   Saving settings file "/home/marcus/VirtualBox VMs/WIN11/WIN11.vbox" with version "1.19-linux"
00:16:36.733835 nspr-4   Finished saving settings file "/home/marcus/VirtualBox VMs/WIN11/WIN11.vbox"
00:16:36.754117 nspr-4   ERROR [COM]: aRC=VBOX_E_INVALID_VM_STATE (0x80bb0002) aIID={300763af-5d6b-46e6-aa96-273eac15538a} aComponent={MachineWrap} aText={The machine is not mutable (state is Running)}, preserve=false aResultDetail=0
00:16:52.903642 nspr-7   Saving settings file "/home/marcus/VirtualBox VMs/WIN11/WIN11.vbox" with version "1.19-linux"
00:16:53.057386 nspr-7   Finished saving settings file "/home/marcus/VirtualBox VMs/WIN11/WIN11.vbox"
00:16:53.077588 nspr-9   ERROR [COM]: aRC=VBOX_E_INVALID_VM_STATE (0x80bb0002) aIID={300763af-5d6b-46e6-aa96-273eac15538a} aComponent={MachineWrap} aText={The machine is not mutable (state is Running)}, preserve=false aResultDetail=0
00:16:53.080140 nspr-9   Saving settings file "/home/marcus/.config/VirtualBox/VirtualBox.xml" with version "1.12-linux"
00:16:53.182403 nspr-9   Finished saving settings file "/home/marcus/.config/VirtualBox/VirtualBox.xml"
00:28:12.824609 nspr-4   Saving settings file "/home/marcus/VirtualBox VMs/WIN11/WIN11.vbox" with version "1.19-linux"
00:28:13.131260 nspr-4   Finished saving settings file "/home/marcus/VirtualBox VMs/WIN11/WIN11.vbox"
00:28:13.156173 nspr-4   ERROR [COM]: aRC=VBOX_E_INVALID_VM_STATE (0x80bb0002) aIID={300763af-5d6b-46e6-aa96-273eac15538a} aComponent={MachineWrap} aText={The machine is not mutable (state is Running)}, preserve=false aResultDetail=0
00:31:53.342901 nspr-6   ERROR [COM]: aRC=VBOX_E_INVALID_VM_STATE (0x80bb0002) aIID={300763af-5d6b-46e6-aa96-273eac15538a} aComponent={SessionMachine} aText={The machine is not mutable (state is Running)}, preserve=false aResultDetail=0
00:31:53.363144 nspr-6   NetIfAdpCtlOut: VBoxNetAdpCtl: Error while retrieving link speed for wlp3s0: VBoxNetAdpCtl: ioctl failed: Operation not supported
00:31:53.377262 nspr-2   NetIfAdpCtlOut: VBoxNetAdpCtl: Error while retrieving link speed for wlp3s0: VBoxNetAdpCtl: ioctl failed: Operation not supported
00:31:53.782106 nspr-8   Saving settings file "/home/marcus/.config/VirtualBox/VirtualBox.xml" with version "1.12-linux"
00:31:54.319681 nspr-8   Finished saving settings file "/home/marcus/.config/VirtualBox/VirtualBox.xml"
01:00:55.339087 nspr-3   Saving settings file "/home/marcus/VirtualBox VMs/WIN11/WIN11.vbox" with version "1.19-linux"
01:00:55.727463 nspr-3   Finished saving settings file "/home/marcus/VirtualBox VMs/WIN11/WIN11.vbox"
01:00:55.802860 nspr-4   ERROR [COM]: aRC=VBOX_E_INVALID_VM_STATE (0x80bb0002) aIID={300763af-5d6b-46e6-aa96-273eac15538a} aComponent={SessionMachine} aText={The machine is not mutable (state is Running)}, preserve=false aResultDetail=0
01:00:55.831862 nspr-4   NetIfAdpCtlOut: VBoxNetAdpCtl: Error while retrieving link speed for wlp3s0: VBoxNetAdpCtl: ioctl failed: Operation not supported
01:00:55.846532 nspr-3   NetIfAdpCtlOut: VBoxNetAdpCtl: Error while retrieving link speed for wlp3s0: VBoxNetAdpCtl: ioctl failed: Operation not supported
01:00:55.929341 nspr-5   ERROR [COM]: aRC=VBOX_E_INVALID_VM_STATE (0x80bb0002) aIID={300763af-5d6b-46e6-aa96-273eac15538a} aComponent={MachineWrap} aText={The machine is not mutable (state is Running)}, preserve=false aResultDetail=0
01:48:16.474010 nspr-5   ERROR [COM]: aRC=VBOX_E_INVALID_VM_STATE (0x80bb0002) aIID={300763af-5d6b-46e6-aa96-273eac15538a} aComponent={MachineWrap} aText={The machine is not mutable (state is Running)}, preserve=false aResultDetail=0
01:48:16.806388 nspr-8   Saving settings file "/home/marcus/VirtualBox VMs/WIN11/WIN11.vbox" with version "1.19-linux"
01:48:17.172651 nspr-8   Finished saving settings file "/home/marcus/VirtualBox VMs/WIN11/WIN11.vbox"
01:48:17.250697 nspr-2   ERROR [COM]: aRC=VBOX_E_INVALID_VM_STATE (0x80bb0002) aIID={300763af-5d6b-46e6-aa96-273eac15538a} aComponent={MachineWrap} aText={The machine is not mutable (state is Running)}, preserve=false aResultDetail=0
01:48:17.502577 nspr-8   Saving settings file "/home/marcus/.config/VirtualBox/VirtualBox.xml" with version "1.12-linux"
01:48:17.889225 nspr-8   Finished saving settings file "/home/marcus/.config/VirtualBox/VirtualBox.xml"
02:30:17.445916 nspr-8   ERROR [COM]: aRC=NS_ERROR_FAILURE (0x80004005) aIID={aac6c7cb-a371-4c58-ab51-0616896b2f2c} aComponent={SystemPropertiesWrap} aText={Cannot determine default Guest Additions ISO location. Most likely they are not available}, preserve=false aResultDetail=0
02:30:45.944067 nspr-7   ERROR [COM]: aRC=NS_ERROR_FAILURE (0x80004005) aIID={aac6c7cb-a371-4c58-ab51-0616896b2f2c} aComponent={SystemPropertiesWrap} aText={Cannot determine default Guest Additions ISO location. Most likely they are not available}, preserve=false aResultDetail=0
02:31:15.220234 nspr-2   ERROR [COM]: aRC=NS_ERROR_FAILURE (0x80004005) aIID={aac6c7cb-a371-4c58-ab51-0616896b2f2c} aComponent={SystemPropertiesWrap} aText={Cannot determine default Guest Additions ISO location. Most likely they are not available}, preserve=false aResultDetail=0
02:31:26.672540 nspr-3   Saving settings file "/home/marcus/.config/VirtualBox/VirtualBox.xml" with version "1.12-linux"
02:31:27.130375 nspr-3   Finished saving settings file "/home/marcus/.config/VirtualBox/VirtualBox.xml"
02:33:04.625048 nspr-4   Saving settings file "/home/marcus/.config/VirtualBox/VirtualBox.xml" with version "1.12-linux"
02:33:04.636763 nspr-9   ERROR [COM]: aRC=VBOX_E_INVALID_VM_STATE (0x80bb0002) aIID={300763af-5d6b-46e6-aa96-273eac15538a} aComponent={MachineWrap} aText={The machine is not mutable (state is Running)}, preserve=false aResultDetail=0
02:33:04.803044 nspr-4   Finished saving settings file "/home/marcus/.config/VirtualBox/VirtualBox.xml"
02:33:04.803771 nspr-2   Saving settings file "/home/marcus/VirtualBox VMs/WIN11/WIN11.vbox" with version "1.19-linux"
02:33:05.061417 nspr-2   Finished saving settings file "/home/marcus/VirtualBox VMs/WIN11/WIN11.vbox"
02:33:05.104797 nspr-2   ERROR [COM]: aRC=VBOX_E_INVALID_VM_STATE (0x80bb0002) aIID={300763af-5d6b-46e6-aa96-273eac15538a} aComponent={MachineWrap} aText={The machine is not mutable (state is Running)}, preserve=false aResultDetail=0
02:35:26.215840 nspr-7   Saving settings file "/home/marcus/.config/VirtualBox/VirtualBox.xml" with version "1.12-linux"
02:35:26.548569 nspr-7   Finished saving settings file "/home/marcus/.config/VirtualBox/VirtualBox.xml"
02:37:27.847396 nspr-9   Saving settings file "/home/marcus/VirtualBox VMs/WIN11/WIN11.vbox" with version "1.19-linux"
02:37:28.295972 nspr-9   Finished saving settings file "/home/marcus/VirtualBox VMs/WIN11/WIN11.vbox"
02:37:28.296306 nspr-8   Saving settings file "/home/marcus/.config/VirtualBox/VirtualBox.xml" with version "1.12-linux"
02:37:28.737609 nspr-8   Finished saving settings file "/home/marcus/.config/VirtualBox/VirtualBox.xml"
02:37:28.763263 nspr-2   Saving settings file "/home/marcus/VirtualBox VMs/WIN11/WIN11.vbox" with version "1.19-linux"
02:37:29.162574 nspr-2   Finished saving settings file "/home/marcus/VirtualBox VMs/WIN11/WIN11.vbox"
02:37:29.285785 nspr-7   ERROR [COM]: aRC=VBOX_E_INVALID_VM_STATE (0x80bb0002) aIID={300763af-5d6b-46e6-aa96-273eac15538a} aComponent={MachineWrap} aText={The machine is not mutable (state is Running)}, preserve=false aResultDetail=0
02:37:29.549451 nspr-7   Saving settings file "/home/marcus/VirtualBox VMs/WIN11/WIN11.vbox" with version "1.19-linux"
02:37:29.879551 nspr-7   Finished saving settings file "/home/marcus/VirtualBox VMs/WIN11/WIN11.vbox"
02:37:29.977318 nspr-10  ERROR [COM]: aRC=VBOX_E_INVALID_VM_STATE (0x80bb0002) aIID={300763af-5d6b-46e6-aa96-273eac15538a} aComponent={MachineWrap} aText={The machine is not mutable (state is Running)}, preserve=false aResultDetail=0
02:37:30.001842 nspr-5   Saving settings file "/home/marcus/VirtualBox VMs/WIN11/WIN11.vbox" with version "1.19-linux"
02:37:30.295706 nspr-5   Finished saving settings file "/home/marcus/VirtualBox VMs/WIN11/WIN11.vbox"
02:37:30.339544 nspr-6   ERROR [COM]: aRC=VBOX_E_INVALID_VM_STATE (0x80bb0002) aIID={300763af-5d6b-46e6-aa96-273eac15538a} aComponent={MachineWrap} aText={The machine is not mutable (state is Running)}, preserve=false aResultDetail=0
02:37:30.623128 nspr-5   Saving settings file "/home/marcus/VirtualBox VMs/WIN11/WIN11.vbox" with version "1.19-linux"
02:37:30.979178 nspr-5   Finished saving settings file "/home/marcus/VirtualBox VMs/WIN11/WIN11.vbox"
02:37:31.025835 nspr-10  Saving settings file "/home/marcus/VirtualBox VMs/WIN11/WIN11.vbox" with version "1.19-linux"
02:37:31.337389 nspr-10  Finished saving settings file "/home/marcus/VirtualBox VMs/WIN11/WIN11.vbox"
02:37:31.410327 nspr-10  Saving settings file "/home/marcus/VirtualBox VMs/WIN11/WIN11.vbox" with version "1.19-linux"
02:37:31.873294 nspr-10  Finished saving settings file "/home/marcus/VirtualBox VMs/WIN11/WIN11.vbox"
02:37:31.877213 nspr-8   ERROR [COM]: aRC=VBOX_E_INVALID_VM_STATE (0x80bb0002) aIID={300763af-5d6b-46e6-aa96-273eac15538a} aComponent={MachineWrap} aText={The machine is not mutable (state is Running)}, preserve=false aResultDetail=0
02:37:31.903898 nspr-7   Saving settings file "/home/marcus/VirtualBox VMs/WIN11/WIN11.vbox" with version "1.19-linux"
02:37:32.299938 nspr-7   Finished saving settings file "/home/marcus/VirtualBox VMs/WIN11/WIN11.vbox"
02:37:32.308664 nspr-10  Saving settings file "/home/marcus/VirtualBox VMs/WIN11/WIN11.vbox" with version "1.19-linux"
02:37:32.670630 nspr-10  Finished saving settings file "/home/marcus/VirtualBox VMs/WIN11/WIN11.vbox"
02:37:32.671170 nspr-4   Saving settings file "/home/marcus/.config/VirtualBox/VirtualBox.xml" with version "1.12-linux"
02:37:32.995503 nspr-4   Finished saving settings file "/home/marcus/.config/VirtualBox/VirtualBox.xml"
02:37:33.073404 nspr-7   ERROR [COM]: aRC=VBOX_E_INVALID_VM_STATE (0x80bb0002) aIID={300763af-5d6b-46e6-aa96-273eac15538a} aComponent={MachineWrap} aText={The machine is not mutable (state is Running)}, preserve=false aResultDetail=0
02:37:33.337491 nspr-3   Saving settings file "/home/marcus/VirtualBox VMs/WIN11/WIN11.vbox" with version "1.19-linux"
02:37:33.620528 nspr-3   Finished saving settings file "/home/marcus/VirtualBox VMs/WIN11/WIN11.vbox"
02:37:33.651721 nspr-5   Saving settings file "/home/marcus/VirtualBox VMs/WIN11/WIN11.vbox" with version "1.19-linux"
02:37:33.987110 nspr-5   Finished saving settings file "/home/marcus/VirtualBox VMs/WIN11/WIN11.vbox"
02:37:34.089425 nspr-10  ERROR [COM]: aRC=VBOX_E_INVALID_VM_STATE (0x80bb0002) aIID={300763af-5d6b-46e6-aa96-273eac15538a} aComponent={MachineWrap} aText={The machine is not mutable (state is Running)}, preserve=false aResultDetail=0
02:37:56.838771 nspr-7   ERROR [COM]: aRC=VBOX_E_IPRT_ERROR (0x80bb0005) aIID={300763af-5d6b-46e6-aa96-273eac15538a} aComponent={SessionMachine} aText={Saved screenshot data is not available (VERR_NOT_SUPPORTED)}, preserve=false aResultDetail=-37
02:37:56.860328 nspr-8   Saving settings file "/home/marcus/VirtualBox VMs/WIN11/WIN11.vbox" with version "1.19-linux"
02:37:57.235141 nspr-8   Finished saving settings file "/home/marcus/VirtualBox VMs/WIN11/WIN11.vbox"
02:37:57.283412 nspr-3   Saving settings file "/home/marcus/.config/VirtualBox/VirtualBox.xml" with version "1.12-linux"
02:37:57.618307 nspr-3   Finished saving settings file "/home/marcus/.config/VirtualBox/VirtualBox.xml"
02:37:57.659394 nspr-2   ERROR [COM]: aRC=VBOX_E_INVALID_VM_STATE (0x80bb0002) aIID={300763af-5d6b-46e6-aa96-273eac15538a} aComponent={MachineWrap} aText={The machine is not mutable (state is Running)}, preserve=false aResultDetail=0
02:37:57.910712 nspr-2   Saving settings file "/home/marcus/.config/VirtualBox/VirtualBox.xml" with version "1.12-linux"
02:37:58.176563 nspr-2   Finished saving settings file "/home/marcus/.config/VirtualBox/VirtualBox.xml"
02:38:09.932886 nspr-2   ERROR [COM]: aRC=VBOX_E_IPRT_ERROR (0x80bb0005) aIID={300763af-5d6b-46e6-aa96-273eac15538a} aComponent={SessionMachine} aText={Saved screenshot data is not available (VERR_NOT_SUPPORTED)}, preserve=false aResultDetail=-37
02:38:09.964112 nspr-2   Saving settings file "/home/marcus/VirtualBox VMs/WIN11/WIN11.vbox" with version "1.19-linux"
02:38:10.233829 nspr-2   Finished saving settings file "/home/marcus/VirtualBox VMs/WIN11/WIN11.vbox"
02:38:10.277605 nspr-2   ERROR [COM]: aRC=VBOX_E_INVALID_VM_STATE (0x80bb0002) aIID={300763af-5d6b-46e6-aa96-273eac15538a} aComponent={MachineWrap} aText={The machine is not mutable (state is Running)}, preserve=false aResultDetail=0
02:38:10.332200 nspr-4   Saving settings file "/home/marcus/VirtualBox VMs/WIN11/WIN11.vbox" with version "1.19-linux"
02:38:10.583867 nspr-4   Finished saving settings file "/home/marcus/VirtualBox VMs/WIN11/WIN11.vbox"
02:38:10.622953 nspr-10  Saving settings file "/home/marcus/VirtualBox VMs/WIN11/WIN11.vbox" with version "1.19-linux"
02:38:10.817150 nspr-10  Finished saving settings file "/home/marcus/VirtualBox VMs/WIN11/WIN11.vbox"
02:38:10.851950 nspr-9   Saving settings file "/home/marcus/VirtualBox VMs/WIN11/WIN11.vbox" with version "1.19-linux"
02:38:11.067138 nspr-9   Finished saving settings file "/home/marcus/VirtualBox VMs/WIN11/WIN11.vbox"
02:38:11.098040 nspr-3   ERROR [COM]: aRC=VBOX_E_INVALID_VM_STATE (0x80bb0002) aIID={300763af-5d6b-46e6-aa96-273eac15538a} aComponent={MachineWrap} aText={The machine is not mutable (state is Running)}, preserve=false aResultDetail=0
02:38:34.996399 nspr-7   Saving settings file "/home/marcus/.config/VirtualBox/VirtualBox.xml" with version "1.12-linux"
02:38:35.539890 nspr-7   Finished saving settings file "/home/marcus/.config/VirtualBox/VirtualBox.xml"
02:50:55.837402 nspr-7   ERROR [COM]: aRC=VBOX_E_INVALID_VM_STATE (0x80bb0002) aIID={300763af-5d6b-46e6-aa96-273eac15538a} aComponent={MachineWrap} aText={The machine is not mutable (state is Running)}, preserve=false aResultDetail=0
02:50:56.174687 nspr-4   Saving settings file "/home/marcus/VirtualBox VMs/WIN11/WIN11.vbox" with version "1.19-linux"
02:50:56.872956 nspr-4   Finished saving settings file "/home/marcus/VirtualBox VMs/WIN11/WIN11.vbox"
02:50:56.924760 nspr-2   ERROR [COM]: aRC=VBOX_E_INVALID_VM_STATE (0x80bb0002) aIID={300763af-5d6b-46e6-aa96-273eac15538a} aComponent={MachineWrap} aText={The machine is not mutable (state is Running)}, preserve=false aResultDetail=0
03:09:18.043638 nspr-10  ERROR [COM]: aRC=VBOX_E_INVALID_VM_STATE (0x80bb0002) aIID={300763af-5d6b-46e6-aa96-273eac15538a} aComponent={SessionMachine} aText={The machine is not mutable (state is Running)}, preserve=false aResultDetail=0
03:09:18.115882 nspr-3   NetIfAdpCtlOut: VBoxNetAdpCtl: Error while retrieving link speed for wlp3s0: VBoxNetAdpCtl: ioctl failed: Operation not supported
03:09:18.137313 nspr-10  NetIfAdpCtlOut: VBoxNetAdpCtl: Error while retrieving link speed for wlp3s0: VBoxNetAdpCtl: ioctl failed: Operation not supported
03:09:18.571534 nspr-3   Saving settings file "/home/marcus/VirtualBox VMs/WIN11/WIN11.vbox" with version "1.19-linux"
03:09:20.117032 nspr-3   Finished saving settings file "/home/marcus/VirtualBox VMs/WIN11/WIN11.vbox"
03:09:20.170598 nspr-9   Saving settings file "/home/marcus/VirtualBox VMs/WIN11/WIN11.vbox" with version "1.19-linux"
03:09:20.708482 nspr-9   Finished saving settings file "/home/marcus/VirtualBox VMs/WIN11/WIN11.vbox"
03:09:20.722154 nspr-6   ERROR [COM]: aRC=VBOX_E_INVALID_VM_STATE (0x80bb0002) aIID={300763af-5d6b-46e6-aa96-273eac15538a} aComponent={SessionMachine} aText={The machine is not mutable (state is Running)}, preserve=false aResultDetail=0
03:09:20.790517 nspr-5   NetIfAdpCtlOut: VBoxNetAdpCtl: Error while retrieving link speed for wlp3s0: VBoxNetAdpCtl: ioctl failed: Operation not supported
03:09:20.811604 nspr-10  ERROR [COM]: aRC=VBOX_E_INVALID_VM_STATE (0x80bb0002) aIID={300763af-5d6b-46e6-aa96-273eac15538a} aComponent={MachineWrap} aText={The machine is not mutable (state is Running)}, preserve=false aResultDetail=0
03:09:20.817212 nspr-4   NetIfAdpCtlOut: VBoxNetAdpCtl: Error while retrieving link speed for wlp3s0: VBoxNetAdpCtl: ioctl failed: Operation not supported
03:10:32.577131 nspr-6   Saving settings file "/home/marcus/VirtualBox VMs/WIN11/WIN11.vbox" with version "1.19-linux"
03:10:33.016712 nspr-6   Finished saving settings file "/home/marcus/VirtualBox VMs/WIN11/WIN11.vbox"
03:10:33.076762 nspr-4   ERROR [COM]: aRC=VBOX_E_INVALID_VM_STATE (0x80bb0002) aIID={300763af-5d6b-46e6-aa96-273eac15538a} aComponent={MachineWrap} aText={The machine is not mutable (state is Running)}, preserve=false aResultDetail=0
03:10:33.389641 nspr-9   Saving settings file "/home/marcus/VirtualBox VMs/WIN11/WIN11.vbox" with version "1.19-linux"
03:10:34.850017 nspr-9   Finished saving settings file "/home/marcus/VirtualBox VMs/WIN11/WIN11.vbox"
03:10:34.879511 nspr-9   Saving settings file "/home/marcus/VirtualBox VMs/WIN11/WIN11.vbox" with version "1.19-linux"
03:10:35.374973 nspr-9   Finished saving settings file "/home/marcus/VirtualBox VMs/WIN11/WIN11.vbox"
03:10:35.439723 nspr-8   ERROR [COM]: aRC=VBOX_E_INVALID_VM_STATE (0x80bb0002) aIID={300763af-5d6b-46e6-aa96-273eac15538a} aComponent={MachineWrap} aText={The machine is not mutable (state is Running)}, preserve=false aResultDetail=0
03:34:37.584132 nspr-9   Saving settings file "/home/marcus/.config/VirtualBox/VirtualBox.xml" with version "1.12-linux"
03:34:38.936039 nspr-9   Finished saving settings file "/home/marcus/.config/VirtualBox/VirtualBox.xml"
03:36:27.983009 nspr-4   Saving settings file "/home/marcus/VirtualBox VMs/WIN11/WIN11.vbox" with version "1.19-linux"
03:36:29.309443 nspr-4   Finished saving settings file "/home/marcus/VirtualBox VMs/WIN11/WIN11.vbox"
03:36:29.361445 nspr-8   ERROR [COM]: aRC=VBOX_E_INVALID_VM_STATE (0x80bb0002) aIID={300763af-5d6b-46e6-aa96-273eac15538a} aComponent={MachineWrap} aText={The machine is not mutable (state is Running)}, preserve=false aResultDetail=0
03:41:38.600037 nspr-3   Saving settings file "/home/marcus/VirtualBox VMs/WIN11/WIN11.vbox" with version "1.19-linux"
03:41:38.933311 nspr-3   Finished saving settings file "/home/marcus/VirtualBox VMs/WIN11/WIN11.vbox"
03:41:38.999118 nspr-9   ERROR [COM]: aRC=VBOX_E_INVALID_VM_STATE (0x80bb0002) aIID={300763af-5d6b-46e6-aa96-273eac15538a} aComponent={MachineWrap} aText={The machine is not mutable (state is Running)}, preserve=false aResultDetail=0
03:47:32.998948 nspr-10  ERROR [COM]: aRC=VBOX_E_INVALID_VM_STATE (0x80bb0002) aIID={300763af-5d6b-46e6-aa96-273eac15538a} aComponent={MachineWrap} aText={The machine is not mutable (state is Stopping)}, preserve=false aResultDetail=0
03:47:33.032162 nspr-7   Saving settings file "/home/marcus/VirtualBox VMs/WIN11/WIN11.vbox" with version "1.19-linux"
03:47:33.332883 nspr-7   Finished saving settings file "/home/marcus/VirtualBox VMs/WIN11/WIN11.vbox"
03:47:33.378165 nspr-7   ERROR [COM]: aRC=VBOX_E_INVALID_VM_STATE (0x80bb0002) aIID={300763af-5d6b-46e6-aa96-273eac15538a} aComponent={MachineWrap} aText={The machine is not mutable (state is PoweredOff)}, preserve=false aResultDetail=0
03:47:34.067616 nspr-4   ERROR [COM]: aRC=VBOX_E_INVALID_VM_STATE (0x80bb0002) aIID={300763af-5d6b-46e6-aa96-273eac15538a} aComponent={MachineWrap} aText={The machine is not mutable (state is PoweredOff)}, preserve=false aResultDetail=0
03:49:26.351155 nspr-7   Saving settings file "/home/marcus/.config/VirtualBox/VirtualBox.xml" with version "1.12-linux"
03:49:26.699095 nspr-7   Finished saving settings file "/home/marcus/.config/VirtualBox/VirtualBox.xml"
03:49:50.061534 nspr-3   Saving settings file "/home/marcus/.config/VirtualBox/VirtualBox.xml" with version "1.12-linux"
03:49:50.670061 nspr-3   Finished saving settings file "/home/marcus/.config/VirtualBox/VirtualBox.xml"
04:14:52.711752 nspr-6   Saving settings file "/home/marcus/.config/VirtualBox/VirtualBox.xml" with version "1.12-linux"
04:14:52.967160 nspr-6   Finished saving settings file "/home/marcus/.config/VirtualBox/VirtualBox.xml"
04:14:53.779555 nspr-8   Launched VM: 536881200 pid: 634540 (0x9aeac) frontend: GUI/Qt name: WIN11
04:14:53.845075 nspr-3   ERROR [COM]: aRC=VBOX_E_INVALID_VM_STATE (0x80bb0002) aIID={300763af-5d6b-46e6-aa96-273eac15538a} aComponent={MachineWrap} aText={The machine is not mutable (state is PoweredOff)}, preserve=false aResultDetail=0
04:14:54.726309 nspr-2   ERROR [COM]: aRC=VBOX_E_INVALID_VM_STATE (0x80bb0002) aIID={300763af-5d6b-46e6-aa96-273eac15538a} aComponent={MachineWrap} aText={The machine is not mutable (state is PoweredOff)}, preserve=false aResultDetail=0
04:14:55.346810 nspr-5   ERROR [COM]: aRC=VBOX_E_OBJECT_NOT_FOUND (0x80bb0001) aIID={70401eef-c8e9-466b-9660-45cb3e9979e4} aComponent={ExtPackManagerWrap} aText={No extension pack by the name 'Oracle VM VirtualBox Extension Pack' was found}, preserve=false aResultDetail=0
04:14:55.422263 nspr-6   ERROR [COM]: aRC=VBOX_E_IPRT_ERROR (0x80bb0005) aIID={300763af-5d6b-46e6-aa96-273eac15538a} aComponent={SessionMachine} aText={Saved screenshot data is not available (VERR_NOT_SUPPORTED)}, preserve=false aResultDetail=-37
04:14:55.523601 nspr-5   NetIfAdpCtlOut: VBoxNetAdpCtl: Error while retrieving link speed for wlp3s0: VBoxNetAdpCtl: ioctl failed: Operation not supported
04:14:55.715433 nspr-5   ERROR [COM]: aRC=VBOX_E_INVALID_VM_STATE (0x80bb0002) aIID={300763af-5d6b-46e6-aa96-273eac15538a} aComponent={MachineWrap} aText={The machine is not mutable (state is Starting)}, preserve=false aResultDetail=0
04:14:55.801464 nspr-3   Saving settings file "/home/marcus/.config/VirtualBox/VirtualBox.xml" with version "1.12-linux"
04:14:55.991773 nspr-3   Finished saving settings file "/home/marcus/.config/VirtualBox/VirtualBox.xml"
04:14:56.002835 nspr-3   Saving settings file "/home/marcus/VirtualBox VMs/WIN11/WIN11.vbox" with version "1.19-linux"
04:14:56.225217 nspr-3   Finished saving settings file "/home/marcus/VirtualBox VMs/WIN11/WIN11.vbox"
04:14:56.332274 nspr-10  ERROR [COM]: aRC=VBOX_E_INVALID_VM_STATE (0x80bb0002) aIID={300763af-5d6b-46e6-aa96-273eac15538a} aComponent={MachineWrap} aText={The machine is not mutable (state is Starting)}, preserve=false aResultDetail=0
04:14:56.579716 nspr-10  Saving settings file "/home/marcus/VirtualBox VMs/WIN11/WIN11.vbox" with version "1.19-linux"
04:14:56.800094 nspr-10  Finished saving settings file "/home/marcus/VirtualBox VMs/WIN11/WIN11.vbox"
04:14:56.855172 nspr-7   ERROR [COM]: aRC=VBOX_E_INVALID_VM_STATE (0x80bb0002) aIID={300763af-5d6b-46e6-aa96-273eac15538a} aComponent={MachineWrap} aText={The machine is not mutable (state is Starting)}, preserve=false aResultDetail=0
04:14:56.925221 nspr-5   ERROR [COM]: aRC=VBOX_E_OBJECT_NOT_FOUND (0x80bb0001) aIID={ad47ad09-787b-44ab-b343-a082a3f2dfb1} aComponent={MediumWrap} aText={Property 'CRYPT/KeyId' does not exist}, preserve=false aResultDetail=0
04:14:56.990424 nspr-3   ERROR [COM]: aRC=VBOX_E_INVALID_VM_STATE (0x80bb0002) aIID={300763af-5d6b-46e6-aa96-273eac15538a} aComponent={MachineWrap} aText={The machine is not mutable (state is Running)}, preserve=false aResultDetail=0
04:14:59.080619 nspr-10  Saving settings file "/home/marcus/.config/VirtualBox/VirtualBox.xml" with version "1.12-linux"
04:14:59.147284 nspr-4   Saving settings file "/home/marcus/VirtualBox VMs/WIN11/WIN11.vbox" with version "1.19-linux"
04:14:59.391424 nspr-10  Finished saving settings file "/home/marcus/.config/VirtualBox/VirtualBox.xml"
04:14:59.526787 nspr-4   Finished saving settings file "/home/marcus/VirtualBox VMs/WIN11/WIN11.vbox"
04:14:59.543967 nspr-2   ERROR [COM]: aRC=VBOX_E_INVALID_VM_STATE (0x80bb0002) aIID={300763af-5d6b-46e6-aa96-273eac15538a} aComponent={MachineWrap} aText={The machine is not mutable (state is Running)}, preserve=false aResultDetail=0
04:18:03.792111 nspr-2   Saving settings file "/home/marcus/.config/VirtualBox/VirtualBox.xml" with version "1.12-linux"
04:18:04.059952 nspr-2   Finished saving settings file "/home/marcus/.config/VirtualBox/VirtualBox.xml"
04:25:19.107781 nspr-2   Saving settings file "/home/marcus/.config/VirtualBox/VirtualBox.xml" with version "1.12-linux"
04:25:19.115830 nspr-6   Saving settings file "/home/marcus/VirtualBox VMs/WIN11/WIN11.vbox" with version "1.19-linux"
04:25:20.035214 nspr-2   Finished saving settings file "/home/marcus/.config/VirtualBox/VirtualBox.xml"
04:25:20.035240 nspr-6   Finished saving settings file "/home/marcus/VirtualBox VMs/WIN11/WIN11.vbox"
04:25:20.152421 nspr-4   ERROR [COM]: aRC=VBOX_E_INVALID_VM_STATE (0x80bb0002) aIID={300763af-5d6b-46e6-aa96-273eac15538a} aComponent={MachineWrap} aText={The machine is not mutable (state is Running)}, preserve=false aResultDetail=0
04:25:46.083288 nspr-8   Saving settings file "/home/marcus/VirtualBox VMs/WIN11/WIN11.vbox" with version "1.19-linux"
04:25:46.399554 nspr-8   Finished saving settings file "/home/marcus/VirtualBox VMs/WIN11/WIN11.vbox"
04:25:46.468882 nspr-9   ERROR [COM]: aRC=VBOX_E_INVALID_VM_STATE (0x80bb0002) aIID={300763af-5d6b-46e6-aa96-273eac15538a} aComponent={MachineWrap} aText={The machine is not mutable (state is Running)}, preserve=false aResultDetail=0
04:34:11.409369 nspr-4   Saving settings file "/home/marcus/.config/VirtualBox/VirtualBox.xml" with version "1.12-linux"
04:34:11.680471 nspr-4   Finished saving settings file "/home/marcus/.config/VirtualBox/VirtualBox.xml"
04:39:02.208728 nspr-10  Saving settings file "/home/marcus/.config/VirtualBox/VirtualBox.xml" with version "1.12-linux"
04:39:02.276235 nspr-6   Saving settings file "/home/marcus/VirtualBox VMs/WIN11/WIN11.vbox" with version "1.19-linux"
04:39:05.160915 nspr-10  Finished saving settings file "/home/marcus/.config/VirtualBox/VirtualBox.xml"
04:39:05.237181 nspr-6   Finished saving settings file "/home/marcus/VirtualBox VMs/WIN11/WIN11.vbox"
04:39:05.335453 nspr-8   ERROR [COM]: aRC=VBOX_E_INVALID_VM_STATE (0x80bb0002) aIID={300763af-5d6b-46e6-aa96-273eac15538a} aComponent={MachineWrap} aText={The machine is not mutable (state is Running)}, preserve=false aResultDetail=0
04:40:30.286143 nspr-9   Saving settings file "/home/marcus/VirtualBox VMs/WIN11/WIN11.vbox" with version "1.19-linux"
04:40:30.746492 nspr-9   Finished saving settings file "/home/marcus/VirtualBox VMs/WIN11/WIN11.vbox"
04:40:30.823104 nspr-2   ERROR [COM]: aRC=VBOX_E_INVALID_VM_STATE (0x80bb0002) aIID={300763af-5d6b-46e6-aa96-273eac15538a} aComponent={MachineWrap} aText={The machine is not mutable (state is Running)}, preserve=false aResultDetail=0
04:45:49.690701 nspr-9   Saving settings file "/home/marcus/.config/VirtualBox/VirtualBox.xml" with version "1.12-linux"
04:45:49.875377 nspr-9   Finished saving settings file "/home/marcus/.config/VirtualBox/VirtualBox.xml"
04:46:24.093715 nspr-2   Saving settings file "/home/marcus/VirtualBox VMs/WIN11/WIN11.vbox" with version "1.19-linux"
04:46:24.770466 nspr-2   Finished saving settings file "/home/marcus/VirtualBox VMs/WIN11/WIN11.vbox"
04:46:24.770792 nspr-8   Saving settings file "/home/marcus/.config/VirtualBox/VirtualBox.xml" with version "1.12-linux"
04:46:25.028697 nspr-8   Finished saving settings file "/home/marcus/.config/VirtualBox/VirtualBox.xml"
04:46:25.108255 nspr-3   ERROR [COM]: aRC=VBOX_E_INVALID_VM_STATE (0x80bb0002) aIID={300763af-5d6b-46e6-aa96-273eac15538a} aComponent={MachineWrap} aText={The machine is not mutable (state is Running)}, preserve=false aResultDetail=0
04:48:23.356155 nspr-2   Saving settings file "/home/marcus/.config/VirtualBox/VirtualBox.xml" with version "1.12-linux"
04:48:23.494857 nspr-2   Finished saving settings file "/home/marcus/.config/VirtualBox/VirtualBox.xml"
04:48:24.984040 nspr-4   Saving settings file "/home/marcus/VirtualBox VMs/WIN11/WIN11.vbox" with version "1.19-linux"
04:48:25.161344 nspr-4   Finished saving settings file "/home/marcus/VirtualBox VMs/WIN11/WIN11.vbox"
04:48:25.207228 nspr-6   ERROR [COM]: aRC=VBOX_E_INVALID_VM_STATE (0x80bb0002) aIID={300763af-5d6b-46e6-aa96-273eac15538a} aComponent={MachineWrap} aText={The machine is not mutable (state is Running)}, preserve=false aResultDetail=0
04:48:52.984644 nspr-6   Saving settings file "/home/marcus/.config/VirtualBox/VirtualBox.xml" with version "1.12-linux"
04:48:52.994387 nspr-10  Saving settings file "/home/marcus/VirtualBox VMs/WIN11/WIN11.vbox" with version "1.19-linux"
04:48:53.273565 nspr-6   Finished saving settings file "/home/marcus/.config/VirtualBox/VirtualBox.xml"
04:48:53.273773 nspr-10  Finished saving settings file "/home/marcus/VirtualBox VMs/WIN11/WIN11.vbox"
04:48:53.325144 nspr-5   ERROR [COM]: aRC=VBOX_E_INVALID_VM_STATE (0x80bb0002) aIID={300763af-5d6b-46e6-aa96-273eac15538a} aComponent={MachineWrap} aText={The machine is not mutable (state is Running)}, preserve=false aResultDetail=0
04:55:39.700389 nspr-8   Saving settings file "/home/marcus/.config/VirtualBox/VirtualBox.xml" with version "1.12-linux"
04:55:39.880203 nspr-8   Finished saving settings file "/home/marcus/.config/VirtualBox/VirtualBox.xml"
04:55:42.094081 nspr-7   Saving settings file "/home/marcus/VirtualBox VMs/WIN11/WIN11.vbox" with version "1.19-linux"
04:55:42.263359 nspr-7   Finished saving settings file "/home/marcus/VirtualBox VMs/WIN11/WIN11.vbox"
04:55:42.317223 nspr-7   ERROR [COM]: aRC=VBOX_E_INVALID_VM_STATE (0x80bb0002) aIID={300763af-5d6b-46e6-aa96-273eac15538a} aComponent={MachineWrap} aText={The machine is not mutable (state is Running)}, preserve=false aResultDetail=0
04:57:15.398749 nspr-3   Saving settings file "/home/marcus/.config/VirtualBox/VirtualBox.xml" with version "1.12-linux"
04:57:15.406565 nspr-8   Saving settings file "/home/marcus/VirtualBox VMs/WIN11/WIN11.vbox" with version "1.19-linux"
04:57:17.453867 nspr-3   Finished saving settings file "/home/marcus/.config/VirtualBox/VirtualBox.xml"
04:57:17.571341 nspr-8   Finished saving settings file "/home/marcus/VirtualBox VMs/WIN11/WIN11.vbox"
04:57:17.664885 nspr-4   ERROR [COM]: aRC=VBOX_E_INVALID_VM_STATE (0x80bb0002) aIID={300763af-5d6b-46e6-aa96-273eac15538a} aComponent={MachineWrap} aText={The machine is not mutable (state is Running)}, preserve=false aResultDetail=0
04:57:53.795493 nspr-4   Saving settings file "/home/marcus/VirtualBox VMs/WIN11/WIN11.vbox" with version "1.19-linux"
04:57:54.134907 nspr-4   Finished saving settings file "/home/marcus/VirtualBox VMs/WIN11/WIN11.vbox"
04:57:54.225806 nspr-8   ERROR [COM]: aRC=VBOX_E_INVALID_VM_STATE (0x80bb0002) aIID={300763af-5d6b-46e6-aa96-273eac15538a} aComponent={MachineWrap} aText={The machine is not mutable (state is Running)}, preserve=false aResultDetail=0
05:17:55.541782 nspr-3   Saving settings file "/home/marcus/VirtualBox VMs/WIN11/WIN11.vbox" with version "1.19-linux"
05:17:55.732487 nspr-3   Finished saving settings file "/home/marcus/VirtualBox VMs/WIN11/WIN11.vbox"
05:17:55.802998 nspr-4   ERROR [COM]: aRC=VBOX_E_INVALID_VM_STATE (0x80bb0002) aIID={300763af-5d6b-46e6-aa96-273eac15538a} aComponent={MachineWrap} aText={The machine is not mutable (state is Running)}, preserve=false aResultDetail=0
05:32:34.434805 nspr-9   ERROR [COM]: aRC=VBOX_E_INVALID_VM_STATE (0x80bb0002) aIID={300763af-5d6b-46e6-aa96-273eac15538a} aComponent={MachineWrap} aText={The machine is not mutable (state is Stopping)}, preserve=false aResultDetail=0
05:32:34.469840 nspr-6   Saving settings file "/home/marcus/VirtualBox VMs/WIN11/WIN11.vbox" with version "1.19-linux"
05:32:34.794439 nspr-6   Finished saving settings file "/home/marcus/VirtualBox VMs/WIN11/WIN11.vbox"
05:32:34.830481 nspr-8   ERROR [COM]: aRC=VBOX_E_INVALID_VM_STATE (0x80bb0002) aIID={300763af-5d6b-46e6-aa96-273eac15538a} aComponent={MachineWrap} aText={The machine is not mutable (state is PoweredOff)}, preserve=false aResultDetail=0
05:32:36.014149 nspr-5   ERROR [COM]: aRC=VBOX_E_INVALID_VM_STATE (0x80bb0002) aIID={300763af-5d6b-46e6-aa96-273eac15538a} aComponent={MachineWrap} aText={The machine is not mutable (state is PoweredOff)}, preserve=false aResultDetail=0
05:59:30.382428 nspr-9   Saving settings file "/home/marcus/.config/VirtualBox/VirtualBox.xml" with version "1.12-linux"
05:59:30.575094 nspr-9   Finished saving settings file "/home/marcus/.config/VirtualBox/VirtualBox.xml"
05:59:36.605898 main     VirtualBox: object deletion starts
05:59:36.605952 main     ERROR [COM]: aRC=VBOX_E_OBJECT_IN_USE (0x80bb000c) aIID={ad47ad09-787b-44ab-b343-a082a3f2dfb1} aComponent={MediumWrap} aText={Medium '/home/marcus/VirtualBox VMs/HACKME/mrRobot-disk1.vdi' cannot be closed because it is still attached to 1 virtual machines}, preserve=false aResultDetail=0
05:59:36.606189 main     ERROR [COM]: aRC=VBOX_E_OBJECT_IN_USE (0x80bb000c) aIID={ad47ad09-787b-44ab-b343-a082a3f2dfb1} aComponent={MediumWrap} aText={Medium '/home/marcus/i/InstallationMedia/kali-linux-2023.1-virtualbox-amd64/kali-linux-2023.1-virtualbox-amd64.vdi' cannot be closed because it is still attached to 1 virtual machines}, preserve=false aResultDetail=0
05:59:36.606386 main     ERROR [COM]: aRC=VBOX_E_OBJECT_IN_USE (0x80bb000c) aIID={ad47ad09-787b-44ab-b343-a082a3f2dfb1} aComponent={MediumWrap} aText={Medium '/home/marcus/VirtualBox VMs/win7-pro_64-bit/win7-pro_64-bit.vdi' cannot be closed because it is still attached to 1 virtual machines}, preserve=false aResultDetail=0
05:59:36.606569 main     ERROR [COM]: aRC=VBOX_E_OBJECT_IN_USE (0x80bb000c) aIID={ad47ad09-787b-44ab-b343-a082a3f2dfb1} aComponent={MediumWrap} aText={Medium '/home/marcus/VirtualBox VMs/test_install_script/test_install_script.vdi' cannot be closed because it is still attached to 1 virtual machines}, preserve=false aResultDetail=0
05:59:36.606761 main     ERROR [COM]: aRC=VBOX_E_OBJECT_IN_USE (0x80bb000c) aIID={ad47ad09-787b-44ab-b343-a082a3f2dfb1} aComponent={MediumWrap} aText={Medium '/home/marcus/VirtualBox VMs/Android/Android.vdi' cannot be closed because it is still attached to 1 virtual machines}, preserve=false aResultDetail=0
05:59:36.606934 main     ERROR [COM]: aRC=VBOX_E_OBJECT_IN_USE (0x80bb000c) aIID={ad47ad09-787b-44ab-b343-a082a3f2dfb1} aComponent={MediumWrap} aText={Medium '/home/marcus/VirtualBox VMs/WIN11/WIN11.vdi' cannot be closed because it is still attached to 1 virtual machines}, preserve=false aResultDetail=0
05:59:36.622638 main     HostDnsMonitor: shutting down ...
05:59:36.635416 main     HostDnsMonitor: shut down
05:59:36.670023 Watcher  ERROR [COM]: aRC=E_ACCESSDENIED (0x80070005) aIID={7682d5eb-f00e-44f1-8ca2-99d08b1cd607} aComponent={VirtualBoxWrap} aText={The object is not ready}, preserve=false aResultDetail=0
05:59:36.670142 main     VirtualBox: object deleted
