00:00:00.000191 main     VirtualBox XPCOM Server 7.0.8 r156879 linux.amd64 (Apr 18 2023 21:49:14) release log
00:00:00.000193 main     Log opened 2023-06-24T20:08:51.905158000Z
00:00:00.000193 main     Build Type: release
00:00:00.000194 main     OS Product: Linux
00:00:00.000195 main     OS Release: 6.1.35-1-lts
00:00:00.000196 main     OS Version: #1 SMP PREEMPT_DYNAMIC Wed, 21 Jun 2023 15:54:02 +0000
00:00:00.000210 main     DMI Product Name: Inspiron 3668
00:00:00.000216 main     DMI Product Version: 
00:00:00.000219 main     Firmware type: UEFI
00:00:00.000457 main     Secure Boot: Disabled
00:00:00.000482 main     Host RAM: 15906MB (15.5GB) total, 14862MB (14.5GB) available
00:00:00.000484 main     Executable: /usr/lib/virtualbox/VBoxSVC
00:00:00.000484 main     Process ID: 57102
00:00:00.000484 main     Package type: LINUX_64BITS_GENERIC (OSE)
00:00:00.001533 main     IPC socket path: /tmp/.vbox-marcus-ipc/ipcd
00:00:00.106457 nspr-2   VirtualBox: object creation starts
00:00:00.106610 nspr-2   Home directory: '/home/marcus/.config/VirtualBox'
00:00:00.106866 nspr-2   Loading settings file "/home/marcus/.config/VirtualBox/VirtualBox.xml" with version "1.12-linux"
00:00:00.110194 nspr-2   Successfully initialised host USB using sysfs
00:00:00.134759 nspr-2   NetIfAdpCtlOut: VBoxNetAdpCtl: Error while retrieving link speed for wlp3s0: VBoxNetAdpCtl: ioctl failed: Operation not supported
00:00:00.136778 nspr-2   HostDnsMonitor: initializing
00:00:00.137243 nspr-2   NAT: resolv.conf: nameserver 108.166.149.2
00:00:00.137261 nspr-2   NAT: resolv.conf: nameserver 108.166.149.3
00:00:00.137268 nspr-2   NAT: resolv.conf: nameserver 2607:fdc8:c::2
00:00:00.137275 nspr-2   NAT: resolv.conf: too many nameserver lines, ignoring 2607:fdc8:c::3
00:00:00.137290 nspr-2   HostDnsMonitor: updating information
00:00:00.137308 nspr-2   HostDnsMonitor: old information
00:00:00.137313 nspr-2     no server entries
00:00:00.137317 nspr-2     no domain set
00:00:00.137321 nspr-2     no search string entries
00:00:00.137326 nspr-2   HostDnsMonitor: new information
00:00:00.137330 nspr-2     server 1: 108.166.149.2
00:00:00.137335 nspr-2     server 2: 108.166.149.3
00:00:00.137339 nspr-2     server 3: 2607:fdc8:c::2
00:00:00.137343 nspr-2     no domain set
00:00:00.137347 nspr-2     no search string entries
00:00:00.141491 nspr-2   Failed to open "/dev/vboxdrvu", errno=2, rc=VERR_VM_DRIVER_NOT_INSTALLED
00:00:00.141737 nspr-2   VD: VDInit finished with VINF_SUCCESS
00:00:00.141907 nspr-2   ERROR [COM]: aRC=NS_ERROR_FAILURE (0x80004005) aIID={aac6c7cb-a371-4c58-ab51-0616896b2f2c} aComponent={SystemPropertiesWrap} aText={Cannot determine default Guest Additions ISO location. Most likely they are not available}, preserve=false aResultDetail=0
00:00:00.143596 nspr-2   Loading settings file "/home/marcus/VirtualBox VMs/HACKME/HACKME.vbox" with version "1.19-linux"
00:00:00.144475 nspr-2   Loading settings file "/home/marcus/i/InstallationMedia/kali-linux-2023.1-virtualbox-amd64/kali-linux-2023.1-virtualbox-amd64.vbox" with version "1.19-linux"
00:00:00.145129 nspr-2   Loading settings file "/home/marcus/VirtualBox VMs/win7-pro_64-bit/win7-pro_64-bit.vbox" with version "1.19-linux"
00:00:00.146357 nspr-2   VirtualBox: object created
00:00:00.786081 nspr-3   ERROR [COM]: aRC=VBOX_E_INVALID_VM_STATE (0x80bb0002) aIID={300763af-5d6b-46e6-aa96-273eac15538a} aComponent={MachineWrap} aText={The machine is not mutable (state is PoweredOff)}, preserve=false aResultDetail=0
00:00:00.787834 nspr-3   Failed to open "/dev/vboxdrvu", errno=2, rc=VERR_VM_DRIVER_NOT_INSTALLED
00:00:02.029123 nspr-4   Launched VM: 2013274432 pid: 57135 (0xdf2f) frontend: GUI/Qt name: win7-pro_64-bit
00:00:02.049739 nspr-5   ERROR [COM]: aRC=VBOX_E_INVALID_VM_STATE (0x80bb0002) aIID={300763af-5d6b-46e6-aa96-273eac15538a} aComponent={MachineWrap} aText={The machine is not mutable (state is PoweredOff)}, preserve=false aResultDetail=0
00:00:02.051150 nspr-5   Failed to open "/dev/vboxdrvu", errno=2, rc=VERR_VM_DRIVER_NOT_INSTALLED
00:00:02.529477 Watcher  ERROR [COM]: aRC=NS_ERROR_FAILURE (0x80004005) aIID={300763af-5d6b-46e6-aa96-273eac15538a} aComponent={MachineWrap} aText={The virtual machine 'win7-pro_64-bit' has terminated unexpectedly during startup with exit code 1 (0x1)}, preserve=false aResultDetail=0
00:00:02.559778 nspr-4   ERROR [COM]: aRC=VBOX_E_INVALID_VM_STATE (0x80bb0002) aIID={300763af-5d6b-46e6-aa96-273eac15538a} aComponent={MachineWrap} aText={The machine is not mutable (state is PoweredOff)}, preserve=false aResultDetail=0
00:00:02.560619 nspr-2   Failed to open "/dev/vboxdrvu", errno=2, rc=VERR_VM_DRIVER_NOT_INSTALLED
