00:00:00.112945 main     VirtualBox XPCOM Server 7.0.10 r158379 linux.amd64 (Aug 11 2023 12:19:51) release log
00:00:00.112950 main     Log opened 2023-09-03T22:33:18.152507000Z
00:00:00.112951 main     Build Type: release
00:00:00.112956 main     OS Product: Linux
00:00:00.112959 main     OS Release: 6.1.47-1-lts
00:00:00.112962 main     OS Version: #1 SMP PREEMPT_DYNAMIC Wed, 23 Aug 2023 19:08:07 +0000
00:00:00.113009 main     DMI Product Name: Inspiron 3668
00:00:00.113031 main     DMI Product Version: 
00:00:00.113040 main     Firmware type: UEFI
00:00:00.113323 main     Secure Boot: Disabled
00:00:00.113403 main     Host RAM: 15905MB (15.5GB) total, 14016MB (13.6GB) available
00:00:00.113410 main     Executable: /usr/lib/virtualbox/VBoxSVC
00:00:00.113411 main     Process ID: 133723
00:00:00.113412 main     Package type: LINUX_64BITS_GENERIC (OSE)
00:00:00.118009 main     IPC socket path: /tmp/.vbox-marcus-ipc/ipcd
00:00:00.265632 nspr-2   VirtualBox: object creation starts
00:00:00.278454 nspr-2   Home directory: '/home/marcus/.config/VirtualBox'
00:00:00.279559 nspr-2   Loading settings file "/home/marcus/.config/VirtualBox/VirtualBox.xml" with version "1.12-linux"
00:00:00.320757 nspr-2   USB: Unknown USB device detected (idVendor: 0x0cf3, idProduct: 0xe005)
00:00:00.321048 nspr-2   Successfully initialised host USB using sysfs
00:00:00.405199 nspr-2   NetIfAdpCtlOut: VBoxNetAdpCtl: Error while retrieving link speed for wlp3s0: VBoxNetAdpCtl: ioctl failed: Operation not supported
00:00:00.408260 nspr-2   HostDnsMonitor: initializing
00:00:00.409185 nspr-2   NAT: resolv.conf: nameserver 185.228.168.10
00:00:00.409225 nspr-2   HostDnsMonitor: updating information
00:00:00.409250 nspr-2   HostDnsMonitor: old information
00:00:00.409256 nspr-2     no server entries
00:00:00.409261 nspr-2     no domain set
00:00:00.409265 nspr-2     no search string entries
00:00:00.409271 nspr-2   HostDnsMonitor: new information
00:00:00.409275 nspr-2     server 1: 185.228.168.10
00:00:00.409281 nspr-2     no domain set
00:00:00.409285 nspr-2     no search string entries
00:00:00.447112 nspr-2   VD: VDInit finished with VINF_SUCCESS
00:00:00.628195 nspr-2   ERROR [COM]: aRC=NS_ERROR_FAILURE (0x80004005) aIID={aac6c7cb-a371-4c58-ab51-0616896b2f2c} aComponent={SystemPropertiesWrap} aText={Cannot determine default Guest Additions ISO location. Most likely they are not available}, preserve=false aResultDetail=0
00:00:00.702533 nspr-2   Loading settings file "/home/marcus/VirtualBox VMs/HACKME/HACKME.vbox" with version "1.19-linux"
00:00:00.715823 nspr-2   Loading settings file "/home/marcus/i/InstallationMedia/kali-linux-2023.1-virtualbox-amd64/kali-linux-2023.1-virtualbox-amd64.vbox" with version "1.19-linux"
00:00:00.729998 nspr-2   Loading settings file "/home/marcus/VirtualBox VMs/win7-pro_64-bit/win7-pro_64-bit.vbox" with version "1.19-linux"
00:00:00.760629 nspr-2   Loading settings file "/home/marcus/VirtualBox VMs/test_install_script/test_install_script.vbox" with version "1.19-linux"
00:00:00.762462 nspr-2   VirtualBox: object created
00:00:03.073844 nspr-6   ERROR [COM]: aRC=VBOX_E_INVALID_VM_STATE (0x80bb0002) aIID={300763af-5d6b-46e6-aa96-273eac15538a} aComponent={MachineWrap} aText={The machine is not mutable (state is PoweredOff)}, preserve=false aResultDetail=0
00:00:06.609905 nspr-4   ERROR [COM]: aRC=NS_ERROR_FAILURE (0x80004005) aIID={aac6c7cb-a371-4c58-ab51-0616896b2f2c} aComponent={SystemPropertiesWrap} aText={Cannot determine default Guest Additions ISO location. Most likely they are not available}, preserve=false aResultDetail=0
00:00:17.840802 nspr-4   Unattended: .disk/info: Unknown: diskname='Android-x86
00:00:17.840808 nspr-4   '
00:00:17.911127 nspr-6   Saving settings file "/home/marcus/.config/VirtualBox/VirtualBox.xml" with version "1.12-linux"
00:00:18.109590 nspr-6   Finished saving settings file "/home/marcus/.config/VirtualBox/VirtualBox.xml"
00:02:19.767353 createBase Saving settings file "/home/marcus/.config/VirtualBox/VirtualBox.xml" with version "1.12-linux"
00:02:19.921279 createBase Finished saving settings file "/home/marcus/.config/VirtualBox/VirtualBox.xml"
00:02:19.940658 nspr-3   Saving settings file "/home/marcus/VirtualBox VMs/Android/Android.vbox" with version "1.19-linux"
00:02:20.104911 nspr-3   Finished saving settings file "/home/marcus/VirtualBox VMs/Android/Android.vbox"
00:02:20.105153 nspr-3   Saving settings file "/home/marcus/.config/VirtualBox/VirtualBox.xml" with version "1.12-linux"
00:02:20.229887 nspr-3   Finished saving settings file "/home/marcus/.config/VirtualBox/VirtualBox.xml"
00:02:20.274560 nspr-5   Saving settings file "/home/marcus/.config/VirtualBox/VirtualBox.xml" with version "1.12-linux"
00:02:20.404864 nspr-5   Finished saving settings file "/home/marcus/.config/VirtualBox/VirtualBox.xml"
00:02:20.439326 nspr-2   Saving settings file "/home/marcus/.config/VirtualBox/VirtualBox.xml" with version "1.12-linux"
00:02:20.571642 nspr-2   Finished saving settings file "/home/marcus/.config/VirtualBox/VirtualBox.xml"
00:02:20.573429 nspr-5   Saving settings file "/home/marcus/VirtualBox VMs/Android/Android.vbox" with version "1.19-linux"
00:02:20.696298 nspr-5   Finished saving settings file "/home/marcus/VirtualBox VMs/Android/Android.vbox"
00:02:20.758722 nspr-2   Saving settings file "/home/marcus/.config/VirtualBox/VirtualBox.xml" with version "1.12-linux"
00:02:20.879434 nspr-2   Finished saving settings file "/home/marcus/.config/VirtualBox/VirtualBox.xml"
00:02:20.988402 nspr-4   ERROR [COM]: aRC=VBOX_E_INVALID_VM_STATE (0x80bb0002) aIID={300763af-5d6b-46e6-aa96-273eac15538a} aComponent={MachineWrap} aText={The machine is not mutable (state is PoweredOff)}, preserve=false aResultDetail=0
00:02:23.398831 nspr-5   ERROR [COM]: aRC=VBOX_E_OBJECT_NOT_FOUND (0x80bb0001) aIID={5bfd8965-b81b-469f-8649-f717ce97a5d5} aComponent={NvramStoreWrap} aText={The UEFI NVRAM file is not existing for this machine.}, preserve=false aResultDetail=0
00:02:23.420860 nspr-4   NetIfAdpCtlOut: VBoxNetAdpCtl: Error while retrieving link speed for wlp3s0: VBoxNetAdpCtl: ioctl failed: Operation not supported
00:02:23.435083 nspr-5   NetIfAdpCtlOut: VBoxNetAdpCtl: Error while retrieving link speed for wlp3s0: VBoxNetAdpCtl: ioctl failed: Operation not supported
00:02:23.636987 nspr-3   ERROR [COM]: aRC=VBOX_E_INVALID_VM_STATE (0x80bb0002) aIID={300763af-5d6b-46e6-aa96-273eac15538a} aComponent={MachineWrap} aText={The machine is not mutable (state is PoweredOff)}, preserve=false aResultDetail=0
00:02:23.865045 nspr-3   Saving settings file "/home/marcus/.config/VirtualBox/VirtualBox.xml" with version "1.12-linux"
00:02:23.987462 nspr-3   Finished saving settings file "/home/marcus/.config/VirtualBox/VirtualBox.xml"
00:02:58.832830 nspr-2   Saving settings file "/home/marcus/VirtualBox VMs/Android/Android.vbox" with version "1.19-linux"
00:02:58.959238 nspr-2   Finished saving settings file "/home/marcus/VirtualBox VMs/Android/Android.vbox"
00:02:59.114129 nspr-4   ERROR [COM]: aRC=VBOX_E_INVALID_VM_STATE (0x80bb0002) aIID={300763af-5d6b-46e6-aa96-273eac15538a} aComponent={MachineWrap} aText={The machine is not mutable (state is PoweredOff)}, preserve=false aResultDetail=0
00:02:59.350456 nspr-2   Saving settings file "/home/marcus/.config/VirtualBox/VirtualBox.xml" with version "1.12-linux"
00:02:59.450806 nspr-2   Finished saving settings file "/home/marcus/.config/VirtualBox/VirtualBox.xml"
00:03:00.904432 nspr-4   Launched VM: 574938800 pid: 134087 (0x20bc7) frontend: GUI/Qt name: Android
00:03:00.960353 nspr-5   ERROR [COM]: aRC=VBOX_E_INVALID_VM_STATE (0x80bb0002) aIID={300763af-5d6b-46e6-aa96-273eac15538a} aComponent={MachineWrap} aText={The machine is not mutable (state is PoweredOff)}, preserve=false aResultDetail=0
00:03:01.282127 nspr-6   ERROR [COM]: aRC=VBOX_E_INVALID_VM_STATE (0x80bb0002) aIID={300763af-5d6b-46e6-aa96-273eac15538a} aComponent={MachineWrap} aText={The machine is not mutable (state is PoweredOff)}, preserve=false aResultDetail=0
00:03:01.723587 nspr-5   ERROR [COM]: aRC=VBOX_E_OBJECT_NOT_FOUND (0x80bb0001) aIID={70401eef-c8e9-466b-9660-45cb3e9979e4} aComponent={ExtPackManagerWrap} aText={No extension pack by the name 'Oracle VM VirtualBox Extension Pack' was found}, preserve=false aResultDetail=0
00:03:01.786777 nspr-7   ERROR [COM]: aRC=VBOX_E_IPRT_ERROR (0x80bb0005) aIID={300763af-5d6b-46e6-aa96-273eac15538a} aComponent={SessionMachine} aText={Saved screenshot data is not available (VERR_NOT_SUPPORTED)}, preserve=false aResultDetail=-37
00:03:01.876397 nspr-7   NetIfAdpCtlOut: VBoxNetAdpCtl: Error while retrieving link speed for wlp3s0: VBoxNetAdpCtl: ioctl failed: Operation not supported
00:03:02.092684 nspr-7   ERROR [COM]: aRC=VBOX_E_INVALID_VM_STATE (0x80bb0002) aIID={300763af-5d6b-46e6-aa96-273eac15538a} aComponent={MachineWrap} aText={The machine is not mutable (state is Starting)}, preserve=false aResultDetail=0
00:03:02.209317 nspr-7   Saving settings file "/home/marcus/.config/VirtualBox/VirtualBox.xml" with version "1.12-linux"
00:03:02.267327 nspr-2   ERROR [COM]: aRC=VBOX_E_INVALID_VM_STATE (0x80bb0002) aIID={300763af-5d6b-46e6-aa96-273eac15538a} aComponent={SessionMachine} aText={The machine is not mutable or saved (state is Starting)}, preserve=false aResultDetail=0
00:03:02.272846 nspr-2   Saving settings file "/home/marcus/VirtualBox VMs/Android/Android.vbox" with version "1.19-linux"
00:03:02.619002 nspr-7   Finished saving settings file "/home/marcus/.config/VirtualBox/VirtualBox.xml"
00:03:02.619033 nspr-2   Finished saving settings file "/home/marcus/VirtualBox VMs/Android/Android.vbox"
00:03:02.751426 nspr-7   ERROR [COM]: aRC=VBOX_E_INVALID_VM_STATE (0x80bb0002) aIID={300763af-5d6b-46e6-aa96-273eac15538a} aComponent={MachineWrap} aText={The machine is not mutable (state is Starting)}, preserve=false aResultDetail=0
00:03:03.035934 nspr-5   Saving settings file "/home/marcus/VirtualBox VMs/Android/Android.vbox" with version "1.19-linux"
00:03:03.460895 nspr-5   Finished saving settings file "/home/marcus/VirtualBox VMs/Android/Android.vbox"
00:03:03.541763 nspr-9   ERROR [COM]: aRC=VBOX_E_INVALID_VM_STATE (0x80bb0002) aIID={300763af-5d6b-46e6-aa96-273eac15538a} aComponent={MachineWrap} aText={The machine is not mutable (state is Starting)}, preserve=false aResultDetail=0
00:03:03.749817 nspr-3   ERROR [COM]: aRC=VBOX_E_OBJECT_NOT_FOUND (0x80bb0001) aIID={ad47ad09-787b-44ab-b343-a082a3f2dfb1} aComponent={MediumWrap} aText={Property 'CRYPT/KeyId' does not exist}, preserve=false aResultDetail=0
00:03:03.750852 nspr-5   ERROR [COM]: aRC=VBOX_E_OBJECT_NOT_FOUND (0x80bb0001) aIID={ad47ad09-787b-44ab-b343-a082a3f2dfb1} aComponent={MediumWrap} aText={Property 'CRYPT/KeyId' does not exist}, preserve=false aResultDetail=0
00:03:03.808768 nspr-9   ERROR [COM]: aRC=VBOX_E_INVALID_VM_STATE (0x80bb0002) aIID={300763af-5d6b-46e6-aa96-273eac15538a} aComponent={MachineWrap} aText={The machine is not mutable (state is GuruMeditation)}, preserve=false aResultDetail=0
00:03:27.136355 nspr-7   ERROR [COM]: aRC=VBOX_E_INVALID_VM_STATE (0x80bb0002) aIID={300763af-5d6b-46e6-aa96-273eac15538a} aComponent={MachineWrap} aText={The machine is not mutable (state is Stopping)}, preserve=false aResultDetail=0
00:03:27.168751 nspr-9   Saving settings file "/home/marcus/VirtualBox VMs/Android/Android.vbox" with version "1.19-linux"
00:03:27.300128 nspr-9   Finished saving settings file "/home/marcus/VirtualBox VMs/Android/Android.vbox"
00:03:27.379548 nspr-6   ERROR [COM]: aRC=VBOX_E_INVALID_VM_STATE (0x80bb0002) aIID={300763af-5d6b-46e6-aa96-273eac15538a} aComponent={MachineWrap} aText={The machine is not mutable (state is PoweredOff)}, preserve=false aResultDetail=0
00:03:28.766897 nspr-9   ERROR [COM]: aRC=VBOX_E_INVALID_VM_STATE (0x80bb0002) aIID={300763af-5d6b-46e6-aa96-273eac15538a} aComponent={MachineWrap} aText={The machine is not mutable (state is PoweredOff)}, preserve=false aResultDetail=0
00:03:29.036628 nspr-5   Saving settings file "/home/marcus/.config/VirtualBox/VirtualBox.xml" with version "1.12-linux"
00:03:29.149861 nspr-5   Finished saving settings file "/home/marcus/.config/VirtualBox/VirtualBox.xml"
00:03:30.776424 nspr-3   Saving settings file "/home/marcus/.config/VirtualBox/VirtualBox.xml" with version "1.12-linux"
00:03:30.899676 nspr-3   Finished saving settings file "/home/marcus/.config/VirtualBox/VirtualBox.xml"
00:03:30.922359 nspr-8   ERROR [COM]: aRC=VBOX_E_INVALID_VM_STATE (0x80bb0002) aIID={300763af-5d6b-46e6-aa96-273eac15538a} aComponent={MachineWrap} aText={The machine is not mutable (state is PoweredOff)}, preserve=false aResultDetail=0
00:03:31.734581 nspr-2   Launched VM: 3959472576 pid: 134195 (0x20c33) frontend: GUI/Qt name: win7-pro_64-bit
00:03:31.772190 nspr-7   ERROR [COM]: aRC=VBOX_E_INVALID_VM_STATE (0x80bb0002) aIID={300763af-5d6b-46e6-aa96-273eac15538a} aComponent={MachineWrap} aText={The machine is not mutable (state is PoweredOff)}, preserve=false aResultDetail=0
00:03:31.968412 nspr-5   ERROR [COM]: aRC=VBOX_E_INVALID_VM_STATE (0x80bb0002) aIID={300763af-5d6b-46e6-aa96-273eac15538a} aComponent={MachineWrap} aText={The machine is not mutable (state is PoweredOff)}, preserve=false aResultDetail=0
00:03:32.459236 nspr-8   ERROR [COM]: aRC=VBOX_E_OBJECT_NOT_FOUND (0x80bb0001) aIID={70401eef-c8e9-466b-9660-45cb3e9979e4} aComponent={ExtPackManagerWrap} aText={No extension pack by the name 'Oracle VM VirtualBox Extension Pack' was found}, preserve=false aResultDetail=0
00:03:32.521916 nspr-3   ERROR [COM]: aRC=VBOX_E_IPRT_ERROR (0x80bb0005) aIID={300763af-5d6b-46e6-aa96-273eac15538a} aComponent={SessionMachine} aText={Saved screenshot data is not available (VERR_NOT_SUPPORTED)}, preserve=false aResultDetail=-37
00:03:32.565216 nspr-8   NetIfAdpCtlOut: VBoxNetAdpCtl: Error while retrieving link speed for wlp3s0: VBoxNetAdpCtl: ioctl failed: Operation not supported
00:03:32.757833 nspr-5   ERROR [COM]: aRC=VBOX_E_INVALID_VM_STATE (0x80bb0002) aIID={300763af-5d6b-46e6-aa96-273eac15538a} aComponent={MachineWrap} aText={The machine is not mutable (state is Starting)}, preserve=false aResultDetail=0
00:03:32.846434 nspr-5   Saving settings file "/home/marcus/.config/VirtualBox/VirtualBox.xml" with version "1.12-linux"
00:03:33.106001 nspr-5   Finished saving settings file "/home/marcus/.config/VirtualBox/VirtualBox.xml"
00:03:33.122618 nspr-5   Saving settings file "/home/marcus/VirtualBox VMs/win7-pro_64-bit/win7-pro_64-bit.vbox" with version "1.19-linux"
00:03:33.264542 nspr-5   Finished saving settings file "/home/marcus/VirtualBox VMs/win7-pro_64-bit/win7-pro_64-bit.vbox"
00:03:33.268197 nspr-4   ERROR [COM]: aRC=VBOX_E_OBJECT_NOT_FOUND (0x80bb0001) aIID={ad47ad09-787b-44ab-b343-a082a3f2dfb1} aComponent={MediumWrap} aText={Property 'CRYPT/KeyId' does not exist}, preserve=false aResultDetail=0
00:03:33.283968 nspr-8   ERROR [COM]: aRC=VBOX_E_OBJECT_NOT_FOUND (0x80bb0001) aIID={ad47ad09-787b-44ab-b343-a082a3f2dfb1} aComponent={MediumWrap} aText={Property 'CRYPT/KeyId' does not exist}, preserve=false aResultDetail=0
00:03:33.357845 nspr-4   ERROR [COM]: aRC=VBOX_E_INVALID_VM_STATE (0x80bb0002) aIID={300763af-5d6b-46e6-aa96-273eac15538a} aComponent={MachineWrap} aText={The machine is not mutable (state is GuruMeditation)}, preserve=false aResultDetail=0
00:03:34.672124 nspr-3   ERROR [COM]: aRC=VBOX_E_INVALID_VM_STATE (0x80bb0002) aIID={300763af-5d6b-46e6-aa96-273eac15538a} aComponent={MachineWrap} aText={The machine is not mutable (state is Stopping)}, preserve=false aResultDetail=0
00:03:34.772747 nspr-7   Saving settings file "/home/marcus/VirtualBox VMs/win7-pro_64-bit/win7-pro_64-bit.vbox" with version "1.19-linux"
00:03:34.914354 nspr-7   Finished saving settings file "/home/marcus/VirtualBox VMs/win7-pro_64-bit/win7-pro_64-bit.vbox"
00:03:34.965232 nspr-6   ERROR [COM]: aRC=VBOX_E_INVALID_VM_STATE (0x80bb0002) aIID={300763af-5d6b-46e6-aa96-273eac15538a} aComponent={MachineWrap} aText={The machine is not mutable (state is PoweredOff)}, preserve=false aResultDetail=0
00:03:36.366345 nspr-6   ERROR [COM]: aRC=VBOX_E_INVALID_VM_STATE (0x80bb0002) aIID={300763af-5d6b-46e6-aa96-273eac15538a} aComponent={MachineWrap} aText={The machine is not mutable (state is PoweredOff)}, preserve=false aResultDetail=0
00:03:36.637083 nspr-8   Saving settings file "/home/marcus/.config/VirtualBox/VirtualBox.xml" with version "1.12-linux"
00:03:36.764001 nspr-8   Finished saving settings file "/home/marcus/.config/VirtualBox/VirtualBox.xml"
00:03:39.510971 nspr-3   Saving settings file "/home/marcus/.config/VirtualBox/VirtualBox.xml" with version "1.12-linux"
00:03:39.630414 nspr-3   Finished saving settings file "/home/marcus/.config/VirtualBox/VirtualBox.xml"
00:48:39.155886 nspr-7   Saving settings file "/home/marcus/.config/VirtualBox/VirtualBox.xml" with version "1.12-linux"
00:48:39.359095 nspr-7   Finished saving settings file "/home/marcus/.config/VirtualBox/VirtualBox.xml"
00:48:45.894001 main     VirtualBox: object deletion starts
00:48:45.894070 main     ERROR [COM]: aRC=VBOX_E_OBJECT_IN_USE (0x80bb000c) aIID={ad47ad09-787b-44ab-b343-a082a3f2dfb1} aComponent={MediumWrap} aText={Medium '/home/marcus/VirtualBox VMs/HACKME/mrRobot-disk1.vdi' cannot be closed because it is still attached to 1 virtual machines}, preserve=false aResultDetail=0
00:48:45.894327 main     ERROR [COM]: aRC=VBOX_E_OBJECT_IN_USE (0x80bb000c) aIID={ad47ad09-787b-44ab-b343-a082a3f2dfb1} aComponent={MediumWrap} aText={Medium '/home/marcus/i/InstallationMedia/kali-linux-2023.1-virtualbox-amd64/kali-linux-2023.1-virtualbox-amd64.vdi' cannot be closed because it is still attached to 1 virtual machines}, preserve=false aResultDetail=0
00:48:45.894523 main     ERROR [COM]: aRC=VBOX_E_OBJECT_IN_USE (0x80bb000c) aIID={ad47ad09-787b-44ab-b343-a082a3f2dfb1} aComponent={MediumWrap} aText={Medium '/home/marcus/VirtualBox VMs/win7-pro_64-bit/win7-pro_64-bit.vdi' cannot be closed because it is still attached to 1 virtual machines}, preserve=false aResultDetail=0
00:48:45.894709 main     ERROR [COM]: aRC=VBOX_E_OBJECT_IN_USE (0x80bb000c) aIID={ad47ad09-787b-44ab-b343-a082a3f2dfb1} aComponent={MediumWrap} aText={Medium '/home/marcus/VirtualBox VMs/test_install_script/test_install_script.vdi' cannot be closed because it is still attached to 1 virtual machines}, preserve=false aResultDetail=0
00:48:45.894891 main     ERROR [COM]: aRC=VBOX_E_OBJECT_IN_USE (0x80bb000c) aIID={ad47ad09-787b-44ab-b343-a082a3f2dfb1} aComponent={MediumWrap} aText={Medium '/home/marcus/VirtualBox VMs/Android/Android.vdi' cannot be closed because it is still attached to 1 virtual machines}, preserve=false aResultDetail=0
00:48:45.895697 main     HostDnsMonitor: shutting down ...
00:48:45.908687 main     HostDnsMonitor: shut down
00:48:45.921250 Watcher  ERROR [COM]: aRC=E_ACCESSDENIED (0x80070005) aIID={7682d5eb-f00e-44f1-8ca2-99d08b1cd607} aComponent={VirtualBoxWrap} aText={The object is not ready}, preserve=false aResultDetail=0
00:48:45.921437 main     VirtualBox: object deleted
