00:00:00.099515 main     VirtualBox XPCOM Server 7.0.8 r156879 linux.amd64 (Apr 18 2023 21:49:14) release log
00:00:00.099520 main     Log opened 2023-07-23T00:22:31.616332000Z
00:00:00.099521 main     Build Type: release
00:00:00.099526 main     OS Product: Linux
00:00:00.099528 main     OS Release: 6.1.38-1-lts
00:00:00.099531 main     OS Version: #1 SMP PREEMPT_DYNAMIC Thu, 06 Jul 2023 13:07:19 +0000
00:00:00.099569 main     DMI Product Name: Inspiron 3668
00:00:00.099589 main     DMI Product Version: 
00:00:00.099597 main     Firmware type: UEFI
00:00:00.100026 main     Secure Boot: Disabled
00:00:00.100106 main     Host RAM: 15906MB (15.5GB) total, 14149MB (13.8GB) available
00:00:00.100111 main     Executable: /usr/lib/virtualbox/VBoxSVC
00:00:00.100113 main     Process ID: 81513
00:00:00.100113 main     Package type: LINUX_64BITS_GENERIC (OSE)
00:00:00.103154 main     IPC socket path: /tmp/.vbox-marcus-ipc/ipcd
00:00:00.248918 nspr-2   VirtualBox: object creation starts
00:00:00.272541 nspr-2   Home directory: '/home/marcus/.config/VirtualBox'
00:00:00.301168 nspr-2   Loading settings file "/home/marcus/.config/VirtualBox/VirtualBox.xml" with version "1.12-linux"
00:00:00.364212 nspr-2   USB: Unknown USB device detected (idVendor: 0x0cf3, idProduct: 0xe005)
00:00:00.364499 nspr-2   Successfully initialised host USB using sysfs
00:00:00.423499 nspr-2   NetIfAdpCtlOut: VBoxNetAdpCtl: Error while retrieving link speed for wlp3s0: VBoxNetAdpCtl: ioctl failed: Operation not supported
00:00:00.425409 nspr-2   HostDnsMonitor: initializing
00:00:00.425907 nspr-2   NAT: resolv.conf: nameserver 185.228.168.10
00:00:00.425931 nspr-2   HostDnsMonitor: updating information
00:00:00.425951 nspr-2   HostDnsMonitor: old information
00:00:00.425956 nspr-2     no server entries
00:00:00.425961 nspr-2     no domain set
00:00:00.425965 nspr-2     no search string entries
00:00:00.425969 nspr-2   HostDnsMonitor: new information
00:00:00.425973 nspr-2     server 1: 185.228.168.10
00:00:00.425978 nspr-2     no domain set
00:00:00.425982 nspr-2     no search string entries
00:00:00.478755 nspr-2   VD: VDInit finished with VINF_SUCCESS
00:00:00.485706 nspr-2   ERROR [COM]: aRC=NS_ERROR_FAILURE (0x80004005) aIID={aac6c7cb-a371-4c58-ab51-0616896b2f2c} aComponent={SystemPropertiesWrap} aText={Cannot determine default Guest Additions ISO location. Most likely they are not available}, preserve=false aResultDetail=0
00:00:00.641503 nspr-2   Loading settings file "/home/marcus/VirtualBox VMs/HACKME/HACKME.vbox" with version "1.19-linux"
00:00:00.705775 nspr-2   Loading settings file "/home/marcus/i/InstallationMedia/kali-linux-2023.1-virtualbox-amd64/kali-linux-2023.1-virtualbox-amd64.vbox" with version "1.19-linux"
00:00:00.718449 nspr-2   Loading settings file "/home/marcus/VirtualBox VMs/win7-pro_64-bit/win7-pro_64-bit.vbox" with version "1.19-linux"
00:00:00.733870 nspr-2   Loading settings file "/home/marcus/VirtualBox VMs/test_install_script/test_install_script.vbox" with version "1.19-linux"
00:00:00.735143 nspr-2   VirtualBox: object created
00:00:02.969986 nspr-6   ERROR [COM]: aRC=VBOX_E_INVALID_VM_STATE (0x80bb0002) aIID={300763af-5d6b-46e6-aa96-273eac15538a} aComponent={MachineWrap} aText={The machine is not mutable (state is PoweredOff)}, preserve=false aResultDetail=0
00:00:14.104878 nspr-5   NetIfAdpCtlOut: VBoxNetAdpCtl: Error while retrieving link speed for wlp3s0: VBoxNetAdpCtl: ioctl failed: Operation not supported
00:00:14.119458 nspr-4   NetIfAdpCtlOut: VBoxNetAdpCtl: Error while retrieving link speed for wlp3s0: VBoxNetAdpCtl: ioctl failed: Operation not supported
00:00:14.289801 nspr-4   ERROR [COM]: aRC=VBOX_E_INVALID_VM_STATE (0x80bb0002) aIID={300763af-5d6b-46e6-aa96-273eac15538a} aComponent={MachineWrap} aText={The machine is not mutable (state is PoweredOff)}, preserve=false aResultDetail=0
00:00:14.498291 nspr-4   Saving settings file "/home/marcus/.config/VirtualBox/VirtualBox.xml" with version "1.12-linux"
00:00:14.720986 nspr-4   Finished saving settings file "/home/marcus/.config/VirtualBox/VirtualBox.xml"
00:00:38.261316 nspr-5   Saving settings file "/home/marcus/.config/VirtualBox/VirtualBox.xml" with version "1.12-linux"
00:00:38.454578 nspr-5   Finished saving settings file "/home/marcus/.config/VirtualBox/VirtualBox.xml"
00:00:38.460601 nspr-5   Saving settings file "/home/marcus/.config/VirtualBox/VirtualBox.xml" with version "1.12-linux"
00:00:38.621093 nspr-5   Finished saving settings file "/home/marcus/.config/VirtualBox/VirtualBox.xml"
00:00:52.910943 nspr-5   Saving settings file "/home/marcus/.config/VirtualBox/VirtualBox.xml" with version "1.12-linux"
00:00:52.959840 nspr-2   ERROR [COM]: aRC=VBOX_E_INVALID_VM_STATE (0x80bb0002) aIID={300763af-5d6b-46e6-aa96-273eac15538a} aComponent={MachineWrap} aText={The machine is not mutable (state is PoweredOff)}, preserve=false aResultDetail=0
00:00:53.138114 nspr-5   Finished saving settings file "/home/marcus/.config/VirtualBox/VirtualBox.xml"
00:00:53.170894 nspr-2   Saving settings file "/home/marcus/VirtualBox VMs/test_install_script/test_install_script.vbox" with version "1.19-linux"
00:00:53.371497 nspr-2   Finished saving settings file "/home/marcus/VirtualBox VMs/test_install_script/test_install_script.vbox"
00:00:53.479199 nspr-4   ERROR [COM]: aRC=VBOX_E_INVALID_VM_STATE (0x80bb0002) aIID={300763af-5d6b-46e6-aa96-273eac15538a} aComponent={MachineWrap} aText={The machine is not mutable (state is PoweredOff)}, preserve=false aResultDetail=0
00:00:53.762788 nspr-6   Saving settings file "/home/marcus/.config/VirtualBox/VirtualBox.xml" with version "1.12-linux"
00:00:53.921366 nspr-6   Finished saving settings file "/home/marcus/.config/VirtualBox/VirtualBox.xml"
00:00:55.079724 nspr-4   NetIfAdpCtlOut: VBoxNetAdpCtl: Error while retrieving link speed for wlp3s0: VBoxNetAdpCtl: ioctl failed: Operation not supported
00:00:55.095580 nspr-3   NetIfAdpCtlOut: VBoxNetAdpCtl: Error while retrieving link speed for wlp3s0: VBoxNetAdpCtl: ioctl failed: Operation not supported
00:00:55.299390 nspr-6   ERROR [COM]: aRC=VBOX_E_INVALID_VM_STATE (0x80bb0002) aIID={300763af-5d6b-46e6-aa96-273eac15538a} aComponent={MachineWrap} aText={The machine is not mutable (state is PoweredOff)}, preserve=false aResultDetail=0
00:00:55.580744 nspr-3   Saving settings file "/home/marcus/.config/VirtualBox/VirtualBox.xml" with version "1.12-linux"
00:00:55.737894 nspr-3   Finished saving settings file "/home/marcus/.config/VirtualBox/VirtualBox.xml"
00:01:01.898249 nspr-6   Saving settings file "/home/marcus/.config/VirtualBox/VirtualBox.xml" with version "1.12-linux"
00:01:02.062305 nspr-6   Finished saving settings file "/home/marcus/.config/VirtualBox/VirtualBox.xml"
00:01:04.914373 nspr-5   Launched VM: 2147495312 pid: 81680 (0x13f10) frontend: GUI/Qt name: test_install_script
00:01:04.934478 nspr-3   ERROR [COM]: aRC=VBOX_E_INVALID_VM_STATE (0x80bb0002) aIID={300763af-5d6b-46e6-aa96-273eac15538a} aComponent={MachineWrap} aText={The machine is not mutable (state is PoweredOff)}, preserve=false aResultDetail=0
00:01:05.259212 nspr-2   ERROR [COM]: aRC=VBOX_E_INVALID_VM_STATE (0x80bb0002) aIID={300763af-5d6b-46e6-aa96-273eac15538a} aComponent={MachineWrap} aText={The machine is not mutable (state is PoweredOff)}, preserve=false aResultDetail=0
00:01:05.717827 nspr-4   ERROR [COM]: aRC=VBOX_E_OBJECT_NOT_FOUND (0x80bb0001) aIID={70401eef-c8e9-466b-9660-45cb3e9979e4} aComponent={ExtPackManagerWrap} aText={No extension pack by the name 'Oracle VM VirtualBox Extension Pack' was found}, preserve=false aResultDetail=0
00:01:05.814795 nspr-3   ERROR [COM]: aRC=VBOX_E_IPRT_ERROR (0x80bb0005) aIID={300763af-5d6b-46e6-aa96-273eac15538a} aComponent={SessionMachine} aText={Saved screenshot data is not available (VERR_NOT_SUPPORTED)}, preserve=false aResultDetail=-37
00:01:05.892629 nspr-8   NetIfAdpCtlOut: VBoxNetAdpCtl: Error while retrieving link speed for wlp3s0: VBoxNetAdpCtl: ioctl failed: Operation not supported
00:01:06.138316 nspr-4   ERROR [COM]: aRC=VBOX_E_INVALID_VM_STATE (0x80bb0002) aIID={300763af-5d6b-46e6-aa96-273eac15538a} aComponent={MachineWrap} aText={The machine is not mutable (state is Starting)}, preserve=false aResultDetail=0
00:01:06.174054 nspr-8   ERROR [COM]: aRC=VBOX_E_INVALID_VM_STATE (0x80bb0002) aIID={300763af-5d6b-46e6-aa96-273eac15538a} aComponent={SessionMachine} aText={The machine is not mutable or saved (state is Starting)}, preserve=false aResultDetail=0
00:01:06.180162 nspr-8   Saving settings file "/home/marcus/VirtualBox VMs/test_install_script/test_install_script.vbox" with version "1.19-linux"
00:01:06.443510 nspr-8   Finished saving settings file "/home/marcus/VirtualBox VMs/test_install_script/test_install_script.vbox"
00:01:06.444140 nspr-9   Saving settings file "/home/marcus/.config/VirtualBox/VirtualBox.xml" with version "1.12-linux"
00:01:06.660152 nspr-9   Finished saving settings file "/home/marcus/.config/VirtualBox/VirtualBox.xml"
00:01:06.712183 nspr-8   ERROR [COM]: aRC=VBOX_E_INVALID_VM_STATE (0x80bb0002) aIID={300763af-5d6b-46e6-aa96-273eac15538a} aComponent={MachineWrap} aText={The machine is not mutable (state is Starting)}, preserve=false aResultDetail=0
00:01:07.003330 nspr-2   Saving settings file "/home/marcus/VirtualBox VMs/test_install_script/test_install_script.vbox" with version "1.19-linux"
00:01:07.201731 nspr-2   Finished saving settings file "/home/marcus/VirtualBox VMs/test_install_script/test_install_script.vbox"
00:01:07.251201 nspr-5   ERROR [COM]: aRC=VBOX_E_INVALID_VM_STATE (0x80bb0002) aIID={300763af-5d6b-46e6-aa96-273eac15538a} aComponent={MachineWrap} aText={The machine is not mutable (state is Starting)}, preserve=false aResultDetail=0
00:01:07.405984 nspr-6   ERROR [COM]: aRC=VBOX_E_OBJECT_NOT_FOUND (0x80bb0001) aIID={ad47ad09-787b-44ab-b343-a082a3f2dfb1} aComponent={MediumWrap} aText={Property 'CRYPT/KeyId' does not exist}, preserve=false aResultDetail=0
00:01:07.408983 nspr-5   ERROR [COM]: aRC=VBOX_E_OBJECT_NOT_FOUND (0x80bb0001) aIID={ad47ad09-787b-44ab-b343-a082a3f2dfb1} aComponent={MediumWrap} aText={Property 'CRYPT/KeyId' does not exist}, preserve=false aResultDetail=0
00:01:07.494471 nspr-7   ERROR [COM]: aRC=VBOX_E_INVALID_VM_STATE (0x80bb0002) aIID={300763af-5d6b-46e6-aa96-273eac15538a} aComponent={MachineWrap} aText={The machine is not mutable (state is Running)}, preserve=false aResultDetail=0
00:01:10.186010 nspr-8   Saving settings file "/home/marcus/VirtualBox VMs/test_install_script/test_install_script.vbox" with version "1.19-linux"
00:01:10.359702 nspr-8   Finished saving settings file "/home/marcus/VirtualBox VMs/test_install_script/test_install_script.vbox"
00:01:10.359881 nspr-7   Saving settings file "/home/marcus/.config/VirtualBox/VirtualBox.xml" with version "1.12-linux"
00:01:10.526355 nspr-7   Finished saving settings file "/home/marcus/.config/VirtualBox/VirtualBox.xml"
00:01:10.541919 nspr-2   ERROR [COM]: aRC=VBOX_E_INVALID_VM_STATE (0x80bb0002) aIID={300763af-5d6b-46e6-aa96-273eac15538a} aComponent={MachineWrap} aText={The machine is not mutable (state is Running)}, preserve=false aResultDetail=0
00:02:15.585903 nspr-9   Saving settings file "/home/marcus/.config/VirtualBox/VirtualBox.xml" with version "1.12-linux"
00:02:15.599215 nspr-5   Saving settings file "/home/marcus/VirtualBox VMs/test_install_script/test_install_script.vbox" with version "1.19-linux"
00:02:15.863946 nspr-9   Finished saving settings file "/home/marcus/.config/VirtualBox/VirtualBox.xml"
00:02:15.937085 nspr-5   Finished saving settings file "/home/marcus/VirtualBox VMs/test_install_script/test_install_script.vbox"
00:02:15.945512 nspr-3   Saving settings file "/home/marcus/VirtualBox VMs/test_install_script/test_install_script.vbox" with version "1.19-linux"
00:02:16.178753 nspr-3   Finished saving settings file "/home/marcus/VirtualBox VMs/test_install_script/test_install_script.vbox"
00:02:16.205277 nspr-3   ERROR [COM]: aRC=VBOX_E_INVALID_VM_STATE (0x80bb0002) aIID={300763af-5d6b-46e6-aa96-273eac15538a} aComponent={MachineWrap} aText={The machine is not mutable (state is Running)}, preserve=false aResultDetail=0
00:02:17.701584 nspr-3   Saving settings file "/home/marcus/VirtualBox VMs/test_install_script/test_install_script.vbox" with version "1.19-linux"
00:02:17.995247 nspr-3   Finished saving settings file "/home/marcus/VirtualBox VMs/test_install_script/test_install_script.vbox"
00:02:18.012354 nspr-7   ERROR [COM]: aRC=VBOX_E_INVALID_VM_STATE (0x80bb0002) aIID={300763af-5d6b-46e6-aa96-273eac15538a} aComponent={MachineWrap} aText={The machine is not mutable (state is Running)}, preserve=false aResultDetail=0
00:05:23.468212 nspr-6   Saving settings file "/home/marcus/.config/VirtualBox/VirtualBox.xml" with version "1.12-linux"
00:05:23.645248 nspr-6   Finished saving settings file "/home/marcus/.config/VirtualBox/VirtualBox.xml"
00:05:49.190489 nspr-7   
00:05:49.190490 nspr-7   !!Assertion Failed!!
00:05:49.190491 nspr-7   Expression: state <= 1 && ( (state == 0 && count == 0) || (state == 1 && count < PR_UINT32_MAX/2))
00:05:49.190491 nspr-7   Location  : /build/virtualbox/src/VirtualBox-7.0.8/src/libs/xpcom18a4/ipc/ipcd/extensions/dconnect/src/ipcDConnectService.cpp(3433) virtual nsrefcnt ipcDConnectService::AddRef()
00:05:49.190492 nspr-7   Stack     :
00:05:49.190492 nspr-7   00007fa692c8e970
00:05:49.190493 nspr-7   
00:05:49.190537 nspr-7   AddRef: illegal refcnt=3221225469 state=2
00:05:49.190547 nspr-2   
00:05:49.190548 nspr-2   !!Assertion Failed!!
00:05:49.190548 nspr-2   Expression: state <= 1 && ( (state == 0 && count == 0) || (state == 1 && count < PR_UINT32_MAX/2))
00:05:49.190549 nspr-2   Location  : /build/virtualbox/src/VirtualBox-7.0.8/src/libs/xpcom18a4/ipc/ipcd/extensions/dconnect/src/ipcDConnectService.cpp(3433) virtual nsrefcnt ipcDConnectService::AddRef()
00:05:49.190550 nspr-2   Stack     :
00:05:49.190551 nspr-2   00007fa692c8e970
00:05:49.190551 nspr-2   
