00:00:00.274389 main     VirtualBox XPCOM Server 7.0.10 r158379 linux.amd64 (Aug 11 2023 12:19:51) release log
00:00:00.274395 main     Log opened 2023-10-06T22:44:11.320368000Z
00:00:00.274396 main     Build Type: release
00:00:00.274401 main     OS Product: Linux
00:00:00.274405 main     OS Release: 6.1.55-1-lts
00:00:00.274408 main     OS Version: #1 SMP PREEMPT_DYNAMIC Sat, 23 Sep 2023 16:57:15 +0000
00:00:00.274480 main     DMI Product Name: Inspiron 3668
00:00:00.274505 main     DMI Product Version: 
00:00:00.274516 main     Firmware type: UEFI
00:00:00.274797 main     Secure Boot: Disabled
00:00:00.274881 main     Host RAM: 15905MB (15.5GB) total, 14578MB (14.2GB) available
00:00:00.274888 main     Executable: /usr/lib/virtualbox/VBoxSVC
00:00:00.274889 main     Process ID: 88139
00:00:00.274890 main     Package type: LINUX_64BITS_GENERIC (OSE)
00:00:00.279502 main     IPC socket path: /tmp/.vbox-marcus-ipc/ipcd
00:00:00.820614 nspr-2   VirtualBox: object creation starts
00:00:00.827514 nspr-2   Home directory: '/home/marcus/.config/VirtualBox'
00:00:00.911784 nspr-2   Loading settings file "/home/marcus/.config/VirtualBox/VirtualBox.xml" with version "1.12-linux"
00:00:00.978837 nspr-2   USB: Unknown USB device detected (idVendor: 0x0cf3, idProduct: 0xe005)
00:00:00.979192 nspr-2   Successfully initialised host USB using sysfs
00:00:01.051821 nspr-2   NetIfAdpCtlOut: VBoxNetAdpCtl: Error while retrieving link speed for wlp3s0: VBoxNetAdpCtl: ioctl failed: Operation not supported
00:00:01.052979 nspr-2   HostDnsMonitor: initializing
00:00:01.053144 nspr-2   NAT: resolv.conf: nameserver 185.228.168.10
00:00:01.053157 nspr-2   HostDnsMonitor: updating information
00:00:01.053170 nspr-2   HostDnsMonitor: old information
00:00:01.053173 nspr-2     no server entries
00:00:01.053175 nspr-2     no domain set
00:00:01.053178 nspr-2     no search string entries
00:00:01.053180 nspr-2   HostDnsMonitor: new information
00:00:01.053182 nspr-2     server 1: 185.228.168.10
00:00:01.053186 nspr-2     no domain set
00:00:01.053188 nspr-2     no search string entries
00:00:01.319743 nspr-2   VD: VDInit finished with VINF_SUCCESS
00:00:01.418956 nspr-2   ERROR [COM]: aRC=NS_ERROR_FAILURE (0x80004005) aIID={aac6c7cb-a371-4c58-ab51-0616896b2f2c} aComponent={SystemPropertiesWrap} aText={Cannot determine default Guest Additions ISO location. Most likely they are not available}, preserve=false aResultDetail=0
00:00:01.489447 nspr-2   Loading settings file "/home/marcus/VirtualBox VMs/HACKME/HACKME.vbox" with version "1.19-linux"
00:00:01.515177 nspr-2   Loading settings file "/home/marcus/i/InstallationMedia/kali-linux-2023.1-virtualbox-amd64/kali-linux-2023.1-virtualbox-amd64.vbox" with version "1.19-linux"
00:00:01.526573 nspr-2   Loading settings file "/home/marcus/VirtualBox VMs/win7-pro_64-bit/win7-pro_64-bit.vbox" with version "1.19-linux"
00:00:01.618230 nspr-2   Loading settings file "/home/marcus/VirtualBox VMs/test_install_script/test_install_script.vbox" with version "1.19-linux"
00:00:01.633065 nspr-2   Loading settings file "/home/marcus/VirtualBox VMs/Android/Android.vbox" with version "1.19-linux"
00:00:01.634786 nspr-2   VirtualBox: object created
00:00:13.377536 nspr-6   ERROR [COM]: aRC=VBOX_E_INVALID_VM_STATE (0x80bb0002) aIID={300763af-5d6b-46e6-aa96-273eac15538a} aComponent={MachineWrap} aText={The machine is not mutable (state is PoweredOff)}, preserve=false aResultDetail=0
00:00:13.626121 nspr-3   Saving settings file "/home/marcus/.config/VirtualBox/VirtualBox.xml" with version "1.12-linux"
00:00:14.857461 nspr-3   Finished saving settings file "/home/marcus/.config/VirtualBox/VirtualBox.xml"
00:00:56.631601 nspr-4   ERROR [COM]: aRC=NS_ERROR_FAILURE (0x80004005) aIID={aac6c7cb-a371-4c58-ab51-0616896b2f2c} aComponent={SystemPropertiesWrap} aText={Cannot determine default Guest Additions ISO location. Most likely they are not available}, preserve=false aResultDetail=0
00:01:17.723552 nspr-3   Unattended: sources/idwbinfo.txt: Unknown: BuildBranch=ni_release
00:01:17.778140 nspr-4   Saving settings file "/home/marcus/.config/VirtualBox/VirtualBox.xml" with version "1.12-linux"
00:01:18.616497 nspr-4   Finished saving settings file "/home/marcus/.config/VirtualBox/VirtualBox.xml"
00:02:13.504230 createBase Saving settings file "/home/marcus/.config/VirtualBox/VirtualBox.xml" with version "1.12-linux"
00:02:15.037785 createBase Finished saving settings file "/home/marcus/.config/VirtualBox/VirtualBox.xml"
00:02:15.488921 nspr-4   Saving settings file "/home/marcus/VirtualBox VMs/Windows 11/Windows 11.vbox" with version "1.19-linux"
00:02:16.835644 nspr-4   Finished saving settings file "/home/marcus/VirtualBox VMs/Windows 11/Windows 11.vbox"
00:02:16.835952 nspr-4   Saving settings file "/home/marcus/.config/VirtualBox/VirtualBox.xml" with version "1.12-linux"
00:02:17.796217 nspr-4   Finished saving settings file "/home/marcus/.config/VirtualBox/VirtualBox.xml"
00:02:17.974456 nspr-4   Saving settings file "/home/marcus/.config/VirtualBox/VirtualBox.xml" with version "1.12-linux"
00:02:18.822133 nspr-4   Finished saving settings file "/home/marcus/.config/VirtualBox/VirtualBox.xml"
00:02:18.986155 nspr-6   Saving settings file "/home/marcus/.config/VirtualBox/VirtualBox.xml" with version "1.12-linux"
00:02:19.623324 nspr-6   Finished saving settings file "/home/marcus/.config/VirtualBox/VirtualBox.xml"
00:02:20.000839 nspr-2   Saving settings file "/home/marcus/VirtualBox VMs/Windows 11/Windows 11.vbox" with version "1.19-linux"
00:02:20.807905 nspr-2   Finished saving settings file "/home/marcus/VirtualBox VMs/Windows 11/Windows 11.vbox"
00:02:20.870220 nspr-2   Saving settings file "/home/marcus/.config/VirtualBox/VirtualBox.xml" with version "1.12-linux"
00:02:22.026146 nspr-2   Finished saving settings file "/home/marcus/.config/VirtualBox/VirtualBox.xml"
00:02:22.065423 nspr-2   ERROR [COM]: aRC=VBOX_E_INVALID_VM_STATE (0x80bb0002) aIID={300763af-5d6b-46e6-aa96-273eac15538a} aComponent={MachineWrap} aText={The machine is not mutable (state is PoweredOff)}, preserve=false aResultDetail=0
00:02:38.105994 nspr-3   Launched VM: 3019914960 pid: 88462 (0x1598e) frontend: GUI/Qt name: Windows 11
00:02:38.154076 nspr-2   ERROR [COM]: aRC=VBOX_E_INVALID_VM_STATE (0x80bb0002) aIID={300763af-5d6b-46e6-aa96-273eac15538a} aComponent={MachineWrap} aText={The machine is not mutable (state is PoweredOff)}, preserve=false aResultDetail=0
00:02:38.959909 nspr-7   ERROR [COM]: aRC=VBOX_E_INVALID_VM_STATE (0x80bb0002) aIID={300763af-5d6b-46e6-aa96-273eac15538a} aComponent={MachineWrap} aText={The machine is not mutable (state is PoweredOff)}, preserve=false aResultDetail=0
00:02:39.419993 nspr-8   ERROR [COM]: aRC=VBOX_E_OBJECT_NOT_FOUND (0x80bb0001) aIID={70401eef-c8e9-466b-9660-45cb3e9979e4} aComponent={ExtPackManagerWrap} aText={No extension pack by the name 'Oracle VM VirtualBox Extension Pack' was found}, preserve=false aResultDetail=0
00:02:40.056542 nspr-8   ERROR [COM]: aRC=VBOX_E_IPRT_ERROR (0x80bb0005) aIID={300763af-5d6b-46e6-aa96-273eac15538a} aComponent={SessionMachine} aText={Saved screenshot data is not available (VERR_NOT_SUPPORTED)}, preserve=false aResultDetail=-37
00:02:40.824084 nspr-8   NetIfAdpCtlOut: VBoxNetAdpCtl: Error while retrieving link speed for wlp3s0: VBoxNetAdpCtl: ioctl failed: Operation not supported
00:02:41.125747 nspr-5   Saving settings file "/home/marcus/.config/VirtualBox/VirtualBox.xml" with version "1.12-linux"
00:02:42.245481 nspr-3   ERROR [COM]: aRC=VBOX_E_INVALID_VM_STATE (0x80bb0002) aIID={300763af-5d6b-46e6-aa96-273eac15538a} aComponent={SessionMachine} aText={The machine is not mutable or saved (state is Starting)}, preserve=false aResultDetail=0
00:02:42.251264 nspr-3   Saving settings file "/home/marcus/VirtualBox VMs/Windows 11/Windows 11.vbox" with version "1.19-linux"
00:02:43.036203 nspr-5   Finished saving settings file "/home/marcus/.config/VirtualBox/VirtualBox.xml"
00:02:43.964858 nspr-3   Finished saving settings file "/home/marcus/VirtualBox VMs/Windows 11/Windows 11.vbox"
00:02:44.003250 nspr-2   ERROR [COM]: aRC=VBOX_E_INVALID_VM_STATE (0x80bb0002) aIID={300763af-5d6b-46e6-aa96-273eac15538a} aComponent={MachineWrap} aText={The machine is not mutable (state is Starting)}, preserve=false aResultDetail=0
00:02:44.458031 nspr-2   Saving settings file "/home/marcus/VirtualBox VMs/Windows 11/Windows 11.vbox" with version "1.19-linux"
00:02:45.386896 nspr-2   Finished saving settings file "/home/marcus/VirtualBox VMs/Windows 11/Windows 11.vbox"
00:02:45.403949 nspr-9   ERROR [COM]: aRC=VBOX_E_INVALID_VM_STATE (0x80bb0002) aIID={300763af-5d6b-46e6-aa96-273eac15538a} aComponent={MachineWrap} aText={The machine is not mutable (state is Starting)}, preserve=false aResultDetail=0
00:02:47.368539 nspr-9   ERROR [COM]: aRC=VBOX_E_OBJECT_NOT_FOUND (0x80bb0001) aIID={ad47ad09-787b-44ab-b343-a082a3f2dfb1} aComponent={MediumWrap} aText={Property 'CRYPT/KeyId' does not exist}, preserve=false aResultDetail=0
00:02:47.372043 nspr-2   ERROR [COM]: aRC=VBOX_E_OBJECT_NOT_FOUND (0x80bb0001) aIID={ad47ad09-787b-44ab-b343-a082a3f2dfb1} aComponent={MediumWrap} aText={Property 'CRYPT/KeyId' does not exist}, preserve=false aResultDetail=0
00:02:47.854313 nspr-6   ERROR [COM]: aRC=VBOX_E_INVALID_VM_STATE (0x80bb0002) aIID={300763af-5d6b-46e6-aa96-273eac15538a} aComponent={MachineWrap} aText={The machine is not mutable (state is Running)}, preserve=false aResultDetail=0
00:02:55.326260 nspr-3   ERROR [COM]: aRC=VBOX_E_INVALID_VM_STATE (0x80bb0002) aIID={300763af-5d6b-46e6-aa96-273eac15538a} aComponent={MachineWrap} aText={The machine is not mutable (state is Paused)}, preserve=false aResultDetail=0
00:02:57.656667 nspr-9   Saving settings file "/home/marcus/VirtualBox VMs/Windows 11/Windows 11.vbox" with version "1.19-linux"
00:02:58.607126 nspr-9   Finished saving settings file "/home/marcus/VirtualBox VMs/Windows 11/Windows 11.vbox"
00:02:58.678951 nspr-7   ERROR [COM]: aRC=VBOX_E_INVALID_VM_STATE (0x80bb0002) aIID={300763af-5d6b-46e6-aa96-273eac15538a} aComponent={MachineWrap} aText={The machine is not mutable (state is Stopping)}, preserve=false aResultDetail=0
00:02:58.690867 nspr-4   Saving settings file "/home/marcus/VirtualBox VMs/Windows 11/Windows 11.vbox" with version "1.19-linux"
00:02:59.423137 nspr-4   Finished saving settings file "/home/marcus/VirtualBox VMs/Windows 11/Windows 11.vbox"
00:02:59.445445 nspr-2   ERROR [COM]: aRC=VBOX_E_INVALID_VM_STATE (0x80bb0002) aIID={300763af-5d6b-46e6-aa96-273eac15538a} aComponent={MachineWrap} aText={The machine is not mutable (state is PoweredOff)}, preserve=false aResultDetail=0
00:03:00.280615 nspr-7   ERROR [COM]: aRC=VBOX_E_INVALID_VM_STATE (0x80bb0002) aIID={300763af-5d6b-46e6-aa96-273eac15538a} aComponent={MachineWrap} aText={The machine is not mutable (state is PoweredOff)}, preserve=false aResultDetail=0
00:03:00.532243 nspr-5   Saving settings file "/home/marcus/.config/VirtualBox/VirtualBox.xml" with version "1.12-linux"
00:03:01.503238 nspr-5   Finished saving settings file "/home/marcus/.config/VirtualBox/VirtualBox.xml"
00:03:03.991398 nspr-4   NvramStore: Loading 'TpmEmuTpms/permall' from archive
00:03:03.991413 nspr-4   NvramStore: Loading 'efi/nvram' from archive
00:03:04.160992 nspr-7   NetIfAdpCtlOut: VBoxNetAdpCtl: Error while retrieving link speed for wlp3s0: VBoxNetAdpCtl: ioctl failed: Operation not supported
00:03:04.177084 nspr-9   NetIfAdpCtlOut: VBoxNetAdpCtl: Error while retrieving link speed for wlp3s0: VBoxNetAdpCtl: ioctl failed: Operation not supported
00:03:04.231851 nspr-2   ERROR [COM]: aRC=VBOX_E_INVALID_VM_STATE (0x80bb0002) aIID={300763af-5d6b-46e6-aa96-273eac15538a} aComponent={MachineWrap} aText={The machine is not mutable (state is PoweredOff)}, preserve=false aResultDetail=0
00:03:04.246906 nspr-5   ERROR [COM]: aRC=VBOX_E_INVALID_VM_STATE (0x80bb0002) aIID={300763af-5d6b-46e6-aa96-273eac15538a} aComponent={MachineWrap} aText={The machine is not mutable (state is PoweredOff)}, preserve=false aResultDetail=0
00:03:04.420366 nspr-4   Saving settings file "/home/marcus/.config/VirtualBox/VirtualBox.xml" with version "1.12-linux"
00:03:05.172303 nspr-4   Finished saving settings file "/home/marcus/.config/VirtualBox/VirtualBox.xml"
00:03:33.765951 nspr-2   Saving settings file "/home/marcus/VirtualBox VMs/Windows 11/Windows 11.vbox" with version "1.19-linux"
00:03:35.041945 nspr-2   Finished saving settings file "/home/marcus/VirtualBox VMs/Windows 11/Windows 11.vbox"
00:03:35.161157 nspr-7   ERROR [COM]: aRC=VBOX_E_INVALID_VM_STATE (0x80bb0002) aIID={300763af-5d6b-46e6-aa96-273eac15538a} aComponent={MachineWrap} aText={The machine is not mutable (state is PoweredOff)}, preserve=false aResultDetail=0
00:03:35.425014 nspr-8   Saving settings file "/home/marcus/.config/VirtualBox/VirtualBox.xml" with version "1.12-linux"
00:03:36.479571 nspr-8   Finished saving settings file "/home/marcus/.config/VirtualBox/VirtualBox.xml"
00:03:37.506243 nspr-5   Launched VM: 2550207136 pid: 88637 (0x15a3d) frontend: GUI/Qt name: Windows 11
00:03:37.536406 nspr-10  ERROR [COM]: aRC=VBOX_E_INVALID_VM_STATE (0x80bb0002) aIID={300763af-5d6b-46e6-aa96-273eac15538a} aComponent={MachineWrap} aText={The machine is not mutable (state is PoweredOff)}, preserve=false aResultDetail=0
00:03:37.720236 nspr-9   ERROR [COM]: aRC=VBOX_E_INVALID_VM_STATE (0x80bb0002) aIID={300763af-5d6b-46e6-aa96-273eac15538a} aComponent={MachineWrap} aText={The machine is not mutable (state is PoweredOff)}, preserve=false aResultDetail=0
00:03:38.225577 nspr-2   ERROR [COM]: aRC=VBOX_E_OBJECT_NOT_FOUND (0x80bb0001) aIID={70401eef-c8e9-466b-9660-45cb3e9979e4} aComponent={ExtPackManagerWrap} aText={No extension pack by the name 'Oracle VM VirtualBox Extension Pack' was found}, preserve=false aResultDetail=0
00:03:38.284458 nspr-5   ERROR [COM]: aRC=VBOX_E_IPRT_ERROR (0x80bb0005) aIID={300763af-5d6b-46e6-aa96-273eac15538a} aComponent={SessionMachine} aText={Saved screenshot data is not available (VERR_NOT_SUPPORTED)}, preserve=false aResultDetail=-37
00:03:38.317956 nspr-2   NetIfAdpCtlOut: VBoxNetAdpCtl: Error while retrieving link speed for wlp3s0: VBoxNetAdpCtl: ioctl failed: Operation not supported
00:03:38.905560 nspr-2   Saving settings file "/home/marcus/VirtualBox VMs/Windows 11/Windows 11.vbox" with version "1.19-linux"
00:03:39.838116 nspr-2   Finished saving settings file "/home/marcus/VirtualBox VMs/Windows 11/Windows 11.vbox"
00:03:39.981646 nspr-9   ERROR [COM]: aRC=VBOX_E_OBJECT_NOT_FOUND (0x80bb0001) aIID={ad47ad09-787b-44ab-b343-a082a3f2dfb1} aComponent={MediumWrap} aText={Property 'CRYPT/KeyId' does not exist}, preserve=false aResultDetail=0
00:03:39.982822 nspr-7   ERROR [COM]: aRC=VBOX_E_OBJECT_NOT_FOUND (0x80bb0001) aIID={ad47ad09-787b-44ab-b343-a082a3f2dfb1} aComponent={MediumWrap} aText={Property 'CRYPT/KeyId' does not exist}, preserve=false aResultDetail=0
00:03:40.137574 nspr-4   Saving settings file "/home/marcus/VirtualBox VMs/Windows 11/Windows 11.vbox" with version "1.19-linux"
00:03:41.279632 nspr-4   Finished saving settings file "/home/marcus/VirtualBox VMs/Windows 11/Windows 11.vbox"
00:03:41.622295 nspr-10  Saving settings file "/home/marcus/.config/VirtualBox/VirtualBox.xml" with version "1.12-linux"
00:03:42.104530 nspr-10  Finished saving settings file "/home/marcus/.config/VirtualBox/VirtualBox.xml"
00:03:42.181874 nspr-8   ERROR [COM]: aRC=VBOX_E_INVALID_VM_STATE (0x80bb0002) aIID={300763af-5d6b-46e6-aa96-273eac15538a} aComponent={MachineWrap} aText={The machine is not mutable (state is Running)}, preserve=false aResultDetail=0
00:03:54.124693 nspr-6   Saving settings file "/home/marcus/.config/VirtualBox/VirtualBox.xml" with version "1.12-linux"
00:03:54.615610 nspr-10  Saving settings file "/home/marcus/VirtualBox VMs/Windows 11/Windows 11.vbox" with version "1.19-linux"
00:03:55.175720 nspr-6   Finished saving settings file "/home/marcus/.config/VirtualBox/VirtualBox.xml"
00:03:55.695456 nspr-10  Finished saving settings file "/home/marcus/VirtualBox VMs/Windows 11/Windows 11.vbox"
00:03:55.771101 nspr-2   ERROR [COM]: aRC=VBOX_E_INVALID_VM_STATE (0x80bb0002) aIID={300763af-5d6b-46e6-aa96-273eac15538a} aComponent={MachineWrap} aText={The machine is not mutable (state is Running)}, preserve=false aResultDetail=0
00:03:58.729148 nspr-4   Saving settings file "/home/marcus/VirtualBox VMs/Windows 11/Windows 11.vbox" with version "1.19-linux"
00:03:59.914522 nspr-4   Finished saving settings file "/home/marcus/VirtualBox VMs/Windows 11/Windows 11.vbox"
00:03:59.962920 nspr-9   ERROR [COM]: aRC=VBOX_E_INVALID_VM_STATE (0x80bb0002) aIID={300763af-5d6b-46e6-aa96-273eac15538a} aComponent={MachineWrap} aText={The machine is not mutable (state is Running)}, preserve=false aResultDetail=0
00:50:59.629144 nspr-4   Saving settings file "/home/marcus/VirtualBox VMs/Windows 11/Windows 11.vbox" with version "1.19-linux"
00:51:00.875588 nspr-4   Finished saving settings file "/home/marcus/VirtualBox VMs/Windows 11/Windows 11.vbox"
00:51:00.922350 nspr-7   ERROR [COM]: aRC=VBOX_E_INVALID_VM_STATE (0x80bb0002) aIID={300763af-5d6b-46e6-aa96-273eac15538a} aComponent={MachineWrap} aText={The machine is not mutable (state is Running)}, preserve=false aResultDetail=0
00:52:24.170830 nspr-10  ERROR [COM]: aRC=VBOX_E_INVALID_VM_STATE (0x80bb0002) aIID={300763af-5d6b-46e6-aa96-273eac15538a} aComponent={MachineWrap} aText={The machine is not mutable (state is Paused)}, preserve=false aResultDetail=0
00:52:25.554161 nspr-6   ERROR [COM]: aRC=VBOX_E_INVALID_VM_STATE (0x80bb0002) aIID={300763af-5d6b-46e6-aa96-273eac15538a} aComponent={MachineWrap} aText={The machine is not mutable (state is Stopping)}, preserve=false aResultDetail=0
00:52:25.733037 nspr-10  Saving settings file "/home/marcus/VirtualBox VMs/Windows 11/Windows 11.vbox" with version "1.19-linux"
00:52:26.893677 nspr-10  Finished saving settings file "/home/marcus/VirtualBox VMs/Windows 11/Windows 11.vbox"
00:52:26.911218 nspr-5   ERROR [COM]: aRC=VBOX_E_INVALID_VM_STATE (0x80bb0002) aIID={300763af-5d6b-46e6-aa96-273eac15538a} aComponent={MachineWrap} aText={The machine is not mutable (state is PoweredOff)}, preserve=false aResultDetail=0
00:52:28.283003 nspr-2   ERROR [COM]: aRC=VBOX_E_INVALID_VM_STATE (0x80bb0002) aIID={300763af-5d6b-46e6-aa96-273eac15538a} aComponent={MachineWrap} aText={The machine is not mutable (state is PoweredOff)}, preserve=false aResultDetail=0
00:52:31.715298 nspr-2   Saving settings file "/home/marcus/.config/VirtualBox/VirtualBox.xml" with version "1.12-linux"
00:52:32.818081 nspr-2   Finished saving settings file "/home/marcus/.config/VirtualBox/VirtualBox.xml"
00:52:41.984015 main     VirtualBox: object deletion starts
00:52:41.984058 main     ERROR [COM]: aRC=VBOX_E_OBJECT_IN_USE (0x80bb000c) aIID={ad47ad09-787b-44ab-b343-a082a3f2dfb1} aComponent={MediumWrap} aText={Medium '/home/marcus/VirtualBox VMs/HACKME/mrRobot-disk1.vdi' cannot be closed because it is still attached to 1 virtual machines}, preserve=false aResultDetail=0
00:52:41.984263 main     ERROR [COM]: aRC=VBOX_E_OBJECT_IN_USE (0x80bb000c) aIID={ad47ad09-787b-44ab-b343-a082a3f2dfb1} aComponent={MediumWrap} aText={Medium '/home/marcus/i/InstallationMedia/kali-linux-2023.1-virtualbox-amd64/kali-linux-2023.1-virtualbox-amd64.vdi' cannot be closed because it is still attached to 1 virtual machines}, preserve=false aResultDetail=0
00:52:41.984408 main     ERROR [COM]: aRC=VBOX_E_OBJECT_IN_USE (0x80bb000c) aIID={ad47ad09-787b-44ab-b343-a082a3f2dfb1} aComponent={MediumWrap} aText={Medium '/home/marcus/VirtualBox VMs/win7-pro_64-bit/win7-pro_64-bit.vdi' cannot be closed because it is still attached to 1 virtual machines}, preserve=false aResultDetail=0
00:52:41.984508 main     ERROR [COM]: aRC=VBOX_E_OBJECT_IN_USE (0x80bb000c) aIID={ad47ad09-787b-44ab-b343-a082a3f2dfb1} aComponent={MediumWrap} aText={Medium '/home/marcus/VirtualBox VMs/test_install_script/test_install_script.vdi' cannot be closed because it is still attached to 1 virtual machines}, preserve=false aResultDetail=0
00:52:41.984651 main     ERROR [COM]: aRC=VBOX_E_OBJECT_IN_USE (0x80bb000c) aIID={ad47ad09-787b-44ab-b343-a082a3f2dfb1} aComponent={MediumWrap} aText={Medium '/home/marcus/VirtualBox VMs/Android/Android.vdi' cannot be closed because it is still attached to 1 virtual machines}, preserve=false aResultDetail=0
00:52:41.984792 main     ERROR [COM]: aRC=VBOX_E_OBJECT_IN_USE (0x80bb000c) aIID={ad47ad09-787b-44ab-b343-a082a3f2dfb1} aComponent={MediumWrap} aText={Medium '/home/marcus/VirtualBox VMs/Windows 11/Windows 11.vdi' cannot be closed because it is still attached to 1 virtual machines}, preserve=false aResultDetail=0
00:52:41.985436 main     HostDnsMonitor: shutting down ...
00:52:41.985524 main     HostDnsMonitor: shut down
00:52:42.000803 Watcher  ERROR [COM]: aRC=E_ACCESSDENIED (0x80070005) aIID={7682d5eb-f00e-44f1-8ca2-99d08b1cd607} aComponent={VirtualBoxWrap} aText={The object is not ready}, preserve=false aResultDetail=0
00:52:42.000868 main     VirtualBox: object deleted
