00:00:00.131295 main     VirtualBox XPCOM Server 7.0.8 r156879 linux.amd64 (Apr 18 2023 21:49:14) release log
00:00:00.131300 main     Log opened 2023-06-24T20:11:05.191455000Z
00:00:00.131301 main     Build Type: release
00:00:00.131306 main     OS Product: Linux
00:00:00.131309 main     OS Release: 6.1.35-1-lts
00:00:00.131311 main     OS Version: #1 SMP PREEMPT_DYNAMIC Wed, 21 Jun 2023 15:54:02 +0000
00:00:00.131354 main     DMI Product Name: Inspiron 3668
00:00:00.131374 main     DMI Product Version: 
00:00:00.131383 main     Firmware type: UEFI
00:00:00.131809 main     Secure Boot: Disabled
00:00:00.131889 main     Host RAM: 15906MB (15.5GB) total, 15389MB (15.0GB) available
00:00:00.131896 main     Executable: /usr/lib/virtualbox/VBoxSVC
00:00:00.131897 main     Process ID: 1062
00:00:00.131898 main     Package type: LINUX_64BITS_GENERIC (OSE)
00:00:00.135073 main     IPC socket path: /tmp/.vbox-marcus-ipc/ipcd
00:00:00.289960 nspr-2   VirtualBox: object creation starts
00:00:00.313629 nspr-2   Home directory: '/home/marcus/.config/VirtualBox'
00:00:00.341166 nspr-2   Loading settings file "/home/marcus/.config/VirtualBox/VirtualBox.xml" with version "1.12-linux"
00:00:00.403916 nspr-2   Successfully initialised host USB using sysfs
00:00:00.465385 nspr-2   NetIfAdpCtlOut: VBoxNetAdpCtl: Error while retrieving link speed for wlp3s0: VBoxNetAdpCtl: ioctl failed: Operation not supported
00:00:00.466127 nspr-2   HostDnsMonitor: initializing
00:00:00.466356 nspr-2   NAT: resolv.conf: nameserver 108.166.149.2
00:00:00.466363 nspr-2   NAT: resolv.conf: nameserver 108.166.149.3
00:00:00.466366 nspr-2   NAT: resolv.conf: nameserver 2607:fdc8:c::2
00:00:00.466368 nspr-2   NAT: resolv.conf: too many nameserver lines, ignoring 2607:fdc8:c::3
00:00:00.466374 nspr-2   HostDnsMonitor: updating information
00:00:00.466381 nspr-2   HostDnsMonitor: old information
00:00:00.466382 nspr-2     no server entries
00:00:00.466384 nspr-2     no domain set
00:00:00.466385 nspr-2     no search string entries
00:00:00.466387 nspr-2   HostDnsMonitor: new information
00:00:00.466388 nspr-2     server 1: 108.166.149.2
00:00:00.466390 nspr-2     server 2: 108.166.149.3
00:00:00.466392 nspr-2     server 3: 2607:fdc8:c::2
00:00:00.466393 nspr-2     no domain set
00:00:00.466395 nspr-2     no search string entries
00:00:00.519936 nspr-2   VD: VDInit finished with VINF_SUCCESS
00:00:00.526964 nspr-2   ERROR [COM]: aRC=NS_ERROR_FAILURE (0x80004005) aIID={aac6c7cb-a371-4c58-ab51-0616896b2f2c} aComponent={SystemPropertiesWrap} aText={Cannot determine default Guest Additions ISO location. Most likely they are not available}, preserve=false aResultDetail=0
00:00:00.676327 nspr-2   Loading settings file "/home/marcus/VirtualBox VMs/HACKME/HACKME.vbox" with version "1.19-linux"
00:00:00.738743 nspr-2   Loading settings file "/home/marcus/i/InstallationMedia/kali-linux-2023.1-virtualbox-amd64/kali-linux-2023.1-virtualbox-amd64.vbox" with version "1.19-linux"
00:00:00.749328 nspr-2   Loading settings file "/home/marcus/VirtualBox VMs/win7-pro_64-bit/win7-pro_64-bit.vbox" with version "1.19-linux"
00:00:00.751149 nspr-2   VirtualBox: object created
00:00:03.038439 nspr-5   ERROR [COM]: aRC=VBOX_E_INVALID_VM_STATE (0x80bb0002) aIID={300763af-5d6b-46e6-aa96-273eac15538a} aComponent={MachineWrap} aText={The machine is not mutable (state is PoweredOff)}, preserve=false aResultDetail=0
00:00:03.249119 nspr-5   Saving settings file "/home/marcus/.config/VirtualBox/VirtualBox.xml" with version "1.12-linux"
00:00:03.417273 nspr-5   Finished saving settings file "/home/marcus/.config/VirtualBox/VirtualBox.xml"
00:00:05.102745 nspr-5   Launched VM: 2214613104 pid: 1100 (0x44c) frontend: GUI/Qt name: win7-pro_64-bit
00:00:05.144687 nspr-3   ERROR [COM]: aRC=VBOX_E_INVALID_VM_STATE (0x80bb0002) aIID={300763af-5d6b-46e6-aa96-273eac15538a} aComponent={MachineWrap} aText={The machine is not mutable (state is PoweredOff)}, preserve=false aResultDetail=0
00:00:05.433966 nspr-3   ERROR [COM]: aRC=VBOX_E_INVALID_VM_STATE (0x80bb0002) aIID={300763af-5d6b-46e6-aa96-273eac15538a} aComponent={MachineWrap} aText={The machine is not mutable (state is PoweredOff)}, preserve=false aResultDetail=0
00:00:05.879118 nspr-5   ERROR [COM]: aRC=VBOX_E_OBJECT_NOT_FOUND (0x80bb0001) aIID={70401eef-c8e9-466b-9660-45cb3e9979e4} aComponent={ExtPackManagerWrap} aText={No extension pack by the name 'Oracle VM VirtualBox Extension Pack' was found}, preserve=false aResultDetail=0
00:00:05.991842 nspr-4   ERROR [COM]: aRC=VBOX_E_IPRT_ERROR (0x80bb0005) aIID={300763af-5d6b-46e6-aa96-273eac15538a} aComponent={SessionMachine} aText={Saved screenshot data is not available (VERR_NOT_SUPPORTED)}, preserve=false aResultDetail=-37
00:00:06.085663 nspr-7   NetIfAdpCtlOut: VBoxNetAdpCtl: Error while retrieving link speed for wlp3s0: VBoxNetAdpCtl: ioctl failed: Operation not supported
00:00:06.234251 nspr-2   ERROR [COM]: aRC=VBOX_E_INVALID_VM_STATE (0x80bb0002) aIID={300763af-5d6b-46e6-aa96-273eac15538a} aComponent={MachineWrap} aText={The machine is not mutable (state is Starting)}, preserve=false aResultDetail=0
00:00:06.356233 nspr-8   Saving settings file "/home/marcus/.config/VirtualBox/VirtualBox.xml" with version "1.12-linux"
00:00:06.411770 nspr-9   ERROR [COM]: aRC=VBOX_E_INVALID_VM_STATE (0x80bb0002) aIID={300763af-5d6b-46e6-aa96-273eac15538a} aComponent={SessionMachine} aText={The machine is not mutable or saved (state is Starting)}, preserve=false aResultDetail=0
00:00:06.418084 nspr-9   Saving settings file "/home/marcus/VirtualBox VMs/win7-pro_64-bit/win7-pro_64-bit.vbox" with version "1.19-linux"
00:00:06.623391 nspr-8   Finished saving settings file "/home/marcus/.config/VirtualBox/VirtualBox.xml"
00:00:06.708472 nspr-9   Finished saving settings file "/home/marcus/VirtualBox VMs/win7-pro_64-bit/win7-pro_64-bit.vbox"
00:00:06.760218 nspr-8   ERROR [COM]: aRC=VBOX_E_INVALID_VM_STATE (0x80bb0002) aIID={300763af-5d6b-46e6-aa96-273eac15538a} aComponent={MachineWrap} aText={The machine is not mutable (state is Starting)}, preserve=false aResultDetail=0
00:00:07.086331 nspr-2   Saving settings file "/home/marcus/VirtualBox VMs/win7-pro_64-bit/win7-pro_64-bit.vbox" with version "1.19-linux"
00:00:07.258393 nspr-2   Finished saving settings file "/home/marcus/VirtualBox VMs/win7-pro_64-bit/win7-pro_64-bit.vbox"
00:00:07.305472 nspr-9   ERROR [COM]: aRC=VBOX_E_INVALID_VM_STATE (0x80bb0002) aIID={300763af-5d6b-46e6-aa96-273eac15538a} aComponent={MachineWrap} aText={The machine is not mutable (state is Starting)}, preserve=false aResultDetail=0
00:00:07.403023 nspr-10  ERROR [COM]: aRC=VBOX_E_OBJECT_NOT_FOUND (0x80bb0001) aIID={ad47ad09-787b-44ab-b343-a082a3f2dfb1} aComponent={MediumWrap} aText={Property 'CRYPT/KeyId' does not exist}, preserve=false aResultDetail=0
00:00:07.405686 nspr-3   ERROR [COM]: aRC=VBOX_E_OBJECT_NOT_FOUND (0x80bb0001) aIID={ad47ad09-787b-44ab-b343-a082a3f2dfb1} aComponent={MediumWrap} aText={Property 'CRYPT/KeyId' does not exist}, preserve=false aResultDetail=0
00:00:07.519826 nspr-6   ERROR [COM]: aRC=VBOX_E_INVALID_VM_STATE (0x80bb0002) aIID={300763af-5d6b-46e6-aa96-273eac15538a} aComponent={MachineWrap} aText={The machine is not mutable (state is Running)}, preserve=false aResultDetail=0
00:00:25.356163 nspr-6   Saving settings file "/home/marcus/.config/VirtualBox/VirtualBox.xml" with version "1.12-linux"
00:00:25.375047 nspr-5   Saving settings file "/home/marcus/VirtualBox VMs/win7-pro_64-bit/win7-pro_64-bit.vbox" with version "1.19-linux"
00:00:25.465194 nspr-6   Finished saving settings file "/home/marcus/.config/VirtualBox/VirtualBox.xml"
00:00:25.496766 nspr-5   Finished saving settings file "/home/marcus/VirtualBox VMs/win7-pro_64-bit/win7-pro_64-bit.vbox"
00:00:25.529185 nspr-2   ERROR [COM]: aRC=VBOX_E_INVALID_VM_STATE (0x80bb0002) aIID={300763af-5d6b-46e6-aa96-273eac15538a} aComponent={MachineWrap} aText={The machine is not mutable (state is Running)}, preserve=false aResultDetail=0
00:00:31.730382 nspr-5   Saving settings file "/home/marcus/VirtualBox VMs/win7-pro_64-bit/win7-pro_64-bit.vbox" with version "1.19-linux"
00:00:31.812680 nspr-5   Finished saving settings file "/home/marcus/VirtualBox VMs/win7-pro_64-bit/win7-pro_64-bit.vbox"
00:00:31.853362 nspr-6   ERROR [COM]: aRC=VBOX_E_INVALID_VM_STATE (0x80bb0002) aIID={300763af-5d6b-46e6-aa96-273eac15538a} aComponent={MachineWrap} aText={The machine is not mutable (state is Running)}, preserve=false aResultDetail=0
00:00:41.885794 nspr-9   ERROR [COM]: aRC=VBOX_E_INVALID_VM_STATE (0x80bb0002) aIID={300763af-5d6b-46e6-aa96-273eac15538a} aComponent={MachineWrap} aText={The machine is not mutable (state is Paused)}, preserve=false aResultDetail=0
