00:00:00.126386 main     VirtualBox XPCOM Server 7.0.10 r158379 linux.amd64 (Aug 11 2023 12:19:51) release log
00:00:00.126390 main     Log opened 2023-10-13T03:49:10.615880000Z
00:00:00.126391 main     Build Type: release
00:00:00.126394 main     OS Product: Linux
00:00:00.126396 main     OS Release: 6.1.55-1-lts
00:00:00.126398 main     OS Version: #1 SMP PREEMPT_DYNAMIC Sat, 23 Sep 2023 16:57:15 +0000
00:00:00.126441 main     DMI Product Name: Inspiron 3668
00:00:00.126455 main     DMI Product Version: 
00:00:00.126462 main     Firmware type: UEFI
00:00:00.126789 main     Secure Boot: Disabled
00:00:00.126843 main     Host RAM: 15905MB (15.5GB) total, 13055MB (12.7GB) available
00:00:00.126847 main     Executable: /usr/lib/virtualbox/VBoxSVC
00:00:00.126848 main     Process ID: 474435
00:00:00.126848 main     Package type: LINUX_64BITS_GENERIC (OSE)
00:00:00.130121 main     IPC socket path: /tmp/.vbox-marcus-ipc/ipcd
00:00:00.308756 nspr-2   VirtualBox: object creation starts
00:00:00.329724 nspr-2   Home directory: '/home/marcus/.config/VirtualBox'
00:00:00.347447 nspr-2   Loading settings file "/home/marcus/.config/VirtualBox/VirtualBox.xml" with version "1.12-linux"
00:00:00.403761 nspr-2   Successfully initialised host USB using sysfs
00:00:00.475730 nspr-2   NetIfAdpCtlOut: VBoxNetAdpCtl: Error while retrieving link speed for wlp3s0: VBoxNetAdpCtl: ioctl failed: Operation not supported
00:00:00.477707 nspr-2   HostDnsMonitor: initializing
00:00:00.478075 nspr-2   NAT: resolv.conf: nameserver 185.228.168.10
00:00:00.478096 nspr-2   HostDnsMonitor: updating information
00:00:00.478133 nspr-2   HostDnsMonitor: old information
00:00:00.478141 nspr-2     no server entries
00:00:00.478145 nspr-2     no domain set
00:00:00.478149 nspr-2     no search string entries
00:00:00.478152 nspr-2   HostDnsMonitor: new information
00:00:00.478156 nspr-2     server 1: 185.228.168.10
00:00:00.478160 nspr-2     no domain set
00:00:00.478164 nspr-2     no search string entries
00:00:00.514529 nspr-2   VD: VDInit finished with VINF_SUCCESS
00:00:00.655951 nspr-2   ERROR [COM]: aRC=NS_ERROR_FAILURE (0x80004005) aIID={aac6c7cb-a371-4c58-ab51-0616896b2f2c} aComponent={SystemPropertiesWrap} aText={Cannot determine default Guest Additions ISO location. Most likely they are not available}, preserve=false aResultDetail=0
00:00:00.682958 nspr-2   Loading settings file "/home/marcus/VirtualBox VMs/HACKME/HACKME.vbox" with version "1.19-linux"
00:00:00.750399 nspr-2   Loading settings file "/home/marcus/i/InstallationMedia/kali-linux-2023.1-virtualbox-amd64/kali-linux-2023.1-virtualbox-amd64.vbox" with version "1.19-linux"
00:00:00.765867 nspr-2   Loading settings file "/home/marcus/VirtualBox VMs/win7-pro_64-bit/win7-pro_64-bit.vbox" with version "1.19-linux"
00:00:00.786827 nspr-2   Loading settings file "/home/marcus/VirtualBox VMs/test_install_script/test_install_script.vbox" with version "1.19-linux"
00:00:00.793351 nspr-2   Loading settings file "/home/marcus/VirtualBox VMs/Android/Android.vbox" with version "1.19-linux"
00:00:00.805618 nspr-2   Loading settings file "/home/marcus/VirtualBox VMs/Windows 11/Windows 11.vbox" with version "1.19-linux"
00:00:00.817847 nspr-2   VirtualBox: object created
00:00:03.409339 nspr-6   ERROR [COM]: aRC=VBOX_E_INVALID_VM_STATE (0x80bb0002) aIID={300763af-5d6b-46e6-aa96-273eac15538a} aComponent={MachineWrap} aText={The machine is not mutable (state is PoweredOff)}, preserve=false aResultDetail=0
00:00:03.677303 nspr-3   Saving settings file "/home/marcus/.config/VirtualBox/VirtualBox.xml" with version "1.12-linux"
00:00:03.927136 nspr-3   Finished saving settings file "/home/marcus/.config/VirtualBox/VirtualBox.xml"
00:00:15.595291 nspr-4   Launched VM: 2483034896 pid: 474481 (0x73d71) frontend: GUI/Qt name: Windows 11
00:00:15.637612 nspr-2   ERROR [COM]: aRC=VBOX_E_INVALID_VM_STATE (0x80bb0002) aIID={300763af-5d6b-46e6-aa96-273eac15538a} aComponent={MachineWrap} aText={The machine is not mutable (state is PoweredOff)}, preserve=false aResultDetail=0
00:00:16.050973 nspr-5   ERROR [COM]: aRC=VBOX_E_INVALID_VM_STATE (0x80bb0002) aIID={300763af-5d6b-46e6-aa96-273eac15538a} aComponent={MachineWrap} aText={The machine is not mutable (state is PoweredOff)}, preserve=false aResultDetail=0
00:00:16.525024 nspr-6   ERROR [COM]: aRC=VBOX_E_OBJECT_NOT_FOUND (0x80bb0001) aIID={70401eef-c8e9-466b-9660-45cb3e9979e4} aComponent={ExtPackManagerWrap} aText={No extension pack by the name 'Oracle VM VirtualBox Extension Pack' was found}, preserve=false aResultDetail=0
00:00:16.624108 nspr-7   ERROR [COM]: aRC=VBOX_E_IPRT_ERROR (0x80bb0005) aIID={300763af-5d6b-46e6-aa96-273eac15538a} aComponent={SessionMachine} aText={Saved screenshot data is not available (VERR_NOT_SUPPORTED)}, preserve=false aResultDetail=-37
00:00:16.815864 nspr-7   NetIfAdpCtlOut: VBoxNetAdpCtl: Error while retrieving link speed for wlp3s0: VBoxNetAdpCtl: ioctl failed: Operation not supported
00:00:17.070005 nspr-4   ERROR [COM]: aRC=VBOX_E_INVALID_VM_STATE (0x80bb0002) aIID={300763af-5d6b-46e6-aa96-273eac15538a} aComponent={MachineWrap} aText={The machine is not mutable (state is Starting)}, preserve=false aResultDetail=0
00:00:17.094989 nspr-4   ERROR [COM]: aRC=VBOX_E_INVALID_VM_STATE (0x80bb0002) aIID={300763af-5d6b-46e6-aa96-273eac15538a} aComponent={SessionMachine} aText={The machine is not mutable or saved (state is Starting)}, preserve=false aResultDetail=0
00:00:17.098572 nspr-3   Saving settings file "/home/marcus/VirtualBox VMs/Windows 11/Windows 11.vbox" with version "1.19-linux"
00:00:17.506525 nspr-3   Finished saving settings file "/home/marcus/VirtualBox VMs/Windows 11/Windows 11.vbox"
00:00:17.567355 nspr-9   ERROR [COM]: aRC=VBOX_E_INVALID_VM_STATE (0x80bb0002) aIID={300763af-5d6b-46e6-aa96-273eac15538a} aComponent={MachineWrap} aText={The machine is not mutable (state is Starting)}, preserve=false aResultDetail=0
00:00:17.910391 nspr-5   Saving settings file "/home/marcus/VirtualBox VMs/Windows 11/Windows 11.vbox" with version "1.19-linux"
00:00:18.360936 nspr-5   Finished saving settings file "/home/marcus/VirtualBox VMs/Windows 11/Windows 11.vbox"
00:00:18.398009 nspr-4   ERROR [COM]: aRC=VBOX_E_INVALID_VM_STATE (0x80bb0002) aIID={300763af-5d6b-46e6-aa96-273eac15538a} aComponent={MachineWrap} aText={The machine is not mutable (state is Starting)}, preserve=false aResultDetail=0
00:00:18.681989 nspr-2   Saving settings file "/home/marcus/VirtualBox VMs/Windows 11/Windows 11.vbox" with version "1.19-linux"
00:00:19.227545 nspr-2   Finished saving settings file "/home/marcus/VirtualBox VMs/Windows 11/Windows 11.vbox"
00:00:19.284045 nspr-3   ERROR [COM]: aRC=VBOX_E_INVALID_VM_STATE (0x80bb0002) aIID={300763af-5d6b-46e6-aa96-273eac15538a} aComponent={MachineWrap} aText={The machine is not mutable (state is Starting)}, preserve=false aResultDetail=0
00:00:19.925673 nspr-2   ERROR [COM]: aRC=VBOX_E_OBJECT_NOT_FOUND (0x80bb0001) aIID={ad47ad09-787b-44ab-b343-a082a3f2dfb1} aComponent={MediumWrap} aText={Property 'CRYPT/KeyId' does not exist}, preserve=false aResultDetail=0
00:00:19.928326 nspr-7   ERROR [COM]: aRC=VBOX_E_OBJECT_NOT_FOUND (0x80bb0001) aIID={ad47ad09-787b-44ab-b343-a082a3f2dfb1} aComponent={MediumWrap} aText={Property 'CRYPT/KeyId' does not exist}, preserve=false aResultDetail=0
00:00:20.041757 nspr-7   ERROR [COM]: aRC=VBOX_E_INVALID_VM_STATE (0x80bb0002) aIID={300763af-5d6b-46e6-aa96-273eac15538a} aComponent={MachineWrap} aText={The machine is not mutable (state is Running)}, preserve=false aResultDetail=0
00:00:21.121412 nspr-5   Saving settings file "/home/marcus/VirtualBox VMs/Windows 11/Windows 11.vbox" with version "1.19-linux"
00:00:21.635591 nspr-5   Finished saving settings file "/home/marcus/VirtualBox VMs/Windows 11/Windows 11.vbox"
00:00:21.651901 nspr-9   ERROR [COM]: aRC=VBOX_E_INVALID_VM_STATE (0x80bb0002) aIID={300763af-5d6b-46e6-aa96-273eac15538a} aComponent={MachineWrap} aText={The machine is not mutable (state is Running)}, preserve=false aResultDetail=0
00:00:22.205025 nspr-5   Saving settings file "/home/marcus/VirtualBox VMs/Windows 11/Windows 11.vbox" with version "1.19-linux"
00:00:22.942329 nspr-5   Finished saving settings file "/home/marcus/VirtualBox VMs/Windows 11/Windows 11.vbox"
00:00:22.964714 nspr-6   ERROR [COM]: aRC=VBOX_E_INVALID_VM_STATE (0x80bb0002) aIID={300763af-5d6b-46e6-aa96-273eac15538a} aComponent={MachineWrap} aText={The machine is not mutable (state is Running)}, preserve=false aResultDetail=0
00:01:28.538099 nspr-7   ERROR [COM]: aRC=VBOX_E_INVALID_VM_STATE (0x80bb0002) aIID={300763af-5d6b-46e6-aa96-273eac15538a} aComponent={MachineWrap} aText={The machine is not mutable (state is Paused)}, preserve=false aResultDetail=0
00:01:31.552051 nspr-8   ERROR [COM]: aRC=VBOX_E_INVALID_VM_STATE (0x80bb0002) aIID={300763af-5d6b-46e6-aa96-273eac15538a} aComponent={MachineWrap} aText={The machine is not mutable (state is Stopping)}, preserve=false aResultDetail=0
00:01:31.751191 nspr-8   Saving settings file "/home/marcus/VirtualBox VMs/Windows 11/Windows 11.vbox" with version "1.19-linux"
00:01:32.912251 nspr-8   Finished saving settings file "/home/marcus/VirtualBox VMs/Windows 11/Windows 11.vbox"
00:01:32.956844 nspr-3   ERROR [COM]: aRC=VBOX_E_INVALID_VM_STATE (0x80bb0002) aIID={300763af-5d6b-46e6-aa96-273eac15538a} aComponent={MachineWrap} aText={The machine is not mutable (state is PoweredOff)}, preserve=false aResultDetail=0
00:01:33.792509 nspr-6   ERROR [COM]: aRC=VBOX_E_INVALID_VM_STATE (0x80bb0002) aIID={300763af-5d6b-46e6-aa96-273eac15538a} aComponent={MachineWrap} aText={The machine is not mutable (state is PoweredOff)}, preserve=false aResultDetail=0
00:01:40.613126 main     VirtualBox: object deletion starts
00:01:40.613177 main     ERROR [COM]: aRC=VBOX_E_OBJECT_IN_USE (0x80bb000c) aIID={ad47ad09-787b-44ab-b343-a082a3f2dfb1} aComponent={MediumWrap} aText={Medium '/home/marcus/VirtualBox VMs/HACKME/mrRobot-disk1.vdi' cannot be closed because it is still attached to 1 virtual machines}, preserve=false aResultDetail=0
00:01:40.613397 main     ERROR [COM]: aRC=VBOX_E_OBJECT_IN_USE (0x80bb000c) aIID={ad47ad09-787b-44ab-b343-a082a3f2dfb1} aComponent={MediumWrap} aText={Medium '/home/marcus/i/InstallationMedia/kali-linux-2023.1-virtualbox-amd64/kali-linux-2023.1-virtualbox-amd64.vdi' cannot be closed because it is still attached to 1 virtual machines}, preserve=false aResultDetail=0
00:01:40.613537 main     ERROR [COM]: aRC=VBOX_E_OBJECT_IN_USE (0x80bb000c) aIID={ad47ad09-787b-44ab-b343-a082a3f2dfb1} aComponent={MediumWrap} aText={Medium '/home/marcus/VirtualBox VMs/win7-pro_64-bit/win7-pro_64-bit.vdi' cannot be closed because it is still attached to 1 virtual machines}, preserve=false aResultDetail=0
00:01:40.613653 main     ERROR [COM]: aRC=VBOX_E_OBJECT_IN_USE (0x80bb000c) aIID={ad47ad09-787b-44ab-b343-a082a3f2dfb1} aComponent={MediumWrap} aText={Medium '/home/marcus/VirtualBox VMs/test_install_script/test_install_script.vdi' cannot be closed because it is still attached to 1 virtual machines}, preserve=false aResultDetail=0
00:01:40.613780 main     ERROR [COM]: aRC=VBOX_E_OBJECT_IN_USE (0x80bb000c) aIID={ad47ad09-787b-44ab-b343-a082a3f2dfb1} aComponent={MediumWrap} aText={Medium '/home/marcus/VirtualBox VMs/Android/Android.vdi' cannot be closed because it is still attached to 1 virtual machines}, preserve=false aResultDetail=0
00:01:40.613892 main     ERROR [COM]: aRC=VBOX_E_OBJECT_IN_USE (0x80bb000c) aIID={ad47ad09-787b-44ab-b343-a082a3f2dfb1} aComponent={MediumWrap} aText={Medium '/home/marcus/VirtualBox VMs/Windows 11/Windows 11.vdi' cannot be closed because it is still attached to 1 virtual machines}, preserve=false aResultDetail=0
00:01:40.614465 main     HostDnsMonitor: shutting down ...
00:01:40.614686 main     HostDnsMonitor: shut down
00:01:40.625916 Watcher  ERROR [COM]: aRC=E_ACCESSDENIED (0x80070005) aIID={7682d5eb-f00e-44f1-8ca2-99d08b1cd607} aComponent={VirtualBoxWrap} aText={The object is not ready}, preserve=false aResultDetail=0
00:01:40.626060 main     VirtualBox: object deleted
