00:00:00.000217 main     VirtualBox XPCOM Server 7.0.8 r156879 linux.amd64 (Apr 18 2023 21:49:14) release log
00:00:00.000219 main     Log opened 2023-06-24T20:15:49.309676000Z
00:00:00.000219 main     Build Type: release
00:00:00.000224 main     OS Product: Linux
00:00:00.000224 main     OS Release: 6.1.35-1-lts
00:00:00.000225 main     OS Version: #1 SMP PREEMPT_DYNAMIC Wed, 21 Jun 2023 15:54:02 +0000
00:00:00.000240 main     DMI Product Name: Inspiron 3668
00:00:00.000246 main     DMI Product Version: 
00:00:00.000249 main     Firmware type: UEFI
00:00:00.000523 main     Secure Boot: Disabled
00:00:00.000549 main     Host RAM: 15906MB (15.5GB) total, 15289MB (14.9GB) available
00:00:00.000551 main     Executable: /usr/lib/virtualbox/VBoxSVC
00:00:00.000551 main     Process ID: 2321
00:00:00.000552 main     Package type: LINUX_64BITS_GENERIC (OSE)
00:00:00.001553 main     IPC socket path: /tmp/.vbox-marcus-ipc/ipcd
00:00:00.106229 nspr-2   VirtualBox: object creation starts
00:00:00.106409 nspr-2   Home directory: '/home/marcus/.config/VirtualBox'
00:00:00.106662 nspr-2   Loading settings file "/home/marcus/.config/VirtualBox/VirtualBox.xml" with version "1.12-linux"
00:00:00.109898 nspr-2   Successfully initialised host USB using sysfs
00:00:00.134793 nspr-2   NetIfAdpCtlOut: VBoxNetAdpCtl: Error while retrieving link speed for wlp3s0: VBoxNetAdpCtl: ioctl failed: Operation not supported
00:00:00.136832 nspr-2   HostDnsMonitor: initializing
00:00:00.137300 nspr-2   NAT: resolv.conf: nameserver 108.166.149.2
00:00:00.137319 nspr-2   NAT: resolv.conf: nameserver 108.166.149.3
00:00:00.137329 nspr-2   NAT: resolv.conf: nameserver 2607:fdc8:c::2
00:00:00.137341 nspr-2   NAT: resolv.conf: too many nameserver lines, ignoring 2607:fdc8:c::3
00:00:00.137363 nspr-2   HostDnsMonitor: updating information
00:00:00.137402 nspr-2   HostDnsMonitor: old information
00:00:00.137407 nspr-2     no server entries
00:00:00.137411 nspr-2     no domain set
00:00:00.137415 nspr-2     no search string entries
00:00:00.137419 nspr-2   HostDnsMonitor: new information
00:00:00.137423 nspr-2     server 1: 108.166.149.2
00:00:00.137428 nspr-2     server 2: 108.166.149.3
00:00:00.137432 nspr-2     server 3: 2607:fdc8:c::2
00:00:00.137437 nspr-2     no domain set
00:00:00.137440 nspr-2     no search string entries
00:00:00.141510 nspr-2   VD: VDInit finished with VINF_SUCCESS
00:00:00.141688 nspr-2   ERROR [COM]: aRC=NS_ERROR_FAILURE (0x80004005) aIID={aac6c7cb-a371-4c58-ab51-0616896b2f2c} aComponent={SystemPropertiesWrap} aText={Cannot determine default Guest Additions ISO location. Most likely they are not available}, preserve=false aResultDetail=0
00:00:00.142977 nspr-2   Loading settings file "/home/marcus/VirtualBox VMs/HACKME/HACKME.vbox" with version "1.19-linux"
00:00:00.143884 nspr-2   Loading settings file "/home/marcus/i/InstallationMedia/kali-linux-2023.1-virtualbox-amd64/kali-linux-2023.1-virtualbox-amd64.vbox" with version "1.19-linux"
00:00:00.144574 nspr-2   Loading settings file "/home/marcus/VirtualBox VMs/win7-pro_64-bit/win7-pro_64-bit.vbox" with version "1.19-linux"
00:00:00.145719 nspr-2   VirtualBox: object created
00:00:00.738088 nspr-3   ERROR [COM]: aRC=VBOX_E_INVALID_VM_STATE (0x80bb0002) aIID={300763af-5d6b-46e6-aa96-273eac15538a} aComponent={MachineWrap} aText={The machine is not mutable (state is PoweredOff)}, preserve=false aResultDetail=0
00:00:01.003235 nspr-3   Saving settings file "/home/marcus/.config/VirtualBox/VirtualBox.xml" with version "1.12-linux"
00:00:01.123977 nspr-3   Finished saving settings file "/home/marcus/.config/VirtualBox/VirtualBox.xml"
00:00:04.109638 nspr-3   ERROR [COM]: aRC=NS_ERROR_FAILURE (0x80004005) aIID={aac6c7cb-a371-4c58-ab51-0616896b2f2c} aComponent={SystemPropertiesWrap} aText={Cannot determine default Guest Additions ISO location. Most likely they are not available}, preserve=false aResultDetail=0
00:01:41.617975 nspr-4   Unattended: RTVfsQueryPathInfo(, '\OS2IMAGE/DISK_0/OS2LDR' (from OS2SE20.SRC),) -> VERR_PATH_NOT_FOUND, fMode=0x0
00:01:41.665171 nspr-4   Saving settings file "/home/marcus/.config/VirtualBox/VirtualBox.xml" with version "1.12-linux"
00:01:41.781550 nspr-4   Finished saving settings file "/home/marcus/.config/VirtualBox/VirtualBox.xml"
00:01:41.787817 nspr-2   Saving settings file "/home/marcus/.config/VirtualBox/VirtualBox.xml" with version "1.12-linux"
00:01:41.864872 nspr-2   Finished saving settings file "/home/marcus/.config/VirtualBox/VirtualBox.xml"
00:02:38.769838 nspr-3   Saving settings file "/home/marcus/.config/VirtualBox/VirtualBox.xml" with version "1.12-linux"
00:02:38.868118 nspr-3   Finished saving settings file "/home/marcus/.config/VirtualBox/VirtualBox.xml"
00:02:43.719874 nspr-2   Saving settings file "/home/marcus/.config/VirtualBox/VirtualBox.xml" with version "1.12-linux"
00:02:43.800965 nspr-2   Finished saving settings file "/home/marcus/.config/VirtualBox/VirtualBox.xml"
00:02:45.536242 nspr-2   Saving settings file "/home/marcus/.config/VirtualBox/VirtualBox.xml" with version "1.12-linux"
00:02:45.625700 nspr-2   Finished saving settings file "/home/marcus/.config/VirtualBox/VirtualBox.xml"
00:02:54.053785 nspr-4   Saving settings file "/home/marcus/.config/VirtualBox/VirtualBox.xml" with version "1.12-linux"
00:02:54.125023 nspr-4   Finished saving settings file "/home/marcus/.config/VirtualBox/VirtualBox.xml"
00:02:55.929385 nspr-3   Saving settings file "/home/marcus/.config/VirtualBox/VirtualBox.xml" with version "1.12-linux"
00:02:56.008016 nspr-3   Finished saving settings file "/home/marcus/.config/VirtualBox/VirtualBox.xml"
00:03:09.260888 nspr-2   Unattended: RTVfsQueryPathInfo(, '\OS2IMAGE/DISK_0/OS2LDR' (from OS2SE20.SRC),) -> VERR_PATH_NOT_FOUND, fMode=0x0
00:03:57.257792 createBase Saving settings file "/home/marcus/.config/VirtualBox/VirtualBox.xml" with version "1.12-linux"
00:03:57.346102 createBase Finished saving settings file "/home/marcus/.config/VirtualBox/VirtualBox.xml"
00:03:57.366716 nspr-3   Saving settings file "/home/marcus/VirtualBox VMs/test_install_script/test_install_script.vbox" with version "1.19-linux"
00:03:57.446042 nspr-3   Finished saving settings file "/home/marcus/VirtualBox VMs/test_install_script/test_install_script.vbox"
00:03:57.446268 nspr-3   Saving settings file "/home/marcus/.config/VirtualBox/VirtualBox.xml" with version "1.12-linux"
00:03:57.521157 nspr-3   Finished saving settings file "/home/marcus/.config/VirtualBox/VirtualBox.xml"
00:03:57.529776 nspr-5   Saving settings file "/home/marcus/.config/VirtualBox/VirtualBox.xml" with version "1.12-linux"
00:03:57.612734 nspr-5   Finished saving settings file "/home/marcus/.config/VirtualBox/VirtualBox.xml"
00:03:57.652238 nspr-4   Saving settings file "/home/marcus/.config/VirtualBox/VirtualBox.xml" with version "1.12-linux"
00:03:57.737739 nspr-4   Finished saving settings file "/home/marcus/.config/VirtualBox/VirtualBox.xml"
00:03:57.739659 nspr-4   Saving settings file "/home/marcus/VirtualBox VMs/test_install_script/test_install_script.vbox" with version "1.19-linux"
00:03:57.829391 nspr-4   Finished saving settings file "/home/marcus/VirtualBox VMs/test_install_script/test_install_script.vbox"
00:03:57.891863 nspr-4   Saving settings file "/home/marcus/.config/VirtualBox/VirtualBox.xml" with version "1.12-linux"
00:03:57.979224 nspr-4   Finished saving settings file "/home/marcus/.config/VirtualBox/VirtualBox.xml"
00:03:58.051265 nspr-2   ERROR [COM]: aRC=VBOX_E_INVALID_VM_STATE (0x80bb0002) aIID={300763af-5d6b-46e6-aa96-273eac15538a} aComponent={MachineWrap} aText={The machine is not mutable (state is PoweredOff)}, preserve=false aResultDetail=0
00:04:00.663664 nspr-2   ERROR [COM]: aRC=VBOX_E_OBJECT_NOT_FOUND (0x80bb0001) aIID={5bfd8965-b81b-469f-8649-f717ce97a5d5} aComponent={NvramStoreWrap} aText={The UEFI NVRAM file is not existing for this machine.}, preserve=false aResultDetail=0
00:04:00.689430 nspr-4   NetIfAdpCtlOut: VBoxNetAdpCtl: Error while retrieving link speed for wlp3s0: VBoxNetAdpCtl: ioctl failed: Operation not supported
00:04:00.700978 nspr-4   NetIfAdpCtlOut: VBoxNetAdpCtl: Error while retrieving link speed for wlp3s0: VBoxNetAdpCtl: ioctl failed: Operation not supported
00:04:00.897331 nspr-4   ERROR [COM]: aRC=VBOX_E_INVALID_VM_STATE (0x80bb0002) aIID={300763af-5d6b-46e6-aa96-273eac15538a} aComponent={MachineWrap} aText={The machine is not mutable (state is PoweredOff)}, preserve=false aResultDetail=0
00:04:01.180159 nspr-4   Saving settings file "/home/marcus/.config/VirtualBox/VirtualBox.xml" with version "1.12-linux"
00:04:01.253959 nspr-4   Finished saving settings file "/home/marcus/.config/VirtualBox/VirtualBox.xml"
00:04:29.408134 nspr-5   Saving settings file "/home/marcus/VirtualBox VMs/test_install_script/test_install_script.vbox" with version "1.19-linux"
00:04:29.518276 nspr-5   Finished saving settings file "/home/marcus/VirtualBox VMs/test_install_script/test_install_script.vbox"
00:04:29.628139 nspr-3   ERROR [COM]: aRC=VBOX_E_INVALID_VM_STATE (0x80bb0002) aIID={300763af-5d6b-46e6-aa96-273eac15538a} aComponent={MachineWrap} aText={The machine is not mutable (state is PoweredOff)}, preserve=false aResultDetail=0
00:04:29.905848 nspr-3   Saving settings file "/home/marcus/.config/VirtualBox/VirtualBox.xml" with version "1.12-linux"
00:04:29.984879 nspr-3   Finished saving settings file "/home/marcus/.config/VirtualBox/VirtualBox.xml"
00:04:32.113511 nspr-5   Launched VM: 1677728848 pid: 2808 (0xaf8) frontend: GUI/Qt name: test_install_script
00:04:32.156689 nspr-5   ERROR [COM]: aRC=VBOX_E_INVALID_VM_STATE (0x80bb0002) aIID={300763af-5d6b-46e6-aa96-273eac15538a} aComponent={MachineWrap} aText={The machine is not mutable (state is PoweredOff)}, preserve=false aResultDetail=0
00:04:32.347514 nspr-6   ERROR [COM]: aRC=VBOX_E_INVALID_VM_STATE (0x80bb0002) aIID={300763af-5d6b-46e6-aa96-273eac15538a} aComponent={MachineWrap} aText={The machine is not mutable (state is PoweredOff)}, preserve=false aResultDetail=0
00:04:32.798373 nspr-6   ERROR [COM]: aRC=VBOX_E_OBJECT_NOT_FOUND (0x80bb0001) aIID={70401eef-c8e9-466b-9660-45cb3e9979e4} aComponent={ExtPackManagerWrap} aText={No extension pack by the name 'Oracle VM VirtualBox Extension Pack' was found}, preserve=false aResultDetail=0
00:04:32.872018 nspr-4   ERROR [COM]: aRC=VBOX_E_IPRT_ERROR (0x80bb0005) aIID={300763af-5d6b-46e6-aa96-273eac15538a} aComponent={SessionMachine} aText={Saved screenshot data is not available (VERR_NOT_SUPPORTED)}, preserve=false aResultDetail=-37
00:04:32.905828 nspr-4   NetIfAdpCtlOut: VBoxNetAdpCtl: Error while retrieving link speed for wlp3s0: VBoxNetAdpCtl: ioctl failed: Operation not supported
00:04:32.995960 nspr-3   ERROR [COM]: aRC=VBOX_E_INVALID_VM_STATE (0x80bb0002) aIID={300763af-5d6b-46e6-aa96-273eac15538a} aComponent={MachineWrap} aText={The machine is not mutable (state is Starting)}, preserve=false aResultDetail=0
00:04:33.208622 nspr-7   Saving settings file "/home/marcus/.config/VirtualBox/VirtualBox.xml" with version "1.12-linux"
00:04:33.332465 nspr-7   Finished saving settings file "/home/marcus/.config/VirtualBox/VirtualBox.xml"
00:04:33.334475 nspr-4   Saving settings file "/home/marcus/VirtualBox VMs/test_install_script/test_install_script.vbox" with version "1.19-linux"
00:04:33.416040 nspr-4   Finished saving settings file "/home/marcus/VirtualBox VMs/test_install_script/test_install_script.vbox"
00:04:33.418311 nspr-5   ERROR [COM]: aRC=VBOX_E_OBJECT_NOT_FOUND (0x80bb0001) aIID={ad47ad09-787b-44ab-b343-a082a3f2dfb1} aComponent={MediumWrap} aText={Property 'CRYPT/KeyId' does not exist}, preserve=false aResultDetail=0
00:04:33.432092 nspr-4   ERROR [COM]: aRC=VBOX_E_OBJECT_NOT_FOUND (0x80bb0001) aIID={ad47ad09-787b-44ab-b343-a082a3f2dfb1} aComponent={MediumWrap} aText={Property 'CRYPT/KeyId' does not exist}, preserve=false aResultDetail=0
00:04:33.541517 nspr-8   ERROR [COM]: aRC=VBOX_E_INVALID_VM_STATE (0x80bb0002) aIID={300763af-5d6b-46e6-aa96-273eac15538a} aComponent={MachineWrap} aText={The machine is not mutable (state is Running)}, preserve=false aResultDetail=0
00:04:41.988455 nspr-9   Saving settings file "/home/marcus/VirtualBox VMs/test_install_script/test_install_script.vbox" with version "1.19-linux"
00:04:42.081654 nspr-9   Finished saving settings file "/home/marcus/VirtualBox VMs/test_install_script/test_install_script.vbox"
00:04:42.081855 nspr-8   Saving settings file "/home/marcus/.config/VirtualBox/VirtualBox.xml" with version "1.12-linux"
00:04:42.148308 nspr-8   Finished saving settings file "/home/marcus/.config/VirtualBox/VirtualBox.xml"
00:04:42.163545 nspr-2   ERROR [COM]: aRC=VBOX_E_INVALID_VM_STATE (0x80bb0002) aIID={300763af-5d6b-46e6-aa96-273eac15538a} aComponent={MachineWrap} aText={The machine is not mutable (state is Running)}, preserve=false aResultDetail=0
00:05:15.907876 nspr-7   Saving settings file "/home/marcus/.config/VirtualBox/VirtualBox.xml" with version "1.12-linux"
00:05:15.926517 nspr-4   Saving settings file "/home/marcus/VirtualBox VMs/test_install_script/test_install_script.vbox" with version "1.19-linux"
00:05:16.003868 nspr-7   Finished saving settings file "/home/marcus/.config/VirtualBox/VirtualBox.xml"
00:05:16.128802 nspr-4   Finished saving settings file "/home/marcus/VirtualBox VMs/test_install_script/test_install_script.vbox"
00:05:16.177236 nspr-4   ERROR [COM]: aRC=VBOX_E_INVALID_VM_STATE (0x80bb0002) aIID={300763af-5d6b-46e6-aa96-273eac15538a} aComponent={MachineWrap} aText={The machine is not mutable (state is Running)}, preserve=false aResultDetail=0
01:11:42.085679 MainPower Host suspending: Paused 1 VMs
01:11:42.139332 nspr-4   ERROR [COM]: aRC=VBOX_E_INVALID_VM_STATE (0x80bb0002) aIID={300763af-5d6b-46e6-aa96-273eac15538a} aComponent={MachineWrap} aText={The machine is not mutable (state is Paused)}, preserve=false aResultDetail=0
01:11:42.218185 dns-monitor HostDnsMonitor: updating information
01:11:42.218291 dns-monitor HostDnsMonitor: old information
01:11:42.218328 dns-monitor   server 1: 108.166.149.2
01:11:42.218352 dns-monitor   server 2: 108.166.149.3
01:11:42.218366 dns-monitor   server 3: 2607:fdc8:c::2
01:11:42.218380 dns-monitor   no domain set
01:11:42.218392 dns-monitor   no search string entries
01:11:42.218409 dns-monitor HostDnsMonitor: new information
01:11:42.218420 dns-monitor   no server entries
01:11:42.218430 dns-monitor   no domain set
01:11:42.218445 dns-monitor   no search string entries
01:11:47.684028 MainPower Host resumed: Resumed 1 VMs
01:11:47.717677 nspr-9   ERROR [COM]: aRC=VBOX_E_INVALID_VM_STATE (0x80bb0002) aIID={300763af-5d6b-46e6-aa96-273eac15538a} aComponent={MachineWrap} aText={The machine is not mutable (state is Running)}, preserve=false aResultDetail=0
01:11:50.172123 dns-monitor NAT: resolv.conf: nameserver 108.166.149.2
01:11:50.172156 dns-monitor NAT: resolv.conf: nameserver 108.166.149.3
01:11:50.172199 dns-monitor HostDnsMonitor: updating information
01:11:50.172216 dns-monitor HostDnsMonitor: old information
01:11:50.172228 dns-monitor   no server entries
01:11:50.172238 dns-monitor   no domain set
01:11:50.172245 dns-monitor   no search string entries
01:11:50.172255 dns-monitor HostDnsMonitor: new information
01:11:50.172266 dns-monitor   server 1: 108.166.149.2
01:11:50.172282 dns-monitor   server 2: 108.166.149.3
01:11:50.172295 dns-monitor   no domain set
01:11:50.172306 dns-monitor   no search string entries
01:11:53.230310 dns-monitor NAT: resolv.conf: nameserver 108.166.149.2
01:11:53.230343 dns-monitor NAT: resolv.conf: nameserver 108.166.149.3
01:11:53.230355 dns-monitor NAT: resolv.conf: nameserver 2607:fdc8:c::2
01:11:53.230365 dns-monitor NAT: resolv.conf: too many nameserver lines, ignoring 2607:fdc8:c::3
01:11:53.230397 dns-monitor HostDnsMonitor: updating information
01:11:53.230413 dns-monitor HostDnsMonitor: old information
01:11:53.230423 dns-monitor   server 1: 108.166.149.2
01:11:53.230467 dns-monitor   server 2: 108.166.149.3
01:11:53.230482 dns-monitor   no domain set
01:11:53.230495 dns-monitor   no search string entries
01:11:53.230507 dns-monitor HostDnsMonitor: new information
01:11:53.230520 dns-monitor   server 1: 108.166.149.2
01:11:53.230533 dns-monitor   server 2: 108.166.149.3
01:11:53.230545 dns-monitor   server 3: 2607:fdc8:c::2
01:11:53.230587 dns-monitor   no domain set
01:11:53.230601 dns-monitor   no search string entries
01:15:42.915167 nspr-9   ERROR [COM]: aRC=VBOX_E_INVALID_VM_STATE (0x80bb0002) aIID={300763af-5d6b-46e6-aa96-273eac15538a} aComponent={SessionMachine} aText={The machine is not mutable (state is Running)}, preserve=false aResultDetail=0
01:15:42.934242 nspr-6   NetIfAdpCtlOut: VBoxNetAdpCtl: Error while retrieving link speed for wlp3s0: VBoxNetAdpCtl: ioctl failed: Operation not supported
01:15:42.949258 nspr-3   NetIfAdpCtlOut: VBoxNetAdpCtl: Error while retrieving link speed for wlp3s0: VBoxNetAdpCtl: ioctl failed: Operation not supported
01:15:43.400450 nspr-4   Saving settings file "/home/marcus/VirtualBox VMs/test_install_script/test_install_script.vbox" with version "1.19-linux"
01:15:43.540931 nspr-4   Finished saving settings file "/home/marcus/VirtualBox VMs/test_install_script/test_install_script.vbox"
01:15:43.580988 nspr-8   ERROR [COM]: aRC=VBOX_E_INVALID_VM_STATE (0x80bb0002) aIID={300763af-5d6b-46e6-aa96-273eac15538a} aComponent={SessionMachine} aText={The machine is not mutable (state is Running)}, preserve=false aResultDetail=0
01:15:43.602548 nspr-9   ERROR [COM]: aRC=VBOX_E_INVALID_VM_STATE (0x80bb0002) aIID={300763af-5d6b-46e6-aa96-273eac15538a} aComponent={MachineWrap} aText={The machine is not mutable (state is Running)}, preserve=false aResultDetail=0
01:15:43.628842 nspr-6   NetIfAdpCtlOut: VBoxNetAdpCtl: Error while retrieving link speed for wlp3s0: VBoxNetAdpCtl: ioctl failed: Operation not supported
01:15:43.657261 nspr-2   NetIfAdpCtlOut: VBoxNetAdpCtl: Error while retrieving link speed for wlp3s0: VBoxNetAdpCtl: ioctl failed: Operation not supported
01:18:58.223716 nspr-4   ERROR [COM]: aRC=VBOX_E_INVALID_VM_STATE (0x80bb0002) aIID={300763af-5d6b-46e6-aa96-273eac15538a} aComponent={MachineWrap} aText={The machine is not mutable (state is Stopping)}, preserve=false aResultDetail=0
01:18:58.360742 nspr-3   Saving settings file "/home/marcus/VirtualBox VMs/test_install_script/test_install_script.vbox" with version "1.19-linux"
01:18:58.581547 nspr-3   Finished saving settings file "/home/marcus/VirtualBox VMs/test_install_script/test_install_script.vbox"
01:18:58.633345 nspr-7   ERROR [COM]: aRC=VBOX_E_INVALID_VM_STATE (0x80bb0002) aIID={300763af-5d6b-46e6-aa96-273eac15538a} aComponent={MachineWrap} aText={The machine is not mutable (state is PoweredOff)}, preserve=false aResultDetail=0
01:18:59.413978 nspr-6   ERROR [COM]: aRC=VBOX_E_INVALID_VM_STATE (0x80bb0002) aIID={300763af-5d6b-46e6-aa96-273eac15538a} aComponent={MachineWrap} aText={The machine is not mutable (state is PoweredOff)}, preserve=false aResultDetail=0
01:21:47.026502 MainPower Host suspending: Paused 0 VMs
01:21:47.172934 dns-monitor HostDnsMonitor: updating information
01:21:47.172982 dns-monitor HostDnsMonitor: old information
01:21:47.172991 dns-monitor   server 1: 108.166.149.2
01:21:47.173000 dns-monitor   server 2: 108.166.149.3
01:21:47.173007 dns-monitor   server 3: 2607:fdc8:c::2
01:21:47.173014 dns-monitor   no domain set
01:21:47.173020 dns-monitor   no search string entries
01:21:47.173028 dns-monitor HostDnsMonitor: new information
01:21:47.173033 dns-monitor   no server entries
01:21:47.173040 dns-monitor   no domain set
01:21:47.173046 dns-monitor   no search string entries
01:21:52.577965 MainPower Host resumed: Resumed 0 VMs
01:21:55.153155 dns-monitor NAT: resolv.conf: nameserver 108.166.149.2
01:21:55.153190 dns-monitor NAT: resolv.conf: nameserver 108.166.149.3
01:21:55.153226 dns-monitor HostDnsMonitor: updating information
01:21:55.153241 dns-monitor HostDnsMonitor: old information
01:21:55.153252 dns-monitor   no server entries
01:21:55.153266 dns-monitor   no domain set
01:21:55.153276 dns-monitor   no search string entries
01:21:55.153288 dns-monitor HostDnsMonitor: new information
01:21:55.153297 dns-monitor   server 1: 108.166.149.2
01:21:55.153308 dns-monitor   server 2: 108.166.149.3
01:21:55.153322 dns-monitor   no domain set
01:21:55.153336 dns-monitor   no search string entries
01:21:55.578585 dns-monitor NAT: resolv.conf: nameserver 108.166.149.2
01:21:55.578650 dns-monitor NAT: resolv.conf: nameserver 108.166.149.3
01:21:55.578696 dns-monitor NAT: resolv.conf: nameserver 2607:fdc8:c::2
01:21:55.578716 dns-monitor NAT: resolv.conf: too many nameserver lines, ignoring 2607:fdc8:c::3
01:21:55.578760 dns-monitor HostDnsMonitor: updating information
01:21:55.578772 dns-monitor HostDnsMonitor: old information
01:21:55.578783 dns-monitor   server 1: 108.166.149.2
01:21:55.578796 dns-monitor   server 2: 108.166.149.3
01:21:55.578809 dns-monitor   no domain set
01:21:55.578821 dns-monitor   no search string entries
01:21:55.578835 dns-monitor HostDnsMonitor: new information
01:21:55.578845 dns-monitor   server 1: 108.166.149.2
01:21:55.578858 dns-monitor   server 2: 108.166.149.3
01:21:55.578869 dns-monitor   server 3: 2607:fdc8:c::2
01:21:55.578877 dns-monitor   no domain set
01:21:55.578882 dns-monitor   no search string entries
01:23:22.506931 nspr-3   Saving settings file "/home/marcus/.config/VirtualBox/VirtualBox.xml" with version "1.12-linux"
01:23:22.611150 nspr-3   Finished saving settings file "/home/marcus/.config/VirtualBox/VirtualBox.xml"
01:35:04.829684 nspr-9   Saving settings file "/home/marcus/.config/VirtualBox/VirtualBox.xml" with version "1.12-linux"
01:35:05.164004 nspr-9   Finished saving settings file "/home/marcus/.config/VirtualBox/VirtualBox.xml"
01:51:20.420152 nspr-6   Saving settings file "/home/marcus/.config/VirtualBox/VirtualBox.xml" with version "1.12-linux"
01:51:20.534041 nspr-6   Finished saving settings file "/home/marcus/.config/VirtualBox/VirtualBox.xml"
01:51:26.553570 main     VirtualBox: object deletion starts
01:51:26.553690 main     ERROR [COM]: aRC=VBOX_E_OBJECT_IN_USE (0x80bb000c) aIID={ad47ad09-787b-44ab-b343-a082a3f2dfb1} aComponent={MediumWrap} aText={Medium '/home/marcus/VirtualBox VMs/HACKME/mrRobot-disk1.vdi' cannot be closed because it is still attached to 1 virtual machines}, preserve=false aResultDetail=0
01:51:26.553938 main     ERROR [COM]: aRC=VBOX_E_OBJECT_IN_USE (0x80bb000c) aIID={ad47ad09-787b-44ab-b343-a082a3f2dfb1} aComponent={MediumWrap} aText={Medium '/home/marcus/i/InstallationMedia/kali-linux-2023.1-virtualbox-amd64/kali-linux-2023.1-virtualbox-amd64.vdi' cannot be closed because it is still attached to 1 virtual machines}, preserve=false aResultDetail=0
01:51:26.554130 main     ERROR [COM]: aRC=VBOX_E_OBJECT_IN_USE (0x80bb000c) aIID={ad47ad09-787b-44ab-b343-a082a3f2dfb1} aComponent={MediumWrap} aText={Medium '/home/marcus/VirtualBox VMs/win7-pro_64-bit/win7-pro_64-bit.vdi' cannot be closed because it is still attached to 1 virtual machines}, preserve=false aResultDetail=0
01:51:26.554302 main     ERROR [COM]: aRC=VBOX_E_OBJECT_IN_USE (0x80bb000c) aIID={ad47ad09-787b-44ab-b343-a082a3f2dfb1} aComponent={MediumWrap} aText={Medium '/home/marcus/VirtualBox VMs/test_install_script/test_install_script.vdi' cannot be closed because it is still attached to 1 virtual machines}, preserve=false aResultDetail=0
01:51:26.555125 main     HostDnsMonitor: shutting down ...
01:51:26.555508 main     HostDnsMonitor: shut down
01:51:26.567269 Watcher  ERROR [COM]: aRC=E_ACCESSDENIED (0x80070005) aIID={7682d5eb-f00e-44f1-8ca2-99d08b1cd607} aComponent={VirtualBoxWrap} aText={The object is not ready}, preserve=false aResultDetail=0
01:51:26.567457 main     VirtualBox: object deleted
