00:00:00.171381 main     VirtualBox XPCOM Server 7.0.10 r158379 linux.amd64 (Aug 11 2023 12:19:51) release log
00:00:00.171386 main     Log opened 2023-08-13T18:18:27.710068000Z
00:00:00.171387 main     Build Type: release
00:00:00.171391 main     OS Product: Linux
00:00:00.171394 main     OS Release: 6.1.45-1-lts
00:00:00.171397 main     OS Version: #1 SMP PREEMPT_DYNAMIC Fri, 11 Aug 2023 11:28:00 +0000
00:00:00.171437 main     DMI Product Name: Inspiron 3668
00:00:00.171457 main     DMI Product Version: 
00:00:00.171466 main     Firmware type: UEFI
00:00:00.171894 main     Secure Boot: Disabled
00:00:00.171979 main     Host RAM: 15905MB (15.5GB) total, 15316MB (14.9GB) available
00:00:00.171985 main     Executable: /usr/lib/virtualbox/VBoxSVC
00:00:00.171986 main     Process ID: 1955
00:00:00.171987 main     Package type: LINUX_64BITS_GENERIC (OSE)
00:00:00.176262 main     IPC socket path: /tmp/.vbox-marcus-ipc/ipcd
00:00:00.348711 nspr-2   VirtualBox: object creation starts
00:00:00.369406 nspr-2   Home directory: '/home/marcus/.config/VirtualBox'
00:00:00.389047 nspr-2   Loading settings file "/home/marcus/.config/VirtualBox/VirtualBox.xml" with version "1.12-linux"
00:00:00.445178 nspr-2   USB: Unknown USB device detected (idVendor: 0x0cf3, idProduct: 0xe005)
00:00:00.445522 nspr-2   Successfully initialised host USB using sysfs
00:00:00.501988 nspr-2   NetIfAdpCtlOut: VBoxNetAdpCtl: Error while retrieving link speed for wlp3s0: VBoxNetAdpCtl: ioctl failed: Operation not supported
00:00:00.503459 nspr-2   HostDnsMonitor: initializing
00:00:00.503761 nspr-2   NAT: resolv.conf: nameserver 185.228.168.10
00:00:00.503776 nspr-2   HostDnsMonitor: updating information
00:00:00.503787 nspr-2   HostDnsMonitor: old information
00:00:00.503790 nspr-2     no server entries
00:00:00.503792 nspr-2     no domain set
00:00:00.503795 nspr-2     no search string entries
00:00:00.503797 nspr-2   HostDnsMonitor: new information
00:00:00.503799 nspr-2     server 1: 185.228.168.10
00:00:00.503802 nspr-2     no domain set
00:00:00.503804 nspr-2     no search string entries
00:00:00.626021 nspr-2   VD: VDInit finished with VINF_SUCCESS
00:00:00.700092 nspr-2   ERROR [COM]: aRC=NS_ERROR_FAILURE (0x80004005) aIID={aac6c7cb-a371-4c58-ab51-0616896b2f2c} aComponent={SystemPropertiesWrap} aText={Cannot determine default Guest Additions ISO location. Most likely they are not available}, preserve=false aResultDetail=0
00:00:00.746678 nspr-2   Loading settings file "/home/marcus/VirtualBox VMs/HACKME/HACKME.vbox" with version "1.19-linux"
00:00:00.790399 nspr-2   Loading settings file "/home/marcus/i/InstallationMedia/kali-linux-2023.1-virtualbox-amd64/kali-linux-2023.1-virtualbox-amd64.vbox" with version "1.19-linux"
00:00:00.817367 nspr-2   Loading settings file "/home/marcus/VirtualBox VMs/win7-pro_64-bit/win7-pro_64-bit.vbox" with version "1.19-linux"
00:00:00.851885 nspr-2   Loading settings file "/home/marcus/VirtualBox VMs/test_install_script/test_install_script.vbox" with version "1.19-linux"
00:00:00.866335 nspr-2   VirtualBox: object created
00:00:03.410500 nspr-3   ERROR [COM]: aRC=VBOX_E_INVALID_VM_STATE (0x80bb0002) aIID={300763af-5d6b-46e6-aa96-273eac15538a} aComponent={MachineWrap} aText={The machine is not mutable (state is PoweredOff)}, preserve=false aResultDetail=0
00:00:07.932713 nspr-5   Saving settings file "/home/marcus/.config/VirtualBox/VirtualBox.xml" with version "1.12-linux"
00:00:08.133174 nspr-5   Finished saving settings file "/home/marcus/.config/VirtualBox/VirtualBox.xml"
00:00:08.143609 nspr-4   ERROR [COM]: aRC=VBOX_E_INVALID_VM_STATE (0x80bb0002) aIID={300763af-5d6b-46e6-aa96-273eac15538a} aComponent={MachineWrap} aText={The machine is not mutable (state is PoweredOff)}, preserve=false aResultDetail=0
00:00:12.886268 nspr-6   Launched VM: 1744838304 pid: 2010 (0x7da) frontend: GUI/Qt name: win7-pro_64-bit
00:00:12.924467 nspr-3   ERROR [COM]: aRC=VBOX_E_INVALID_VM_STATE (0x80bb0002) aIID={300763af-5d6b-46e6-aa96-273eac15538a} aComponent={MachineWrap} aText={The machine is not mutable (state is PoweredOff)}, preserve=false aResultDetail=0
00:00:13.257529 nspr-2   ERROR [COM]: aRC=VBOX_E_INVALID_VM_STATE (0x80bb0002) aIID={300763af-5d6b-46e6-aa96-273eac15538a} aComponent={MachineWrap} aText={The machine is not mutable (state is PoweredOff)}, preserve=false aResultDetail=0
00:00:13.716809 nspr-8   ERROR [COM]: aRC=VBOX_E_OBJECT_NOT_FOUND (0x80bb0001) aIID={70401eef-c8e9-466b-9660-45cb3e9979e4} aComponent={ExtPackManagerWrap} aText={No extension pack by the name 'Oracle VM VirtualBox Extension Pack' was found}, preserve=false aResultDetail=0
00:00:13.805319 nspr-7   ERROR [COM]: aRC=VBOX_E_IPRT_ERROR (0x80bb0005) aIID={300763af-5d6b-46e6-aa96-273eac15538a} aComponent={SessionMachine} aText={Saved screenshot data is not available (VERR_NOT_SUPPORTED)}, preserve=false aResultDetail=-37
00:00:13.933603 nspr-3   NetIfAdpCtlOut: VBoxNetAdpCtl: Error while retrieving link speed for wlp3s0: VBoxNetAdpCtl: ioctl failed: Operation not supported
00:00:14.146388 nspr-3   ERROR [COM]: aRC=VBOX_E_INVALID_VM_STATE (0x80bb0002) aIID={300763af-5d6b-46e6-aa96-273eac15538a} aComponent={MachineWrap} aText={The machine is not mutable (state is Starting)}, preserve=false aResultDetail=0
00:00:14.260629 nspr-3   Saving settings file "/home/marcus/.config/VirtualBox/VirtualBox.xml" with version "1.12-linux"
00:00:14.332305 nspr-6   ERROR [COM]: aRC=VBOX_E_INVALID_VM_STATE (0x80bb0002) aIID={300763af-5d6b-46e6-aa96-273eac15538a} aComponent={SessionMachine} aText={The machine is not mutable or saved (state is Starting)}, preserve=false aResultDetail=0
00:00:14.337824 nspr-6   Saving settings file "/home/marcus/VirtualBox VMs/win7-pro_64-bit/win7-pro_64-bit.vbox" with version "1.19-linux"
00:00:14.676098 nspr-3   Finished saving settings file "/home/marcus/.config/VirtualBox/VirtualBox.xml"
00:00:14.866023 nspr-6   Finished saving settings file "/home/marcus/VirtualBox VMs/win7-pro_64-bit/win7-pro_64-bit.vbox"
00:00:14.911816 nspr-4   ERROR [COM]: aRC=VBOX_E_INVALID_VM_STATE (0x80bb0002) aIID={300763af-5d6b-46e6-aa96-273eac15538a} aComponent={MachineWrap} aText={The machine is not mutable (state is Starting)}, preserve=false aResultDetail=0
00:00:15.261969 nspr-8   Saving settings file "/home/marcus/VirtualBox VMs/win7-pro_64-bit/win7-pro_64-bit.vbox" with version "1.19-linux"
00:00:15.582682 nspr-8   Finished saving settings file "/home/marcus/VirtualBox VMs/win7-pro_64-bit/win7-pro_64-bit.vbox"
00:00:15.627586 nspr-4   ERROR [COM]: aRC=VBOX_E_INVALID_VM_STATE (0x80bb0002) aIID={300763af-5d6b-46e6-aa96-273eac15538a} aComponent={MachineWrap} aText={The machine is not mutable (state is Starting)}, preserve=false aResultDetail=0
00:00:15.807116 nspr-4   ERROR [COM]: aRC=VBOX_E_OBJECT_NOT_FOUND (0x80bb0001) aIID={ad47ad09-787b-44ab-b343-a082a3f2dfb1} aComponent={MediumWrap} aText={Property 'CRYPT/KeyId' does not exist}, preserve=false aResultDetail=0
00:00:15.808991 nspr-9   ERROR [COM]: aRC=VBOX_E_OBJECT_NOT_FOUND (0x80bb0001) aIID={ad47ad09-787b-44ab-b343-a082a3f2dfb1} aComponent={MediumWrap} aText={Property 'CRYPT/KeyId' does not exist}, preserve=false aResultDetail=0
00:00:15.882513 nspr-8   ERROR [COM]: aRC=VBOX_E_INVALID_VM_STATE (0x80bb0002) aIID={300763af-5d6b-46e6-aa96-273eac15538a} aComponent={MachineWrap} aText={The machine is not mutable (state is Running)}, preserve=false aResultDetail=0
00:00:18.441086 nspr-8   Saving settings file "/home/marcus/.config/VirtualBox/VirtualBox.xml" with version "1.12-linux"
00:00:18.735394 nspr-9   Saving settings file "/home/marcus/VirtualBox VMs/win7-pro_64-bit/win7-pro_64-bit.vbox" with version "1.19-linux"
00:00:18.757025 nspr-8   Finished saving settings file "/home/marcus/.config/VirtualBox/VirtualBox.xml"
00:00:18.940337 nspr-9   Finished saving settings file "/home/marcus/VirtualBox VMs/win7-pro_64-bit/win7-pro_64-bit.vbox"
00:00:18.958398 nspr-4   ERROR [COM]: aRC=VBOX_E_INVALID_VM_STATE (0x80bb0002) aIID={300763af-5d6b-46e6-aa96-273eac15538a} aComponent={MachineWrap} aText={The machine is not mutable (state is Running)}, preserve=false aResultDetail=0
00:01:04.600237 nspr-3   ERROR [COM]: aRC=VBOX_E_INVALID_VM_STATE (0x80bb0002) aIID={300763af-5d6b-46e6-aa96-273eac15538a} aComponent={MachineWrap} aText={The machine is not mutable (state is Paused)}, preserve=false aResultDetail=0
00:01:04.880043 nspr-4   Saving settings file "/home/marcus/.config/VirtualBox/VirtualBox.xml" with version "1.12-linux"
00:01:05.019549 nspr-4   Finished saving settings file "/home/marcus/.config/VirtualBox/VirtualBox.xml"
00:01:09.211337 nspr-2   Saving settings file "/home/marcus/VirtualBox VMs/win7-pro_64-bit/win7-pro_64-bit.vbox" with version "1.19-linux"
00:01:09.327524 nspr-2   Finished saving settings file "/home/marcus/VirtualBox VMs/win7-pro_64-bit/win7-pro_64-bit.vbox"
00:01:09.359282 nspr-2   ERROR [COM]: aRC=VBOX_E_INVALID_VM_STATE (0x80bb0002) aIID={300763af-5d6b-46e6-aa96-273eac15538a} aComponent={MachineWrap} aText={The machine is not mutable (state is Stopping)}, preserve=false aResultDetail=0
00:01:09.472042 nspr-2   Saving settings file "/home/marcus/VirtualBox VMs/win7-pro_64-bit/win7-pro_64-bit.vbox" with version "1.19-linux"
00:01:09.577558 nspr-2   Finished saving settings file "/home/marcus/VirtualBox VMs/win7-pro_64-bit/win7-pro_64-bit.vbox"
00:01:09.614254 nspr-8   ERROR [COM]: aRC=VBOX_E_INVALID_VM_STATE (0x80bb0002) aIID={300763af-5d6b-46e6-aa96-273eac15538a} aComponent={MachineWrap} aText={The machine is not mutable (state is PoweredOff)}, preserve=false aResultDetail=0
00:01:10.522641 nspr-5   ERROR [COM]: aRC=VBOX_E_INVALID_VM_STATE (0x80bb0002) aIID={300763af-5d6b-46e6-aa96-273eac15538a} aComponent={MachineWrap} aText={The machine is not mutable (state is PoweredOff)}, preserve=false aResultDetail=0
00:01:10.780430 nspr-4   Saving settings file "/home/marcus/.config/VirtualBox/VirtualBox.xml" with version "1.12-linux"
00:01:10.910742 nspr-4   Finished saving settings file "/home/marcus/.config/VirtualBox/VirtualBox.xml"
00:01:19.434537 main     VirtualBox: object deletion starts
00:01:19.434603 main     ERROR [COM]: aRC=VBOX_E_OBJECT_IN_USE (0x80bb000c) aIID={ad47ad09-787b-44ab-b343-a082a3f2dfb1} aComponent={MediumWrap} aText={Medium '/home/marcus/VirtualBox VMs/HACKME/mrRobot-disk1.vdi' cannot be closed because it is still attached to 1 virtual machines}, preserve=false aResultDetail=0
00:01:19.434849 main     ERROR [COM]: aRC=VBOX_E_OBJECT_IN_USE (0x80bb000c) aIID={ad47ad09-787b-44ab-b343-a082a3f2dfb1} aComponent={MediumWrap} aText={Medium '/home/marcus/i/InstallationMedia/kali-linux-2023.1-virtualbox-amd64/kali-linux-2023.1-virtualbox-amd64.vdi' cannot be closed because it is still attached to 1 virtual machines}, preserve=false aResultDetail=0
00:01:19.435047 main     ERROR [COM]: aRC=VBOX_E_OBJECT_IN_USE (0x80bb000c) aIID={ad47ad09-787b-44ab-b343-a082a3f2dfb1} aComponent={MediumWrap} aText={Medium '/home/marcus/VirtualBox VMs/win7-pro_64-bit/win7-pro_64-bit.vdi' cannot be closed because it is still attached to 1 virtual machines}, preserve=false aResultDetail=0
00:01:19.435223 main     ERROR [COM]: aRC=VBOX_E_OBJECT_IN_USE (0x80bb000c) aIID={ad47ad09-787b-44ab-b343-a082a3f2dfb1} aComponent={MediumWrap} aText={Medium '/home/marcus/VirtualBox VMs/test_install_script/test_install_script.vdi' cannot be closed because it is still attached to 1 virtual machines}, preserve=false aResultDetail=0
00:01:19.436484 main     HostDnsMonitor: shutting down ...
00:01:19.436815 main     HostDnsMonitor: shut down
00:01:19.448407 Watcher  ERROR [COM]: aRC=E_ACCESSDENIED (0x80070005) aIID={7682d5eb-f00e-44f1-8ca2-99d08b1cd607} aComponent={VirtualBoxWrap} aText={The object is not ready}, preserve=false aResultDetail=0
00:01:19.448560 main     VirtualBox: object deleted
