{
  "book_details_splitter_horizontal_state": [
    true,
    200
  ],
  "book_list_pin_splitter_state": {
    "__class__": "bytearray",
    "__value__": "AAAA/wAAAAEAAAACAAABAP////8A/////wEAAAABAA=="
  },
  "cover_browser_splitter_vertical_state": [
    false,
    300
  ],
  "custom_colors_for_color_dialog": [
    [
      255,
      255,
      255,
      255
    ],
    [
      255,
      255,
      255,
      255
    ],
    [
      255,
      255,
      255,
      255
    ],
    [
      255,
      255,
      255,
      255
    ],
    [
      255,
      255,
      255,
      255
    ],
    [
      255,
      255,
      255,
      255
    ],
    [
      255,
      255,
      255,
      255
    ],
    [
      255,
      255,
      255,
      255
    ],
    [
      255,
      255,
      255,
      255
    ],
    [
      255,
      255,
      255,
      255
    ],
    [
      255,
      255,
      255,
      255
    ],
    [
      255,
      255,
      255,
      255
    ],
    [
      255,
      255,
      255,
      255
    ],
    [
      255,
      255,
      255,
      255
    ],
    [
      255,
      255,
      255,
      255
    ],
    [
      255,
      255,
      255,
      255
    ]
  ],
  "geometry-of-calibre_main_window_geometry": {
    "frame_geometry": {
      "height": 1050,
      "width": 1910,
      "x": 1922,
      "y": 22
    },
    "full_screened": false,
    "geometry": {
      "height": 1044,
      "width": 1904,
      "x": 1925,
      "y": 25
    },
    "maximized": false,
    "normal_geometry": {
      "height": 1044,
      "width": 1904,
      "x": 1925,
      "y": 25
    },
    "qt": {
      "__class__": "bytearray",
      "__value__": "AdnQywADAAAAAAeCAAAAFgAADvcAAAQvAAAHhQAAABkAAA70AAAELAAAAAAAAAAAB4AAAAeFAAAAGQAADvQAAAQs"
    },
    "screen": {
      "depth": 24,
      "device_pixel_ratio": 1.0,
      "geometry_in_logical_pixels": {
        "height": 1080,
        "width": 1920,
        "x": 1920,
        "y": 0
      },
      "index_in_screens_list": 0,
      "manufacturer": "HP Inc.",
      "model": "HP M32f FHD-",
      "name": "DP1",
      "serial": "3CM12603YK-",
      "size_in_logical_pixels": {
        "height": 1080,
        "width": 1920
      },
      "virtual_geometry": {
        "height": 1080,
        "width": 3840,
        "x": 0,
        "y": 0
      }
    }
  },
  "grid view visible": false,
  "library_usage_stats": {
    "/home/marcus/c/Calibre Library": 2
  },
  "quick_start_guide_added": true,
  "quickview visible": false,
  "search bar visible": true,
  "tag browser search box visible": false,
  "tag_browser_splitter_horizontal_state": [
    true,
    200
  ]
}