    OpenRGB v0.8
    Commit:  from 
    Launched: 20230722_121142
====================================================================================================

0     |Info:    Found file: RED_COOLNESS.orp attempting to validate header
0     |Info:    Valid v3 profile found for RED_COOLNESS
1064  |Info:    ------------------------------------------------------
1064  |Info:    |               Start device detection               |
1064  |Info:    ------------------------------------------------------
1064  |Info:    Initializing HID interfaces: Success
1068  |Info:    ------------------------------------------------------
1068  |Info:    |             Detecting I2C interfaces               |
1068  |Info:    ------------------------------------------------------
1068  |Warning: [i2c_smbus_linux] Failed to read i2c device PCI device ID
1068  |Info:    Registering I2C interface: /dev/i2c-3 Device 0000:0000 Subsystem: 0000:0000
1068  |Info:    Registering I2C interface: /dev/i2c-1 Device 8086:5912 Subsystem: 1028:0763
1068  |Info:    Registering I2C interface: /dev/i2c-4 Device 8086:A123 Subsystem: 1028:0763
1068  |Info:    Registering I2C interface: /dev/i2c-2 Device 8086:5912 Subsystem: 1028:0763
1068  |Info:    Registering I2C interface: /dev/i2c-0 Device 8086:5912 Subsystem: 1028:0763
1068  |Info:    ------------------------------------------------------
1068  |Info:    |               Detecting I2C devices                |
1068  |Info:    ------------------------------------------------------
1307  |Info:    ------------------------------------------------------
1307  |Info:    |               Detecting I2C PCI devices            |
1307  |Info:    ------------------------------------------------------
1309  |Info:    ------------------------------------------------------
1309  |Info:    |               Detecting HID devices                |
1309  |Info:    ------------------------------------------------------
1369  |Info:    [SteelSeries Rival 3] Registering RGB controller
1369  |Info:    ------------------------------------------------------
1369  |Info:    |              Detecting other devices               |
1369  |Info:    ------------------------------------------------------
1374  |Info:    ------------------------------------------------------
1374  |Info:    |                Detection completed                 |
1374  |Info:    ------------------------------------------------------
1375  |Info:    Profile loading: Succeeded for SteelSeries Rival 3 @ HID: /dev/hidraw3
