    OpenRGB v0.8
    Commit:  from 
    Launched: 20230725_180946
====================================================================================================

0     |Info:    Found file: RED_COOLNESS.orp attempting to validate header
0     |Info:    Valid v3 profile found for RED_COOLNESS
1042  |Info:    ------------------------------------------------------
1042  |Info:    |               Start device detection               |
1042  |Info:    ------------------------------------------------------
1042  |Info:    Initializing HID interfaces: Success
1049  |Info:    ------------------------------------------------------
1049  |Info:    |             Detecting I2C interfaces               |
1049  |Info:    ------------------------------------------------------
1049  |Warning: [i2c_smbus_linux] Failed to read i2c device PCI device ID
1049  |Info:    Registering I2C interface: /dev/i2c-3 Device 0000:0000 Subsystem: 0000:0000
1054  |Info:    Registering I2C interface: /dev/i2c-1 Device 8086:5912 Subsystem: 1028:0763
1054  |Info:    Registering I2C interface: /dev/i2c-4 Device 8086:A123 Subsystem: 1028:0763
1055  |Info:    Registering I2C interface: /dev/i2c-2 Device 8086:5912 Subsystem: 1028:0763
1055  |Info:    Registering I2C interface: /dev/i2c-0 Device 8086:5912 Subsystem: 1028:0763
1055  |Info:    ------------------------------------------------------
1055  |Info:    |               Detecting I2C devices                |
1055  |Info:    ------------------------------------------------------
1305  |Info:    ------------------------------------------------------
1305  |Info:    |               Detecting I2C PCI devices            |
1305  |Info:    ------------------------------------------------------
1305  |Info:    ------------------------------------------------------
1305  |Info:    |               Detecting HID devices                |
1305  |Info:    ------------------------------------------------------
1307  |Info:    [SteelSeries Rival 3] Registering RGB controller
1307  |Info:    ------------------------------------------------------
1307  |Info:    |              Detecting other devices               |
1307  |Info:    ------------------------------------------------------
1313  |Info:    ------------------------------------------------------
1313  |Info:    |                Detection completed                 |
1313  |Info:    ------------------------------------------------------
