    OpenRGB v0.8
    Commit:  from 
    Launched: 20230801_164727
====================================================================================================

0     |Info:    Found file: RED_COOLNESS.orp attempting to validate header
0     |Info:    Valid v3 profile found for RED_COOLNESS
1067  |Info:    ------------------------------------------------------
1067  |Info:    |               Start device detection               |
1067  |Info:    ------------------------------------------------------
1067  |Info:    Initializing HID interfaces: Success
1074  |Info:    ------------------------------------------------------
1074  |Info:    |             Detecting I2C interfaces               |
1074  |Info:    ------------------------------------------------------
1074  |Warning: [i2c_smbus_linux] Failed to read i2c device PCI device ID
1075  |Info:    Registering I2C interface: /dev/i2c-3 Device 0000:0000 Subsystem: 0000:0000
1075  |Info:    Registering I2C interface: /dev/i2c-1 Device 8086:5912 Subsystem: 1028:0763
1075  |Info:    Registering I2C interface: /dev/i2c-4 Device 8086:A123 Subsystem: 1028:0763
1075  |Info:    Registering I2C interface: /dev/i2c-2 Device 8086:5912 Subsystem: 1028:0763
1075  |Info:    Registering I2C interface: /dev/i2c-0 Device 8086:5912 Subsystem: 1028:0763
1075  |Info:    ------------------------------------------------------
1075  |Info:    |               Detecting I2C devices                |
1075  |Info:    ------------------------------------------------------
1338  |Info:    ------------------------------------------------------
1338  |Info:    |               Detecting I2C PCI devices            |
1338  |Info:    ------------------------------------------------------
1339  |Info:    ------------------------------------------------------
1339  |Info:    |               Detecting HID devices                |
1339  |Info:    ------------------------------------------------------
1395  |Info:    [SteelSeries Rival 3] Registering RGB controller
1395  |Info:    ------------------------------------------------------
1395  |Info:    |              Detecting other devices               |
1395  |Info:    ------------------------------------------------------
1401  |Info:    ------------------------------------------------------
1401  |Info:    |                Detection completed                 |
1401  |Info:    ------------------------------------------------------
