    OpenRGB v0.8
    Commit:  from 
    Launched: 20230702_145759
====================================================================================================

0     |Info:    Found file: RED_COOLNESS.orp attempting to validate header
0     |Info:    Valid v3 profile found for RED_COOLNESS
1003  |Info:    ------------------------------------------------------
1003  |Info:    |               Start device detection               |
1003  |Info:    ------------------------------------------------------
1004  |Info:    Initializing HID interfaces: Success
1025  |Info:    ------------------------------------------------------
1025  |Info:    |             Detecting I2C interfaces               |
1025  |Info:    ------------------------------------------------------
1026  |Warning: [i2c_smbus_linux] Failed to read i2c device PCI device ID
1026  |Info:    Registering I2C interface: /dev/i2c-3 Device 0000:0000 Subsystem: 0000:0000
1026  |Info:    Registering I2C interface: /dev/i2c-1 Device 8086:5912 Subsystem: 1028:0763
1027  |Info:    Registering I2C interface: /dev/i2c-4 Device 8086:A123 Subsystem: 1028:0763
1027  |Info:    Registering I2C interface: /dev/i2c-2 Device 8086:5912 Subsystem: 1028:0763
1027  |Info:    Registering I2C interface: /dev/i2c-0 Device 8086:5912 Subsystem: 1028:0763
1027  |Info:    ------------------------------------------------------
1027  |Info:    |               Detecting I2C devices                |
1027  |Info:    ------------------------------------------------------
1253  |Info:    ------------------------------------------------------
1253  |Info:    |               Detecting I2C PCI devices            |
1253  |Info:    ------------------------------------------------------
1256  |Info:    ------------------------------------------------------
1256  |Info:    |               Detecting HID devices                |
1256  |Info:    ------------------------------------------------------
1315  |Info:    [SteelSeries Rival 3] Registering RGB controller
1315  |Info:    ------------------------------------------------------
1315  |Info:    |              Detecting other devices               |
1315  |Info:    ------------------------------------------------------
1330  |Info:    ------------------------------------------------------
1330  |Info:    |                Detection completed                 |
1330  |Info:    ------------------------------------------------------
10432 |Info:    ------------------------------------------------------
10432 |Info:    |               Start device detection               |
10432 |Info:    ------------------------------------------------------
10432 |Info:    Initializing HID interfaces: Success
10443 |Info:    ------------------------------------------------------
10443 |Info:    |             Detecting I2C interfaces               |
10443 |Info:    ------------------------------------------------------
10443 |Warning: [i2c_smbus_linux] Failed to read i2c device PCI device ID
10444 |Info:    Registering I2C interface: /dev/i2c-3 Device 0000:0000 Subsystem: 0000:0000
10444 |Info:    Registering I2C interface: /dev/i2c-1 Device 8086:5912 Subsystem: 1028:0763
10444 |Info:    Registering I2C interface: /dev/i2c-4 Device 8086:A123 Subsystem: 1028:0763
10445 |Info:    Registering I2C interface: /dev/i2c-2 Device 8086:5912 Subsystem: 1028:0763
10445 |Info:    Registering I2C interface: /dev/i2c-0 Device 8086:5912 Subsystem: 1028:0763
10445 |Info:    ------------------------------------------------------
10445 |Info:    |               Detecting I2C devices                |
10445 |Info:    ------------------------------------------------------
10680 |Info:    ------------------------------------------------------
10680 |Info:    |               Detecting I2C PCI devices            |
10680 |Info:    ------------------------------------------------------
10683 |Info:    ------------------------------------------------------
10683 |Info:    |               Detecting HID devices                |
10683 |Info:    ------------------------------------------------------
10740 |Info:    [SteelSeries Rival 3] Registering RGB controller
10740 |Info:    ------------------------------------------------------
10740 |Info:    |              Detecting other devices               |
10740 |Info:    ------------------------------------------------------
10742 |Info:    ------------------------------------------------------
10742 |Info:    |                Detection completed                 |
10742 |Info:    ------------------------------------------------------
17510 |Info:    Profile loading: Succeeded for SteelSeries Rival 3 @ HID: /dev/hidraw3
46205 |Info:    Profile loading: Succeeded for SteelSeries Rival 3 @ HID: /dev/hidraw3
54658 |Info:    Found file: RED_COOLNESS.orp attempting to validate header
54658 |Info:    Valid v3 profile found for RED_COOLNESS
55556 |Info:    Profile loading: Succeeded for SteelSeries Rival 3 @ HID: /dev/hidraw3
69427 |Info:    Found file: RED_COOLNESS.orp attempting to validate header
69427 |Info:    Valid v3 profile found for RED_COOLNESS
70141 |Info:    Profile loading: Succeeded for SteelSeries Rival 3 @ HID: /dev/hidraw3
