    OpenRGB v0.9
    Commit: 11a4eac71fdeb90356b4e68249723fc97af3d110 from 2023-07-10 05:52:54 -0500
    Launched: 20230813_161409
====================================================================================================

422   |Info:    Found file: RED_COOLNESS.orp attempting to validate header
458   |Info:    Valid v3 profile found for RED_COOLNESS
2192  |Info:    ------------------------------------------------------
2192  |Info:    |               Start device detection               |
2192  |Info:    ------------------------------------------------------
2193  |Info:    Initializing HID interfaces: Success
2200  |Info:    ------------------------------------------------------
2200  |Info:    |             Detecting I2C interfaces               |
2200  |Info:    ------------------------------------------------------
2200  |Warning: [i2c_smbus_linux] Failed to read i2c device PCI device ID
2200  |Info:    Registering I2C interface: /dev/i2c-3 Device 0000:0000 Subsystem: 0000:0000
2201  |Info:    Registering I2C interface: /dev/i2c-1 Device 8086:5912 Subsystem: 1028:0763
2201  |Info:    Registering I2C interface: /dev/i2c-4 Device 8086:A123 Subsystem: 1028:0763
2201  |Info:    Registering I2C interface: /dev/i2c-2 Device 8086:5912 Subsystem: 1028:0763
2201  |Info:    Registering I2C interface: /dev/i2c-0 Device 8086:5912 Subsystem: 1028:0763
2201  |Info:    ------------------------------------------------------
2201  |Info:    |               Detecting I2C devices                |
2201  |Info:    ------------------------------------------------------
2551  |Info:    ------------------------------------------------------
2551  |Info:    |               Detecting I2C PCI devices            |
2551  |Info:    ------------------------------------------------------
2553  |Info:    ------------------------------------------------------
2553  |Info:    |               Detecting HID devices                |
2553  |Info:    ------------------------------------------------------
2611  |Info:    [SteelSeries Rival 3] Registering RGB controller
2611  |Info:    ------------------------------------------------------
2611  |Info:    |            Detecting libusb HID devices            |
2611  |Info:    ------------------------------------------------------
3497  |Info:    ------------------------------------------------------
3497  |Info:    |              Detecting other devices               |
3497  |Info:    ------------------------------------------------------
4393  |Info:    ------------------------------------------------------
4393  |Info:    |                Detection completed                 |
4393  |Info:    ------------------------------------------------------
4394  |Info:    Profile loading: Succeeded for SteelSeries Rival 3 @ HID: /dev/hidraw3
