    OpenRGB v0.9
    Commit: 11a4eac71fdeb90356b4e68249723fc97af3d110 from 2023-07-10 05:52:54 -0500
    Launched: 20231006_183653
====================================================================================================

169   |Info:    Found file: RED_COOLNESS.orp attempting to validate header
169   |Info:    Valid v3 profile found for RED_COOLNESS
1175  |Info:    ------------------------------------------------------
1175  |Info:    |               Start device detection               |
1175  |Info:    ------------------------------------------------------
1175  |Info:    Initializing HID interfaces: Success
1181  |Info:    ------------------------------------------------------
1181  |Info:    |             Detecting I2C interfaces               |
1181  |Info:    ------------------------------------------------------
1181  |Warning: [i2c_smbus_linux] Failed to read i2c device PCI device ID
1181  |Info:    Registering I2C interface: /dev/i2c-3 Device 0000:0000 Subsystem: 0000:0000
1181  |Info:    Registering I2C interface: /dev/i2c-1 Device 8086:5912 Subsystem: 1028:0763
1181  |Info:    Registering I2C interface: /dev/i2c-4 Device 8086:A123 Subsystem: 1028:0763
1181  |Info:    Registering I2C interface: /dev/i2c-2 Device 8086:5912 Subsystem: 1028:0763
1181  |Info:    Registering I2C interface: /dev/i2c-0 Device 8086:5912 Subsystem: 1028:0763
1181  |Info:    ------------------------------------------------------
1181  |Info:    |               Detecting I2C devices                |
1181  |Info:    ------------------------------------------------------
1495  |Info:    ------------------------------------------------------
1495  |Info:    |               Detecting I2C PCI devices            |
1495  |Info:    ------------------------------------------------------
1497  |Info:    ------------------------------------------------------
1497  |Info:    |               Detecting HID devices                |
1497  |Info:    ------------------------------------------------------
1557  |Info:    [SteelSeries Rival 3] Registering RGB controller
1557  |Info:    ------------------------------------------------------
1557  |Info:    |            Detecting libusb HID devices            |
1557  |Info:    ------------------------------------------------------
1688  |Info:    ------------------------------------------------------
1688  |Info:    |              Detecting other devices               |
1688  |Info:    ------------------------------------------------------
1693  |Info:    ------------------------------------------------------
1693  |Info:    |                Detection completed                 |
1693  |Info:    ------------------------------------------------------
1693  |Info:    Profile loading: Succeeded for SteelSeries Rival 3 @ HID: /dev/hidraw3
