    OpenRGB v0.9
    Commit: 11a4eac71fdeb90356b4e68249723fc97af3d110 from 2023-07-10 05:52:54 -0500
    Launched: 20230920_181859
====================================================================================================

0     |Info:    Found file: RED_COOLNESS.orp attempting to validate header
0     |Info:    Valid v3 profile found for RED_COOLNESS
1017  |Info:    ------------------------------------------------------
1017  |Info:    |               Start device detection               |
1017  |Info:    ------------------------------------------------------
1027  |Info:    Initializing HID interfaces: Success
1031  |Info:    ------------------------------------------------------
1031  |Info:    |             Detecting I2C interfaces               |
1031  |Info:    ------------------------------------------------------
1031  |Warning: [i2c_smbus_linux] Failed to read i2c device PCI device ID
1032  |Info:    Registering I2C interface: /dev/i2c-3 Device 0000:0000 Subsystem: 0000:0000
1032  |Info:    Registering I2C interface: /dev/i2c-1 Device 8086:5912 Subsystem: 1028:0763
1032  |Info:    Registering I2C interface: /dev/i2c-4 Device 8086:A123 Subsystem: 1028:0763
1032  |Info:    Registering I2C interface: /dev/i2c-2 Device 8086:5912 Subsystem: 1028:0763
1032  |Info:    Registering I2C interface: /dev/i2c-0 Device 8086:5912 Subsystem: 1028:0763
1032  |Info:    ------------------------------------------------------
1032  |Info:    |               Detecting I2C devices                |
1032  |Info:    ------------------------------------------------------
1342  |Info:    ------------------------------------------------------
1342  |Info:    |               Detecting I2C PCI devices            |
1342  |Info:    ------------------------------------------------------
1343  |Info:    ------------------------------------------------------
1343  |Info:    |               Detecting HID devices                |
1343  |Info:    ------------------------------------------------------
1400  |Info:    [SteelSeries Rival 3] Registering RGB controller
1400  |Info:    ------------------------------------------------------
1400  |Info:    |            Detecting libusb HID devices            |
1400  |Info:    ------------------------------------------------------
1414  |Info:    ------------------------------------------------------
1414  |Info:    |              Detecting other devices               |
1414  |Info:    ------------------------------------------------------
1420  |Info:    ------------------------------------------------------
1420  |Info:    |                Detection completed                 |
1420  |Info:    ------------------------------------------------------
1420  |Info:    Profile loading: Succeeded for SteelSeries Rival 3 @ HID: /dev/hidraw3
