    OpenRGB v0.8
    Commit:  from 
    Launched: 20230701_102632
====================================================================================================

0     |Info:    Found file: RED_COOLNESS.orp attempting to validate header
0     |Info:    Valid v3 profile found for RED_COOLNESS
1011  |Info:    ------------------------------------------------------
1011  |Info:    |               Start device detection               |
1011  |Info:    ------------------------------------------------------
1013  |Info:    Initializing HID interfaces: Success
1056  |Info:    ------------------------------------------------------
1056  |Info:    |             Detecting I2C interfaces               |
1056  |Info:    ------------------------------------------------------
1056  |Warning: [i2c_smbus_linux] Failed to read i2c device PCI device ID
1056  |Info:    Registering I2C interface: /dev/i2c-3 Device 0000:0000 Subsystem: 0000:0000
1056  |Info:    Registering I2C interface: /dev/i2c-1 Device 8086:5912 Subsystem: 1028:0763
1056  |Info:    Registering I2C interface: /dev/i2c-4 Device 8086:A123 Subsystem: 1028:0763
1056  |Info:    Registering I2C interface: /dev/i2c-2 Device 8086:5912 Subsystem: 1028:0763
1056  |Info:    Registering I2C interface: /dev/i2c-0 Device 8086:5912 Subsystem: 1028:0763
1056  |Info:    ------------------------------------------------------
1056  |Info:    |               Detecting I2C devices                |
1056  |Info:    ------------------------------------------------------
1305  |Info:    ------------------------------------------------------
1305  |Info:    |               Detecting I2C PCI devices            |
1305  |Info:    ------------------------------------------------------
1308  |Info:    ------------------------------------------------------
1308  |Info:    |               Detecting HID devices                |
1308  |Info:    ------------------------------------------------------
1311  |Info:    [SteelSeries Rival 3] Registering RGB controller
1311  |Info:    ------------------------------------------------------
1311  |Info:    |              Detecting other devices               |
1311  |Info:    ------------------------------------------------------
1321  |Info:    ------------------------------------------------------
1321  |Info:    |                Detection completed                 |
1321  |Info:    ------------------------------------------------------
