    OpenRGB v0.9
    Commit: 11a4eac71fdeb90356b4e68249723fc97af3d110 from 2023-07-10 05:52:54 -0500
    Launched: 20231007_165245
====================================================================================================

212   |Info:    Found file: RED_COOLNESS.orp attempting to validate header
212   |Info:    Valid v3 profile found for RED_COOLNESS
1215  |Info:    ------------------------------------------------------
1215  |Info:    |               Start device detection               |
1215  |Info:    ------------------------------------------------------
1215  |Info:    Initializing HID interfaces: Success
1221  |Info:    ------------------------------------------------------
1221  |Info:    |             Detecting I2C interfaces               |
1221  |Info:    ------------------------------------------------------
1221  |Warning: [i2c_smbus_linux] Failed to read i2c device PCI device ID
1221  |Info:    Registering I2C interface: /dev/i2c-3 Device 0000:0000 Subsystem: 0000:0000
1222  |Info:    Registering I2C interface: /dev/i2c-1 Device 8086:5912 Subsystem: 1028:0763
1222  |Info:    Registering I2C interface: /dev/i2c-4 Device 8086:A123 Subsystem: 1028:0763
1222  |Info:    Registering I2C interface: /dev/i2c-2 Device 8086:5912 Subsystem: 1028:0763
1222  |Info:    Registering I2C interface: /dev/i2c-0 Device 8086:5912 Subsystem: 1028:0763
1222  |Info:    ------------------------------------------------------
1222  |Info:    |               Detecting I2C devices                |
1222  |Info:    ------------------------------------------------------
1535  |Info:    ------------------------------------------------------
1535  |Info:    |               Detecting I2C PCI devices            |
1535  |Info:    ------------------------------------------------------
1536  |Info:    ------------------------------------------------------
1536  |Info:    |               Detecting HID devices                |
1536  |Info:    ------------------------------------------------------
1538  |Info:    [SteelSeries Rival 3] Registering RGB controller
1538  |Info:    ------------------------------------------------------
1538  |Info:    |            Detecting libusb HID devices            |
1538  |Info:    ------------------------------------------------------
1560  |Info:    ------------------------------------------------------
1560  |Info:    |              Detecting other devices               |
1560  |Info:    ------------------------------------------------------
1571  |Info:    ------------------------------------------------------
1571  |Info:    |                Detection completed                 |
1571  |Info:    ------------------------------------------------------
1572  |Info:    Profile loading: Succeeded for SteelSeries Rival 3 @ HID: /dev/hidraw3
