    OpenRGB v0.9
    Commit: 11a4eac71fdeb90356b4e68249723fc97af3d110 from 2023-07-10 05:52:54 -0500
    Launched: 20230928_195701
====================================================================================================

769   |Info:    Found file: RED_COOLNESS.orp attempting to validate header
819   |Info:    Valid v3 profile found for RED_COOLNESS
1822  |Info:    ------------------------------------------------------
1822  |Info:    |               Start device detection               |
1822  |Info:    ------------------------------------------------------
1823  |Info:    Initializing HID interfaces: Success
1830  |Info:    ------------------------------------------------------
1830  |Info:    |             Detecting I2C interfaces               |
1830  |Info:    ------------------------------------------------------
1830  |Warning: [i2c_smbus_linux] Failed to read i2c device PCI device ID
1830  |Info:    Registering I2C interface: /dev/i2c-3 Device 0000:0000 Subsystem: 0000:0000
1830  |Info:    Registering I2C interface: /dev/i2c-1 Device 8086:5912 Subsystem: 1028:0763
1830  |Info:    Registering I2C interface: /dev/i2c-4 Device 8086:A123 Subsystem: 1028:0763
1831  |Info:    Registering I2C interface: /dev/i2c-2 Device 8086:5912 Subsystem: 1028:0763
1831  |Info:    Registering I2C interface: /dev/i2c-0 Device 8086:5912 Subsystem: 1028:0763
1831  |Info:    ------------------------------------------------------
1831  |Info:    |               Detecting I2C devices                |
1831  |Info:    ------------------------------------------------------
2139  |Info:    ------------------------------------------------------
2139  |Info:    |               Detecting I2C PCI devices            |
2139  |Info:    ------------------------------------------------------
2140  |Info:    ------------------------------------------------------
2140  |Info:    |               Detecting HID devices                |
2140  |Info:    ------------------------------------------------------
2196  |Info:    [SteelSeries Rival 3] Registering RGB controller
2196  |Info:    ------------------------------------------------------
2197  |Info:    |            Detecting libusb HID devices            |
2197  |Info:    ------------------------------------------------------
2402  |Info:    ------------------------------------------------------
2402  |Info:    |              Detecting other devices               |
2402  |Info:    ------------------------------------------------------
2416  |Info:    ------------------------------------------------------
2416  |Info:    |                Detection completed                 |
2416  |Info:    ------------------------------------------------------
2417  |Info:    Profile loading: Succeeded for SteelSeries Rival 3 @ HID: /dev/hidraw3
